<?xml version="1.0"?>
<VTKFile type="UnstructuredGrid" version="0.1" byte_order="LittleEndian">
  <UnstructuredGrid>
    <Piece NumberOfCells="32" NumberOfPoints="66">
      <PointData Scalars="Sg">
        <DataArray type="Float32" Name="Sg" NumberOfComponents="1" format="ascii">
          0 0 0 0 0 0 0 0 0 0 0 0
          0 0 0 0 0 0 0 0 0 0 0 0
          0 0 0 0 0 0 0 0 0 0 0 0
          0 0 0 0 0 0 0 0 0 0 0 0
          0 0 0 0 0 0 0 0 0 0 0 0
          0 0 0 0 0 0
        </DataArray>
        <DataArray type="Float32" Name="Sl" NumberOfComponents="1" format="ascii">
          1 1 1 1 1 1 1 1 1 1 1 1
          1 1 1 1 1 1 1 1 1 1 1 1
          1 1 1 1 1 1 1 1 1 1 1 1
          1 1 1 1 1 1 1 1 1 1 1 1
          1 1 1 1 1 1 1 1 1 1 1 1
          1 1 1 1 1 1
        </DataArray>
        <DataArray type="Float32" Name="pg" NumberOfComponents="1" format="ascii">
          117620 117620 117683 117683 117558 117558 117495 117495 117433 117433 117370 117370
          117307 117307 117245 117245 117182 117182 116994 116994 116806 116806 116618 116618
          116430 116430 116242 116242 116054 116054 115866 115866 115678 115678 115164 115164
          114649 114649 114134 114134 113619 113619 113104 113104 112588 112588 112073 112073
          111558 111558 111320 111320 111082 111082 110844 110844 110607 110607 110371 110371
          110135 110135 109900 109900 109667 109667
        </DataArray>
        <DataArray type="Float32" Name="pl" NumberOfComponents="1" format="ascii">
          107954 107954 108016 108016 107891 107891 107829 107829 107766 107766 107703 107703
          107641 107641 107578 107578 107515 107515 107327 107327 107139 107139 106951 106951
          106763 106763 106575 106575 106387 106387 106199 106199 106011 106011 105497 105497
          104982 104982 104467 104467 103952 103952 103437 103437 102921 102921 102406 102406
          101891 101891 101653 101653 101415 101415 101177 101177 100940 100940 100704 100704
          100469 100469 100234 100234 100000 100000
        </DataArray>
        <DataArray type="Float32" Name="pc" NumberOfComponents="1" format="ascii">
          9666.67 9666.67 9666.67 9666.67 9666.67 9666.67 9666.67 9666.67 9666.67 9666.67 9666.67 9666.67
          9666.67 9666.67 9666.67 9666.67 9666.67 9666.67 9666.67 9666.67 9666.67 9666.67 9666.67 9666.67
          9666.67 9666.67 9666.67 9666.67 9666.67 9666.67 9666.67 9666.67 9666.67 9666.67 9666.67 9666.67
          9666.67 9666.67 9666.67 9666.67 9666.67 9666.67 9666.67 9666.67 9666.67 9666.67 9666.67 9666.67
          9666.67 9666.67 9666.67 9666.67 9666.67 9666.67 9666.67 9666.67 9666.67 9666.67 9666.67 9666.67
          9666.67 9666.67 9666.67 9666.67 9666.67 9666.67
        </DataArray>
        <DataArray type="Float32" Name="rhoL" NumberOfComponents="1" format="ascii">
          1019.7 1019.69 1018.44 1018.56 1020.59 1020.59 1021.11 1021.11 1021.35 1021.41 1021.49 1021.58
          1021.57 1021.69 1021.64 1021.78 1021.69 1021.85 1021.81 1021.99 1021.91 1022.11 1022.01 1022.2
          1022.1 1022.29 1022.2 1022.37 1022.31 1022.46 1022.44 1022.57 1022.62 1022.69 1023.13 1023.18
          1023.74 1023.77 1024.39 1024.41 1024.96 1024.97 1025.33 1025.34 1025.46 1025.46 1024.83 1024.84
          1023.29 1023.29 1022.05 1022.05 1020.44 1020.44 1018.39 1018.39 1015.85 1015.85 1012.82 1012.82
          1009.34 1009.34 1005.5 1005.5 1001.45 1001.45
        </DataArray>
        <DataArray type="Float32" Name="rhoG" NumberOfComponents="1" format="ascii">
          2.06927 2.06927 2.07038 2.07038 2.06815 2.06815 2.06703 2.06703 2.0659 2.0659 2.06476 2.06477
          2.06363 2.06363 2.0625 2.0625 2.06136 2.06137 2.05796 2.05796 2.05456 2.05456 2.05115 2.05116
          2.04775 2.04775 2.04434 2.04435 2.04094 2.04094 2.03753 2.03754 2.03413 2.03413 2.02482 2.02482
          2.01551 2.01551 2.00619 2.00619 1.99687 1.99687 1.98754 1.98754 1.9782 1.9782 1.96886 1.96886
          1.9595 1.9595 1.95517 1.95517 1.95083 1.95083 1.9465 1.9465 1.94216 1.94216 1.93783 1.93783
          1.93351 1.93351 1.9292 1.9292 1.9249 1.9249
        </DataArray>
        <DataArray type="Float32" Name="mobL" NumberOfComponents="1" format="ascii">
          1027.28 1027.32 1031.34 1030.93 1024.49 1024.5 1022.91 1022.9 1022.16 1022 1021.76 1021.48
          1021.5 1021.14 1021.3 1020.88 1021.14 1020.67 1020.77 1020.24 1020.47 1019.89 1020.19 1019.6
          1019.91 1019.34 1019.61 1019.09 1019.28 1018.83 1018.9 1018.52 1018.36 1018.16 1016.86 1016.71
          1015.09 1015 1013.22 1013.16 1011.59 1011.56 1010.54 1010.5 1010.16 1010.17 1011.94 1011.94
          1016.38 1016.38 1020.03 1020.03 1024.93 1024.93 1031.41 1031.41 1039.88 1039.88 1050.73 1050.73
          1064.4 1064.41 1081.55 1081.55 1103.12 1103.12
        </DataArray>
        <DataArray type="Float32" Name="mobG" NumberOfComponents="1" format="ascii">
          0 0 0 0 0 0 0 0 0 0 0 0
          0 0 0 0 0 0 0 0 0 0 0 0
          0 0 0 0 0 0 0 0 0 0 0 0
          0 0 0 0 0 0 0 0 0 0 0 0
          0 0 0 0 0 0 0 0 0 0 0 0
          0 0 0 0 0 0
        </DataArray>
        <DataArray type="Float32" Name="porosity" NumberOfComponents="1" format="ascii">
          0.349359 0.347688 0.266305 0.137079 0.395437 0.394267 0.399743 0.399549 0.399915 0.399884 0.399949 0.399946
          0.399963 0.399965 0.399971 0.399974 0.399975 0.399979 0.399982 0.399985 0.399985 0.399988 0.399987 0.399989
          0.399989 0.39999 0.399989 0.39999 0.39999 0.399991 0.399991 0.399991 0.399991 0.399992 0.399992 0.399993
          0.399993 0.399993 0.399994 0.399994 0.399994 0.399994 0.399995 0.399995 0.399995 0.399995 0.399996 0.399996
          0.399998 0.399998 0.399998 0.399998 0.399999 0.399999 0.4 0.4 0.4 0.4 0.4 0.4
          0.4 0.4 0.4 0.4 0.4 0.4
        </DataArray>
        <DataArray type="Float32" Name="temperature" NumberOfComponents="1" format="ascii">
          298.15 298.15 298.15 298.15 298.15 298.15 298.15 298.15 298.15 298.15 298.15 298.15
          298.15 298.15 298.15 298.15 298.15 298.15 298.15 298.15 298.15 298.15 298.15 298.15
          298.15 298.15 298.15 298.15 298.15 298.15 298.15 298.15 298.15 298.15 298.15 298.15
          298.15 298.15 298.15 298.15 298.15 298.15 298.15 298.15 298.15 298.15 298.15 298.15
          298.15 298.15 298.15 298.15 298.15 298.15 298.15 298.15 298.15 298.15 298.15 298.15
          298.15 298.15 298.15 298.15 298.15 298.15
        </DataArray>
        <DataArray type="Float32" Name="phase presence" NumberOfComponents="1" format="ascii">
          1 1 1 1 1 1 1 1 1 1 1 1
          1 1 1 1 1 1 1 1 1 1 1 1
          1 1 1 1 1 1 1 1 1 1 1 1
          1 1 1 1 1 1 1 1 1 1 1 1
          1 1 1 1 1 1 1 1 1 1 1 1
          1 1 1 1 1 1
        </DataArray>
        <DataArray type="Float32" Name="potential" NumberOfComponents="1" format="ascii">
          0.00135557 0.00136586 0.00234332 0.00224646 0.000662895 0.000664747 0.000267384 0.000266656 8.03848e-05 4.0678e-05 -1.95426e-05 -8.88416e-05
          -8.4789e-05 -0.000172947 -0.00013345 -0.000235929 -0.00017249 -0.00028776 -0.00026396 -0.000389992 -0.000336921 -0.000470493 -0.000402834 -0.000535673
          -0.000467032 -0.000592063 -0.000532826 -0.00064519 -0.000603888 -0.000699271 -0.000683901 -0.000761044 -0.000792794 -0.000834246 -0.0010805 -0.00110717
          -0.0013919 -0.00140562 -0.00169073 -0.00169997 -0.00192386 -0.00192901 -0.00205819 -0.00206223 -0.00209908 -0.00209844 -0.00193644 -0.00193672
          -0.00161458 -0.00161449 -0.00140076 -0.0014008 -0.00115939 -0.00115934 -0.000898533 -0.000898505 -0.000633501 -0.00063354 -0.000386467 -0.000386484
          -0.000183333 -0.000183315 -4.78842e-05 -4.789e-05 0 0
        </DataArray>
        <DataArray type="Float32" Name="boxVolume" NumberOfComponents="1" format="ascii">
          7.9375e-05 7.9375e-05 3.96875e-05 3.96875e-05 7.9375e-05 7.9375e-05 7.9375e-05 7.9375e-05 7.9375e-05 7.9375e-05 7.9375e-05 7.9375e-05
          7.9375e-05 7.9375e-05 7.9375e-05 7.9375e-05 0.00015875 0.00015875 0.000238125 0.000238125 0.000238125 0.000238125 0.000238125 0.000238125
          0.000238125 0.000238125 0.000238125 0.000238125 0.000238125 0.000238125 0.000238125 0.000238125 0.0004445 0.0004445 0.000650875 0.000650875
          0.000650875 0.000650875 0.000650875 0.000650875 0.000650875 0.000650875 0.000650875 0.000650875 0.000650875 0.000650875 0.000650875 0.000650875
          0.00047625 0.00047625 0.000301625 0.000301625 0.000301625 0.000301625 0.000301625 0.000301625 0.000301625 0.000301625 0.000301625 0.000301625
          0.000301625 0.000301625 0.000301625 0.000301625 0.000150812 0.000150812
        </DataArray>
        <DataArray type="Float32" Name="pH" NumberOfComponents="1" format="ascii">
          6.56522 6.56901 6.91068 6.87599 6.37658 6.38526 6.25228 6.26901 6.20945 6.21469 6.18963 6.18659
          6.17739 6.17005 6.16855 6.15868 6.16163 6.14998 6.14741 6.13467 6.13727 6.12404 6.12909 6.11628
          6.12196 6.11023 6.11537 6.10512 6.10892 6.10045 6.10231 6.0956 6.09397 6.09042 6.07553 6.07385
          6.06012 6.05943 6.04983 6.04954 6.04627 6.04624 6.04899 6.04902 6.06016 6.06052 6.08525 6.08518
          6.11859 6.11862 6.1396 6.1396 6.16311 6.16312 6.18324 6.18324 6.19398 6.19397 6.19928 6.19928
          6.20215 6.20215 6.20185 6.20185 6.19963 6.19963
        </DataArray>
        <DataArray type="Float32" Name="Omega" NumberOfComponents="1" format="ascii">
          0 0 0 0 0 0 0 0 0 0 0 0
          0 0 0 0 0 0 0 0 0 0 0 0
          0 0 0 0 0 0 0 0 0 0 0 0
          0 0 0 0 0 0 0 0 0 0 0 0
          0 0 0 0 0 0 0 0 0 0 0 0
          0 0 0 0 0 0
        </DataArray>
        <DataArray type="Float32" Name="Attachment_rate" NumberOfComponents="1" format="ascii">
          0 0 0 0 0 0 0 0 0 0 0 0
          0 0 0 0 0 0 0 0 0 0 0 0
          0 0 0 0 0 0 0 0 0 0 0 0
          0 0 0 0 0 0 0 0 0 0 0 0
          0 0 0 0 0 0 0 0 0 0 0 0
          0 0 0 0 0 0
        </DataArray>
        <DataArray type="Float32" Name="Detachment_rate" NumberOfComponents="1" format="ascii">
          -2.14741e-11 -2.34484e-11 -1.45843e-08 -9.28441e-09 5.21408e-13 6.31402e-13 3.60639e-15 4.87298e-15 1.79396e-17 2.87094e-17 1.21228e-19 1.84165e-19
          8.5023e-22 1.19777e-21 5.79683e-24 7.84145e-24 3.80266e-26 5.09391e-26 1.76893e-30 2.38053e-30 -1.15661e-31 1.36759e-30 -2.98778e-32 3.06991e-30
          -1.32392e-31 8.90283e-30 -1.06926e-31 2.121e-29 2.82659e-30 8.74177e-30 5.53875e-30 4.58874e-31 0 0 0 0
          0 0 0 0 0 0 0 0 0 0 0 0
          0 0 0 0 0 0 0 0 0 0 0 0
          0 0 0 0 0 0
        </DataArray>
        <DataArray type="Float32" Name="Growth_rate" NumberOfComponents="1" format="ascii">
          -1.3354e-08 -1.38207e-08 -2.53837e-07 -1.45903e-07 -8.63014e-10 -1.04699e-09 -6.8852e-12 -7.96512e-12 -4.5739e-14 -5.24096e-14 -2.91677e-16 -3.34013e-16
          -1.82184e-18 -2.10084e-18 -1.12753e-20 -1.31865e-20 -6.88043e-23 -8.2435e-23 -4.53723e-27 -2.8808e-27 2.39596e-28 -1.66408e-27 5.66007e-29 -3.76662e-27
          2.48542e-28 -1.11141e-26 2.12245e-28 -2.72327e-26 -6.38616e-27 -1.16554e-26 -1.56934e-26 -6.38034e-28 0 0 0 0
          0 0 0 0 0 0 0 0 0 0 0 0
          0 0 0 0 0 0 0 0 0 0 0 0
          0 0 0 0 0 0
        </DataArray>
        <DataArray type="Float32" Name="Decay_rate" NumberOfComponents="1" format="ascii">
          2.03026e-09 2.10706e-09 4.85318e-08 3.23789e-08 1.2189e-10 1.47815e-10 9.63585e-13 1.11202e-12 6.38526e-15 7.29339e-15 4.06523e-17 4.63805e-17
          2.53611e-19 2.9117e-19 1.56803e-21 1.82427e-21 9.56012e-24 1.13833e-23 6.28627e-28 3.95829e-28 -3.30857e-29 2.27352e-28 -7.78291e-30 5.11405e-28
          -3.3985e-29 1.49848e-27 -2.88051e-29 3.64171e-27 8.57827e-28 1.54309e-27 2.0779e-27 8.3358e-29 0 0 0 0
          0 0 0 0 0 0 0 0 0 0 0 0
          0 0 0 0 0 0 0 0 0 0 0 0
          0 0 0 0 0 0
        </DataArray>
        <DataArray type="Float32" Name="Volume_Fraction_Biofilm" NumberOfComponents="1" format="ascii">
          0.000853991 0.000882975 0.0162334 0.00931572 5.51022e-05 6.67079e-05 4.38506e-07 5.05863e-07 2.9068e-09 3.32e-09 1.85078e-11 2.11155e-11
          1.15465e-13 1.32566e-13 7.13915e-16 8.30584e-16 4.3527e-18 5.18285e-18 2.86217e-22 1.80224e-22 -1.50642e-23 1.03516e-22 -3.54364e-24 2.32849e-22
          -1.54738e-23 6.82278e-22 -1.31153e-23 1.65812e-21 3.90581e-22 7.02593e-22 9.46096e-22 3.79542e-23 0 0 0 0
          0 0 0 0 0 0 0 0 0 0 0 0
          0 0 0 0 0 0 0 0 0 0 0 0
          0 0 0 0 0 0
        </DataArray>
        <DataArray type="Float32" Name="Volume_Fraction_Calcite" NumberOfComponents="1" format="ascii">
          0.0497869 0.0514287 0.117462 0.253605 0.00450788 0.00566663 0.00025656 0.000450192 8.48874e-05 0.000115917 5.06719e-05 5.40684e-05
          3.69119e-05 3.45426e-05 2.94481e-05 2.57332e-05 2.47509e-05 2.08046e-05 1.80006e-05 1.49695e-05 1.47261e-05 1.23604e-05 1.27854e-05 1.09629e-05
          1.14803e-05 1.00982e-05 1.05219e-05 9.49191e-06 9.76794e-06 9.02086e-06 9.14074e-06 8.61168e-06 8.52867e-06 8.24906e-06 7.54261e-06 7.44656e-06
          6.84308e-06 6.80997e-06 6.28798e-06 6.27493e-06 5.78827e-06 5.78328e-06 5.25063e-06 5.24878e-06 4.56893e-06 4.56887e-06 3.64392e-06 3.64374e-06
          2.44078e-06 2.44077e-06 1.73157e-06 1.73176e-06 1.0499e-06 1.05014e-06 4.60547e-07 4.60419e-07 9.20813e-08 9.21383e-08 1.5461e-12 1.54625e-12
          0 0 0 0 0 0
        </DataArray>
        <DataArray type="Float32" Name="Kxx" NumberOfComponents="1" format="ascii">
          1.3325e-10 1.31347e-10 5.90184e-11 8.04942e-12 1.93233e-10 1.91523e-10 1.99615e-10 1.99325e-10 1.99873e-10 1.99826e-10 1.99924e-10 1.99919e-10
          1.99945e-10 1.99948e-10 1.99956e-10 1.99961e-10 1.99963e-10 1.99969e-10 1.99973e-10 1.99978e-10 1.99978e-10 1.99981e-10 1.99981e-10 1.99984e-10
          1.99983e-10 1.99985e-10 1.99984e-10 1.99986e-10 1.99985e-10 1.99986e-10 1.99986e-10 1.99987e-10 1.99987e-10 1.99988e-10 1.99989e-10 1.99989e-10
          1.9999e-10 1.9999e-10 1.99991e-10 1.99991e-10 1.99991e-10 1.99991e-10 1.99992e-10 1.99992e-10 1.99993e-10 1.99993e-10 1.99995e-10 1.99995e-10
          1.99996e-10 1.99996e-10 1.99997e-10 1.99997e-10 1.99998e-10 1.99998e-10 1.99999e-10 1.99999e-10 2e-10 2e-10 2e-10 2e-10
          2e-10 2e-10 2e-10 2e-10 2e-10 2e-10
        </DataArray>
        <DataArray type="Float32" Name="X_lBrine" NumberOfComponents="1" format="ascii">
          0.947664 0.947695 0.95071 0.95041 0.945513 0.945518 0.944275 0.944271 0.943685 0.943557 0.943368 0.943144
          0.94316 0.942874 0.943003 0.942669 0.942877 0.942498 0.942578 0.942154 0.942335 0.941875 0.942111 0.941641
          0.941887 0.941432 0.94165 0.941229 0.941385 0.941018 0.941076 0.940771 0.940641 0.940472 0.939415 0.939296
          0.937953 0.937885 0.936394 0.936343 0.935024 0.934992 0.934117 0.934089 0.933773 0.933777 0.935204 0.935201
          0.938769 0.93877 0.941642 0.941642 0.945388 0.945389 0.950175 0.950176 0.956123 0.956122 0.963253 0.963253
          0.971466 0.971467 0.980596 0.980596 0.99029 0.99029
        </DataArray>
        <DataArray type="Float32" Name="X_lTotalC" NumberOfComponents="1" format="ascii">
          4.25965e-05 4.30875e-05 0.000119894 0.000108338 2.32334e-05 2.37737e-05 1.56722e-05 1.63647e-05 1.35537e-05 1.36345e-05 1.26377e-05 1.23716e-05
          1.20934e-05 1.16627e-05 1.17105e-05 1.11859e-05 1.14165e-05 1.08244e-05 1.08075e-05 1.01866e-05 1.03725e-05 9.73862e-06 1.00154e-05 9.40452e-06
          9.69484e-06 9.1349e-06 9.38801e-06 8.89648e-06 9.07575e-06 8.66717e-06 8.74204e-06 8.41783e-06 8.30695e-06 8.13645e-06 7.25438e-06 7.15872e-06
          6.20628e-06 6.16013e-06 5.23629e-06 5.20588e-06 4.44498e-06 4.42602e-06 3.87465e-06 3.85953e-06 3.37973e-06 3.36989e-06 3.07104e-06 3.07214e-06
          2.98845e-06 2.98818e-06 2.9551e-06 2.95515e-06 2.91209e-06 2.91205e-06 2.7944e-06 2.79437e-06 2.52983e-06 2.52986e-06 2.14944e-06 2.14947e-06
          1.69072e-06 1.69067e-06 1.15895e-06 1.15899e-06 5.81077e-07 5.81077e-07
        </DataArray>
        <DataArray type="Float32" Name="X_lNa" NumberOfComponents="1" format="ascii">
          1.30269e-07 1.3029e-07 1.3065e-07 1.3064e-07 1.30027e-07 1.30065e-07 1.29916e-07 1.29966e-07 1.2988e-07 1.29923e-07 1.29868e-07 1.29908e-07
          1.29863e-07 1.29908e-07 1.29862e-07 1.29915e-07 1.29862e-07 1.29928e-07 1.29877e-07 1.29978e-07 1.29909e-07 1.30053e-07 1.29963e-07 1.30146e-07
          1.30044e-07 1.30261e-07 1.30165e-07 1.30405e-07 1.30343e-07 1.30591e-07 1.3061e-07 1.3085e-07 1.31076e-07 1.31227e-07 1.3298e-07 1.33197e-07
          1.36894e-07 1.37099e-07 1.44346e-07 1.44634e-07 1.57284e-07 1.57733e-07 1.79123e-07 1.79403e-07 2.30276e-07 2.32018e-07 3.6446e-07 3.64129e-07
          5.93974e-07 5.94083e-07 7.71704e-07 7.71662e-07 1.00164e-06 1.0017e-06 1.2948e-06 1.29483e-06 1.65873e-06 1.65867e-06 2.09496e-06 2.09494e-06
          2.59733e-06 2.59738e-06 3.15586e-06 3.15581e-06 3.74881e-06 3.74881e-06
        </DataArray>
        <DataArray type="Float32" Name="X_lCl" NumberOfComponents="1" format="ascii">
          0.0305111 0.030512 0.0306094 0.0305995 0.0304414 0.0304413 0.0304012 0.0304007 0.0303819 0.0303773 0.0303714 0.0303637
          0.0303646 0.0303548 0.0303594 0.0303479 0.0303552 0.0303422 0.0303452 0.0303304 0.0303369 0.0303206 0.0303291 0.0303122
          0.0303211 0.0303045 0.0303124 0.0302968 0.0303023 0.0302884 0.0302902 0.0302784 0.0302725 0.0302659 0.0302185 0.030213
          0.0301426 0.0301389 0.0300387 0.030035 0.0299025 0.0298983 0.0297194 0.0297165 0.0293493 0.0293373 0.0284561 0.0284583
          0.0269652 0.0269645 0.0258145 0.0258148 0.0243267 0.0243263 0.0224302 0.02243 0.020076 0.0200764 0.0172542 0.0172544
          0.0140046 0.0140043 0.0103917 0.010392 0.00655617 0.00655617
        </DataArray>
        <DataArray type="Float32" Name="X_lCa" NumberOfComponents="1" format="ascii">
          0.00278437 0.00276449 0.000840855 0.00103336 0.00414856 0.00414566 0.004933 0.00493573 0.00530643 0.00538779 0.0055074 0.00564922
          0.00563944 0.00582071 0.00573846 0.00595052 0.00581834 0.00605851 0.00600765 0.00627673 0.00616165 0.00645439 0.00630412 0.00660319
          0.0064468 0.00673621 0.00659768 0.00686532 0.00676638 0.00700034 0.00696349 0.0071583 0.00724239 0.00735041 0.00803116 0.00810819
          0.00898261 0.00902686 0.0100195 0.0100537 0.0109729 0.0109963 0.0116926 0.0117128 0.0122526 0.0122614 0.0122437 0.0122432
          0.0115215 0.0115215 0.0108907 0.0108908 0.010057 0.0100567 0.00898657 0.00898645 0.0076548 0.00765503 0.00605743 0.00605754
          0.00421754 0.00421735 0.00217184 0.002172 0 0
        </DataArray>
        <DataArray type="Float32" Name="X_lUrea" NumberOfComponents="1" format="ascii">
          0.00369421 0.00366347 0.000647577 0.000954715 0.00578465 0.00577952 0.00698178 0.00698496 0.00754963 0.00767261 0.00785492 0.00806985
          0.00805543 0.00833026 0.00820576 0.0085273 0.00832701 0.00869117 0.00861425 0.00902219 0.00884783 0.00929159 0.00906387 0.00951718
          0.00928016 0.0097188 0.00950887 0.00991447 0.00976453 0.0101191 0.0100632 0.0103584 0.0104858 0.0106495 0.0116808 0.0117975
          0.0131221 0.0131892 0.014693 0.0147448 0.0161381 0.0161736 0.0172306 0.0172611 0.0180849 0.0180984 0.0180889 0.0180882
          0.0170256 0.0170256 0.016094 0.0160942 0.014862 0.0148617 0.0132801 0.0132799 0.011312 0.0113123 0.00895142 0.00895158
          0.00623249 0.0062322 0.00320943 0.00320967 0 0
        </DataArray>
        <DataArray type="Float32" Name="X_lTotalNH" NumberOfComponents="1" format="ascii">
          0.0123231 0.0123408 0.0140819 0.0139046 0.0111152 0.011118 0.0104233 0.0104213 0.010095 0.0100238 0.00991851 0.00979407
          0.00980256 0.00964346 0.00971562 0.00952948 0.00964549 0.00943466 0.00947932 0.00924306 0.00934412 0.00908701 0.009219 0.00895624
          0.00909365 0.00883927 0.00896099 0.00872565 0.00881256 0.00860672 0.00863897 0.00846748 0.00839308 0.00829795 0.00769596 0.00762779
          0.00685005 0.00681064 0.00591815 0.00588727 0.00504187 0.00501989 0.0043417 0.00432315 0.00368761 0.00367439 0.00326585 0.00326733
          0.00316343 0.00316308 0.00314669 0.00314674 0.00314057 0.00314057 0.00313916 0.00313916 0.0031399 0.0031399 0.00314166 0.00314166
          0.00314397 0.00314397 0.00314662 0.00314662 0.00314947 0.00314947
        </DataArray>
        <DataArray type="Float32" Name="X_lO2" NumberOfComponents="1" format="ascii">
          -1.92469e-09 -1.92642e-09 -1.92703e-09 -1.9296e-09 -1.92577e-09 -1.92945e-09 -1.92917e-09 -1.93405e-09 -1.93244e-09 -1.93796e-09 -1.9349e-09 -1.94122e-09
          -1.93678e-09 -1.94422e-09 -1.93837e-09 -1.94722e-09 -1.93978e-09 -1.95031e-09 -1.94453e-09 -1.95877e-09 -1.95014e-09 -1.96859e-09 -1.95741e-09 -1.97947e-09
          -1.96711e-09 -1.99178e-09 -1.98023e-09 -2.00633e-09 -1.99841e-09 -2.02427e-09 -2.02413e-09 -2.04826e-09 -2.06684e-09 -2.08172e-09 -2.22629e-09 -2.24371e-09
          -2.49082e-09 -2.50406e-09 -2.8499e-09 -2.86234e-09 -3.21272e-09 -3.22214e-09 -3.49322e-09 -3.49781e-09 -3.9208e-09 -3.9422e-09 -6.23807e-09 -6.23321e-09
          -1.05165e-08 -1.05177e-08 -1.16629e-08 -1.1663e-08 -1.18874e-08 -1.18872e-08 -1.11043e-08 -1.11042e-08 -9.47591e-09 -9.47615e-09 -7.31378e-09 -7.31394e-09
          -4.92012e-09 -4.91987e-09 -2.46279e-09 -2.46298e-09 0 0
        </DataArray>
        <DataArray type="Float32" Name="X_lSubstrate" NumberOfComponents="1" format="ascii">
          0.00297702 0.0029771 0.00298662 0.00298565 0.00297022 0.0029702 0.00296628 0.00296622 0.00296439 0.00296393 0.00296336 0.0029626
          0.00296269 0.00296172 0.00296218 0.00296104 0.00296177 0.00296048 0.00296078 0.00295931 0.00295996 0.00295833 0.00295918 0.00295749
          0.00295838 0.00295671 0.0029575 0.00295593 0.00295649 0.00295508 0.00295525 0.00295405 0.00295343 0.00295275 0.0029478 0.00294722
          0.00293966 0.00293926 0.00292816 0.00292774 0.00291255 0.00291206 0.00289079 0.00289045 0.00284562 0.00284413 0.00273473 0.00273501
          0.0025487 0.00254861 0.00240502 0.00240506 0.00221923 0.00221918 0.0019824 0.00198237 0.0016884 0.00168845 0.001336 0.00133603
          0.000930186 0.000930143 0.000478998 0.000479033 0 0
        </DataArray>
        <DataArray type="Float32" Name="X_lSuspended_Biomass" NumberOfComponents="1" format="ascii">
          3.77875e-06 3.7901e-06 4.02938e-06 3.86805e-06 3.69206e-06 3.69404e-06 3.64248e-06 3.64323e-06 3.61904e-06 3.61466e-06 3.60651e-06 3.59833e-06
          3.59832e-06 3.58774e-06 3.59219e-06 3.57984e-06 3.58727e-06 3.57334e-06 3.57581e-06 3.56052e-06 3.56672e-06 3.55048e-06 3.55859e-06 3.54242e-06
          3.55077e-06 3.53556e-06 3.54288e-06 3.52925e-06 3.53453e-06 3.52302e-06 3.52537e-06 3.51614e-06 3.51328e-06 3.50835e-06 3.48443e-06 3.48188e-06
          3.46095e-06 3.46001e-06 3.45021e-06 3.45003e-06 3.45553e-06 3.45578e-06 3.46948e-06 3.47e-06 3.47802e-06 3.47768e-06 3.40202e-06 3.40218e-06
          3.19042e-06 3.19035e-06 3.01484e-06 3.01488e-06 2.78411e-06 2.78405e-06 2.488e-06 2.48797e-06 2.1194e-06 2.11946e-06 1.67714e-06 1.67717e-06
          1.16769e-06 1.16764e-06 6.01291e-07 6.01335e-07 0 0
        </DataArray>
        <DataArray type="Float32" Name="X_lNH4" NumberOfComponents="1" format="ascii">
          0.0130307 0.0130492 0.0148584 0.0146758 0.0117608 0.0117635 0.0110317 0.0110292 0.0106851 0.0106096 0.0104986 0.010367
          0.0103761 0.0102078 0.0102842 0.0100874 0.0102101 0.00998713 0.0100344 0.00978453 0.00989147 0.00961949 0.00975914 0.00948117
          0.00962655 0.00935743 0.00948621 0.00923721 0.00932917 0.00911138 0.00914549 0.00896404 0.00888531 0.00878464 0.00814753 0.00807538
          0.00725218 0.00721045 0.00626569 0.006233 0.00533801 0.00531474 0.00459672 0.00457709 0.00390418 0.00389019 0.00345756 0.00345913
          0.00334896 0.00334859 0.00333112 0.00333117 0.0033245 0.00332449 0.00332285 0.00332285 0.00332349 0.00332349 0.00332522 0.00332522
          0.00332753 0.00332753 0.0033302 0.0033302 0.00333307 0.00333307
        </DataArray>
        <DataArray type="Float32" Name="X_lHCO3" NumberOfComponents="1" format="ascii">
          4.27939e-05 4.33749e-05 0.000137664 0.000123262 2.08747e-05 2.15087e-05 1.2796e-05 1.35728e-05 1.06834e-05 1.08174e-05 9.79786e-06 9.58424e-06
          9.27952e-06 8.90768e-06 8.9185e-06 8.46063e-06 8.64335e-06 8.12647e-06 8.08528e-06 7.54986e-06 7.69519e-06 7.15508e-06 7.38172e-06 6.86703e-06
          7.10609e-06 6.63933e-06 6.84759e-06 6.44203e-06 6.58977e-06 6.25591e-06 6.31962e-06 6.05698e-06 5.97346e-06 5.83652e-06 5.16407e-06 5.0913e-06
          4.39159e-06 4.35772e-06 3.70287e-06 3.6814e-06 3.15891e-06 3.14598e-06 2.7789e-06 2.76861e-06 2.46465e-06 2.45862e-06 2.3004e-06 2.30104e-06
          2.30468e-06 2.30452e-06 2.31617e-06 2.3162e-06 2.31974e-06 2.31971e-06 2.24755e-06 2.24752e-06 2.02696e-06 2.02699e-06 1.69506e-06 1.69509e-06
          1.29402e-06 1.29398e-06 8.36831e-07 8.36866e-07 3.37056e-07 3.37056e-07
        </DataArray>
        <DataArray type="Float32" Name="X_lCO3" NumberOfComponents="1" format="ascii">
          1.86995e-08 1.90681e-08 9.12209e-08 7.96819e-08 6.91084e-09 7.26231e-09 3.4195e-09 3.77038e-09 2.66813e-09 2.7522e-09 2.37522e-09 2.33254e-09
          2.20936e-09 2.11386e-09 2.09627e-09 1.97463e-09 2.01143e-09 1.87353e-09 1.8463e-09 1.70632e-09 1.73557e-09 1.59726e-09 1.65014e-09 1.52086e-09
          1.57795e-09 1.46279e-09 1.51282e-09 1.41441e-09 1.45031e-09 1.37048e-09 1.38719e-09 1.32508e-09 1.30862e-09 1.27649e-09 1.1348e-09 1.11919e-09
          9.78628e-10 9.71658e-10 8.45657e-10 8.41448e-10 7.44706e-10 7.42299e-10 6.77769e-10 6.75818e-10 6.29371e-10 6.28555e-10 6.21915e-10 6.21974e-10
          6.54729e-10 6.54721e-10 6.73407e-10 6.73409e-10 6.86937e-10 6.86924e-10 6.62703e-10 6.62691e-10 5.70095e-10 5.70105e-10 4.35128e-10 4.35137e-10
          2.86632e-10 2.86617e-10 1.43705e-10 1.43715e-10 2.55591e-11 2.55591e-11
        </DataArray>
        <DataArray type="Float32" Name="X_lCO2" NumberOfComponents="1" format="ascii">
          1.17243e-05 1.1796e-05 2.05584e-05 1.93956e-05 8.17572e-06 8.25855e-06 6.44254e-06 6.5747e-06 5.848e-06 5.83207e-06 5.57084e-06 5.45881e-06
          5.40043e-06 5.23794e-06 5.27795e-06 5.0836e-06 5.18236e-06 4.96308e-06 4.97592e-06 4.74124e-06 4.8223e-06 4.57798e-06 4.69133e-06 4.45165e-06
          4.56955e-06 4.34627e-06 4.44916e-06 4.25015e-06 4.32286e-06 4.15508e-06 4.18401e-06 4.04922e-06 3.99859e-06 3.92685e-06 3.52979e-06 3.48661e-06
          3.03883e-06 3.0171e-06 2.56556e-06 2.55064e-06 2.16657e-06 2.15694e-06 1.87032e-06 1.86262e-06 1.60204e-06 1.59654e-06 1.41178e-06 1.41243e-06
          1.32608e-06 1.32592e-06 1.28443e-06 1.28446e-06 1.23884e-06 1.23882e-06 1.17322e-06 1.17321e-06 1.06779e-06 1.0678e-06 9.26825e-07 9.26834e-07
          7.57405e-07 7.57386e-07 5.55411e-07 5.55427e-07 3.38012e-07 3.38012e-07
        </DataArray>
        <DataArray type="Float32" Name="X_lH" NumberOfComponents="1" format="ascii">
          2.63897e-10 2.61617e-10 1.19613e-10 1.29504e-10 4.06257e-10 3.98225e-10 5.39974e-10 5.19569e-10 5.95456e-10 5.88214e-10 6.22996e-10 6.27175e-10
          6.40626e-10 6.51295e-10 6.53657e-10 6.68374e-10 6.64038e-10 6.81746e-10 6.85864e-10 7.05867e-10 7.0184e-10 7.23087e-10 7.14952e-10 7.35885e-10
          7.26565e-10 7.45991e-10 7.37441e-10 7.54614e-10 7.48205e-10 7.62559e-10 7.59349e-10 7.70862e-10 7.73613e-10 7.79784e-10 8.05806e-10 8.08798e-10
          8.33226e-10 8.34465e-10 8.51332e-10 8.51846e-10 8.56646e-10 8.56667e-10 8.50112e-10 8.50011e-10 8.27837e-10 8.2713e-10 7.82163e-10 7.82294e-10
          7.26757e-10 7.26719e-10 6.94309e-10 6.94317e-10 6.60045e-10 6.60041e-10 6.32997e-10 6.32998e-10 6.20974e-10 6.20978e-10 6.17512e-10 6.17511e-10
          6.18112e-10 6.18112e-10 6.23723e-10 6.23722e-10 6.32454e-10 6.32454e-10
        </DataArray>
        <DataArray type="Float32" Name="X_lOH" NumberOfComponents="1" format="ascii">
          6.0101e-07 6.06298e-07 1.33703e-06 1.2339e-06 3.88129e-07 3.95963e-07 2.91032e-07 3.02459e-07 2.63492e-07 2.66643e-07 2.51627e-07 2.49797e-07
          2.44563e-07 2.40369e-07 2.39585e-07 2.34096e-07 2.35759e-07 2.29398e-07 2.2807e-07 2.21351e-07 2.22731e-07 2.15915e-07 2.18512e-07 2.12024e-07
          2.14888e-07 2.09032e-07 2.11581e-07 2.06529e-07 2.08386e-07 2.04258e-07 2.05154e-07 2.01922e-07 2.01131e-07 1.99447e-07 1.92444e-07 1.91669e-07
          1.85357e-07 1.85047e-07 1.80622e-07 1.80486e-07 1.78794e-07 1.78772e-07 1.79663e-07 1.7967e-07 1.8419e-07 1.84345e-07 1.95349e-07 1.95316e-07
          2.11634e-07 2.11646e-07 2.22726e-07 2.22723e-07 2.35945e-07 2.35947e-07 2.48247e-07 2.48247e-07 2.55881e-07 2.55878e-07 2.60744e-07 2.60744e-07
          2.64465e-07 2.64466e-07 2.66499e-07 2.66499e-07 2.67481e-07 2.67481e-07
        </DataArray>
        <DataArray type="Float32" Name="X_gBrine" NumberOfComponents="1" format="ascii">
          0.011146 0.0111461 0.0111467 0.0111461 0.0111473 0.0111473 0.0111506 0.0111506 0.0111553 0.011155 0.0111606 0.0111602
          0.0111662 0.0111656 0.0111719 0.0111712 0.0111777 0.0111769 0.0111952 0.0111943 0.011213 0.0112119 0.0112308 0.0112297
          0.0112487 0.0112477 0.0112666 0.0112656 0.0112845 0.0112837 0.0113024 0.0113017 0.01132 0.0113197 0.0113685 0.0113683
          0.011417 0.0114168 0.0114657 0.0114656 0.0115153 0.0115152 0.0115665 0.0115664 0.0116195 0.0116195 0.0116773 0.0116773
          0.0117406 0.0117406 0.0117731 0.0117731 0.0118077 0.0118077 0.0118449 0.0118449 0.011885 0.011885 0.0119279 0.0119279
          0.0119733 0.0119734 0.0120209 0.0120209 0.0120698 0.0120698
        </DataArray>
        <DataArray type="Float32" Name="X_gTotalC" NumberOfComponents="1" format="ascii">
          0.988854 0.988854 0.988853 0.988854 0.988853 0.988853 0.988849 0.988849 0.988845 0.988845 0.988839 0.98884
          0.988834 0.988834 0.988828 0.988829 0.988822 0.988823 0.988805 0.988806 0.988787 0.988788 0.988769 0.98877
          0.988751 0.988752 0.988733 0.988734 0.988716 0.988716 0.988698 0.988698 0.98868 0.98868 0.988631 0.988632
          0.988583 0.988583 0.988534 0.988534 0.988485 0.988485 0.988433 0.988434 0.98838 0.98838 0.988323 0.988323
          0.988259 0.988259 0.988227 0.988227 0.988192 0.988192 0.988155 0.988155 0.988115 0.988115 0.988072 0.988072
          0.988027 0.988027 0.987979 0.987979 0.98793 0.98793
        </DataArray>
        <DataArray type="Float32" Name="X_gNa" NumberOfComponents="1" format="ascii">
          0 0 0 0 0 0 0 0 0 0 0 0
          0 0 0 0 0 0 0 0 0 0 0 0
          0 0 0 0 0 0 0 0 0 0 0 0
          0 0 0 0 0 0 0 0 0 0 0 0
          0 0 0 0 0 0 0 0 0 0 0 0
          0 0 0 0 0 0
        </DataArray>
        <DataArray type="Float32" Name="X_gCl" NumberOfComponents="1" format="ascii">
          0 0 0 0 0 0 0 0 0 0 0 0
          0 0 0 0 0 0 0 0 0 0 0 0
          0 0 0 0 0 0 0 0 0 0 0 0
          0 0 0 0 0 0 0 0 0 0 0 0
          0 0 0 0 0 0 0 0 0 0 0 0
          0 0 0 0 0 0
        </DataArray>
        <DataArray type="Float32" Name="X_gCa" NumberOfComponents="1" format="ascii">
          0 0 0 0 0 0 0 0 0 0 0 0
          0 0 0 0 0 0 0 0 0 0 0 0
          0 0 0 0 0 0 0 0 0 0 0 0
          0 0 0 0 0 0 0 0 0 0 0 0
          0 0 0 0 0 0 0 0 0 0 0 0
          0 0 0 0 0 0
        </DataArray>
        <DataArray type="Float32" Name="X_gUrea" NumberOfComponents="1" format="ascii">
          0 0 0 0 0 0 0 0 0 0 0 0
          0 0 0 0 0 0 0 0 0 0 0 0
          0 0 0 0 0 0 0 0 0 0 0 0
          0 0 0 0 0 0 0 0 0 0 0 0
          0 0 0 0 0 0 0 0 0 0 0 0
          0 0 0 0 0 0
        </DataArray>
        <DataArray type="Float32" Name="X_gTotalNH" NumberOfComponents="1" format="ascii">
          0 0 0 0 0 0 0 0 0 0 0 0
          0 0 0 0 0 0 0 0 0 0 0 0
          0 0 0 0 0 0 0 0 0 0 0 0
          0 0 0 0 0 0 0 0 0 0 0 0
          0 0 0 0 0 0 0 0 0 0 0 0
          0 0 0 0 0 0
        </DataArray>
        <DataArray type="Float32" Name="X_gO2" NumberOfComponents="1" format="ascii">
          0 0 0 0 0 0 0 0 0 0 0 0
          0 0 0 0 0 0 0 0 0 0 0 0
          0 0 0 0 0 0 0 0 0 0 0 0
          0 0 0 0 0 0 0 0 0 0 0 0
          0 0 0 0 0 0 0 0 0 0 0 0
          0 0 0 0 0 0
        </DataArray>
        <DataArray type="Float32" Name="X_gSubstrate" NumberOfComponents="1" format="ascii">
          0 0 0 0 0 0 0 0 0 0 0 0
          0 0 0 0 0 0 0 0 0 0 0 0
          0 0 0 0 0 0 0 0 0 0 0 0
          0 0 0 0 0 0 0 0 0 0 0 0
          0 0 0 0 0 0 0 0 0 0 0 0
          0 0 0 0 0 0
        </DataArray>
        <DataArray type="Float32" Name="X_gSuspended_Biomass" NumberOfComponents="1" format="ascii">
          0 0 0 0 0 0 0 0 0 0 0 0
          0 0 0 0 0 0 0 0 0 0 0 0
          0 0 0 0 0 0 0 0 0 0 0 0
          0 0 0 0 0 0 0 0 0 0 0 0
          0 0 0 0 0 0 0 0 0 0 0 0
          0 0 0 0 0 0
        </DataArray>
        <DataArray type="Float32" Name="X_gNH4" NumberOfComponents="1" format="ascii">
          0 0 0 0 0 0 0 0 0 0 0 0
          0 0 0 0 0 0 0 0 0 0 0 0
          0 0 0 0 0 0 0 0 0 0 0 0
          0 0 0 0 0 0 0 0 0 0 0 0
          0 0 0 0 0 0 0 0 0 0 0 0
          0 0 0 0 0 0
        </DataArray>
        <DataArray type="Float32" Name="X_gHCO3" NumberOfComponents="1" format="ascii">
          0 0 0 0 0 0 0 0 0 0 0 0
          0 0 0 0 0 0 0 0 0 0 0 0
          0 0 0 0 0 0 0 0 0 0 0 0
          0 0 0 0 0 0 0 0 0 0 0 0
          0 0 0 0 0 0 0 0 0 0 0 0
          0 0 0 0 0 0
        </DataArray>
        <DataArray type="Float32" Name="X_gCO3" NumberOfComponents="1" format="ascii">
          0 0 0 0 0 0 0 0 0 0 0 0
          0 0 0 0 0 0 0 0 0 0 0 0
          0 0 0 0 0 0 0 0 0 0 0 0
          0 0 0 0 0 0 0 0 0 0 0 0
          0 0 0 0 0 0 0 0 0 0 0 0
          0 0 0 0 0 0
        </DataArray>
        <DataArray type="Float32" Name="X_gCO2" NumberOfComponents="1" format="ascii">
          0.988854 0.988854 0.988853 0.988854 0.988853 0.988853 0.988849 0.988849 0.988845 0.988845 0.988839 0.98884
          0.988834 0.988834 0.988828 0.988829 0.988822 0.988823 0.988805 0.988806 0.988787 0.988788 0.988769 0.98877
          0.988751 0.988752 0.988733 0.988734 0.988716 0.988716 0.988698 0.988698 0.98868 0.98868 0.988631 0.988632
          0.988583 0.988583 0.988534 0.988534 0.988485 0.988485 0.988433 0.988434 0.98838 0.98838 0.988323 0.988323
          0.988259 0.988259 0.988227 0.988227 0.988192 0.988192 0.988155 0.988155 0.988115 0.988115 0.988072 0.988072
          0.988027 0.988027 0.987979 0.987979 0.98793 0.98793
        </DataArray>
        <DataArray type="Float32" Name="X_gH" NumberOfComponents="1" format="ascii">
          0 0 0 0 0 0 0 0 0 0 0 0
          0 0 0 0 0 0 0 0 0 0 0 0
          0 0 0 0 0 0 0 0 0 0 0 0
          0 0 0 0 0 0 0 0 0 0 0 0
          0 0 0 0 0 0 0 0 0 0 0 0
          0 0 0 0 0 0
        </DataArray>
        <DataArray type="Float32" Name="X_gOH" NumberOfComponents="1" format="ascii">
          0 0 0 0 0 0 0 0 0 0 0 0
          0 0 0 0 0 0 0 0 0 0 0 0
          0 0 0 0 0 0 0 0 0 0 0 0
          0 0 0 0 0 0 0 0 0 0 0 0
          0 0 0 0 0 0 0 0 0 0 0 0
          0 0 0 0 0 0
        </DataArray>
        <DataArray type="Float32" Name="Molarity_Brine" NumberOfComponents="1" format="ascii">
          53640 53641.1 53745.9 53735.5 53565.1 53565.2 53521.9 53521.8 53501.3 53496.9 53490.2 53482.4
          53483 53473 53477.5 53465.8 53473.1 53459.9 53462.7 53447.8 53454.2 53438.1 53446.3 53429.9
          53438.5 53422.6 53430.2 53415.5 53420.9 53408.1 53410.1 53399.4 53394.8 53388.9 53351.9 53347.7
          53300.5 53298.2 53245.7 53243.9 53197.3 53196.2 53165.2 53164.1 53152.4 53152.5 53201.2 53201.1
          53323.7 53323.7 53422.2 53422.1 53550.2 53550.2 53713.1 53713.1 53914.5 53914.5 54154.4 54154.4
          54428.7 54428.7 54731.1 54731.1 55049.2 55049.2
        </DataArray>
        <DataArray type="Float32" Name="Molarity_TotalC" NumberOfComponents="1" format="ascii">
          0.987175 0.99854 2.77512 2.50794 0.538907 0.551436 0.363704 0.379777 0.314615 0.316507 0.293392 0.287241
          0.28078 0.270812 0.271907 0.259762 0.265093 0.251383 0.250983 0.236605 0.240905 0.226225 0.232633 0.218485
          0.225207 0.212239 0.2181 0.206717 0.210869 0.201406 0.203141 0.195631 0.193065 0.189115 0.168686 0.16647
          0.1444 0.14333 0.121909 0.121204 0.103543 0.103103 0.090291 0.0899396 0.078768 0.0785385 0.0715296 0.0715555
          0.0695013 0.0694949 0.0686426 0.0686437 0.067537 0.0675359 0.0646771 0.0646764 0.0584076 0.0584084 0.0494772 0.0494778
          0.0387845 0.0387834 0.0264846 0.0264855 0.0132254 0.0132254
        </DataArray>
        <DataArray type="Float32" Name="Molarity_Na" NumberOfComponents="1" format="ascii">
          0.00577802 0.00577888 0.00578776 0.00578801 0.00577234 0.00577402 0.00577031 0.00577254 0.0057701 0.00577229 0.00577032 0.00577261
          0.00577059 0.00577323 0.00577088 0.00577405 0.00577117 0.00577502 0.00577256 0.00577807 0.00577456 0.00578204 0.00577746 0.00578674
          0.00578162 0.00579233 0.00578754 0.00579921 0.00579609 0.00580798 0.00580871 0.00582007 0.00583043 0.00583756 0.0059181 0.00592806
          0.00609591 0.00610523 0.00643184 0.0064448 0.00701221 0.00703231 0.00798879 0.00800134 0.0102715 0.0103492 0.0162468 0.0162321
          0.0264382 0.026443 0.0343076 0.0343057 0.0444597 0.0444623 0.0573564 0.0573578 0.0732946 0.0732919 0.0922939 0.0922927
          0.114033 0.114035 0.138027 0.138025 0.1633 0.1633
        </DataArray>
        <DataArray type="Float32" Name="Molarity_Cl" NumberOfComponents="1" format="ascii">
          877.561 877.576 879.301 879.124 876.325 876.32 875.607 875.594 875.261 875.176 875.073 874.931
          874.949 874.769 874.856 874.645 874.78 874.54 874.598 874.323 874.446 874.14 874.3 873.981
          874.149 873.832 873.982 873.682 873.787 873.517 873.548 873.316 873.192 873.06 872.07 871.954
          870.397 870.314 867.945 867.856 864.492 864.381 859.51 859.436 848.917 848.567 822.575 822.64
          778.307 778.286 744.192 744.2 700.196 700.185 644.312 644.306 575.248 575.26 492.917 492.923
          398.71 398.7 294.725 294.733 185.193 185.193
        </DataArray>
        <DataArray type="Float32" Name="Molarity_Ca" NumberOfComponents="1" format="ascii">
          70.8426 70.3359 21.3673 26.2623 105.644 105.57 125.683 125.753 135.23 137.31 140.369 143.997
          143.747 148.385 146.28 151.707 148.324 154.47 153.169 160.057 157.111 164.606 160.758 168.417
          164.411 171.824 168.276 175.132 172.597 178.591 177.647 182.64 184.795 187.564 205.023 207
          229.449 230.586 256.096 256.976 280.62 281.224 299.137 299.657 313.505 313.727 313.084 313.072
          294.173 294.173 277.732 277.734 256.065 256.059 228.351 228.348 194.025 194.031 153.079 153.081
          106.217 106.212 54.4883 54.4923 0 0
        </DataArray>
        <DataArray type="Float32" Name="Molarity_Urea" NumberOfComponents="1" format="ascii">
          62.1616 61.6434 10.8831 16.0468 97.422 97.3355 117.643 117.697 127.242 129.321 132.404 136.039
          135.795 140.445 138.338 143.779 140.39 146.552 145.25 152.155 149.203 156.716 152.86 160.536
          156.522 163.951 160.395 167.266 164.726 170.732 169.786 174.788 176.947 179.721 197.211 199.191
          221.677 222.816 248.372 249.253 272.951 273.556 291.535 292.056 306.031 306.257 305.91 305.897
          287.495 287.495 271.436 271.438 250.261 250.256 223.174 223.171 189.626 189.631 149.607 149.609
          103.807 103.802 53.2523 53.2562 0 0
        </DataArray>
        <DataArray type="Float32" Name="Molarity_TotalNH" NumberOfComponents="1" format="ascii">
          737.821 738.872 842.087 831.586 666.086 666.254 624.939 624.819 605.401 601.159 594.892 587.482
          587.988 578.512 582.81 571.722 578.633 566.073 568.733 554.654 560.677 545.352 553.22 537.555
          545.748 530.58 537.838 523.802 528.986 516.708 518.631 508.4 503.959 498.281 462.331 458.258
          411.759 409.401 355.967 354.118 303.429 302.11 261.387 260.273 222.037 221.24 196.521 196.611
          190.072 190.051 188.837 188.84 188.173 188.173 187.711 187.711 187.286 187.286 186.832 186.832
          186.327 186.327 185.775 185.775 185.193 185.193
        </DataArray>
        <DataArray type="Float32" Name="Molarity_O2" NumberOfComponents="1" format="ascii">
          -6.13315e-05 -6.13857e-05 -6.13302e-05 -6.14195e-05 -6.14197e-05 -6.15369e-05 -6.15591e-05 -6.17151e-05 -6.16781e-05 -6.18578e-05 -6.17647e-05 -6.1972e-05
          -6.18302e-05 -6.20749e-05 -6.18846e-05 -6.21757e-05 -6.19328e-05 -6.22787e-05 -6.20921e-05 -6.25577e-05 -6.22774e-05 -6.28785e-05 -6.25152e-05 -6.3232e-05
          -6.28309e-05 -6.36305e-05 -6.32559e-05 -6.41006e-05 -6.38434e-05 -6.46793e-05 -6.46735e-05 -6.54524e-05 -6.60498e-05 -6.65299e-05 -7.11806e-05 -7.17411e-05
          -7.96857e-05 -8.01118e-05 -9.12315e-05 -9.16314e-05 -0.000102903 -0.000103206 -0.000111928 -0.000112077 -0.000125645 -0.00012633 -0.000199781 -0.000199625
          -0.000336297 -0.000336332 -0.000372505 -0.000372508 -0.000379076 -0.000379069 -0.000353393 -0.000353387 -0.000300816 -0.000300824 -0.000231486 -0.000231491
          -0.00015519 -0.000155182 -7.73854e-05 -7.73914e-05 0 0
        </DataArray>
        <DataArray type="Float32" Name="Molarity_Substrate" NumberOfComponents="1" format="ascii">
          16.8499 16.8501 16.8833 16.8799 16.8261 16.8259 16.8122 16.8119 16.8055 16.8038 16.8019 16.7991
          16.7995 16.796 16.7977 16.7935 16.7962 16.7915 16.7927 16.7872 16.7897 16.7836 16.7868 16.7804
          16.7838 16.7774 16.7804 16.7743 16.7765 16.771 16.7716 16.7668 16.7642 16.7615 16.7406 16.7381
          16.7043 16.7025 16.6495 16.6475 16.5699 16.5674 16.4521 16.4504 16.1971 16.1887 15.5564 15.558
          14.4764 14.4759 13.6438 13.644 12.5699 12.5697 11.2059 11.2058 9.52022 9.5205 7.51071 7.51084
          5.21135 5.21111 2.67336 2.67356 0 0
        </DataArray>
        <DataArray type="Float32" Name="Molarity_Suspended_Biomass" NumberOfComponents="1" format="ascii">
          0.0038532 0.00386472 0.00410369 0.00393986 0.0037681 0.0037701 0.00371936 0.00372014 0.00369632 0.00369204 0.003684 0.00367597
          0.00367594 0.00366557 0.00366992 0.00365779 0.00366508 0.00365141 0.00365381 0.00363882 0.00364488 0.00362897 0.0036369 0.00362108
          0.00362924 0.00361437 0.00362153 0.00360822 0.00361338 0.00360216 0.00360448 0.00359548 0.00359274 0.00358796 0.00356502 0.00356259
          0.00354311 0.00354224 0.00353435 0.00353424 0.00354177 0.00354208 0.00355736 0.00355794 0.00356658 0.00356622 0.0034865 0.00348668
          0.00326473 0.00326466 0.00308133 0.00308137 0.00284103 0.00284097 0.00253376 0.00253373 0.002153 0.00215306 0.00169864 0.00169867
          0.0011786 0.00117855 0.000604599 0.000604643 0 0
        </DataArray>
        <DataArray type="Float32" Name="Molarity_NH4" NumberOfComponents="1" format="ascii">
          736.595 737.633 838.872 828.665 665.389 665.543 624.457 624.318 604.982 600.738 594.5 587.099
          587.612 578.15 582.446 571.374 578.278 565.736 568.397 554.337 560.354 545.049 552.909 537.263
          545.446 530.296 537.547 523.526 528.705 516.439 518.36 508.139 503.703 498.03 462.109 458.039
          411.571 409.215 355.812 353.963 303.3 301.982 261.276 260.163 221.941 221.145 196.431 196.521
          189.976 189.954 188.735 188.738 188.063 188.062 187.591 187.591 187.16 187.16 186.698 186.698
          186.186 186.186 185.626 185.626 185.037 185.037
        </DataArray>
        <DataArray type="Float32" Name="Molarity_HCO3" NumberOfComponents="1" format="ascii">
          0.715159 0.72486 2.29775 2.05763 0.349158 0.359761 0.214139 0.227138 0.178827 0.18108 0.164026 0.160464
          0.155361 0.149153 0.149326 0.141679 0.144727 0.136093 0.135399 0.126454 0.128879 0.119856 0.12364 0.115042
          0.119034 0.111236 0.114715 0.10794 0.110408 0.10483 0.105895 0.101507 0.100112 0.0978242 0.0865907 0.0853746
          0.0736815 0.0731154 0.0621658 0.0618066 0.0530629 0.0528465 0.0466966 0.0465242 0.0414213 0.0413198 0.0386371 0.038648
          0.0386508 0.0386482 0.0387965 0.038797 0.0387952 0.0387946 0.0375122 0.0375117 0.0337461 0.0337466 0.0281363 0.0281367
          0.0214057 0.0214049 0.0137901 0.0137907 0.00553194 0.00553194
        </DataArray>
        <DataArray type="Float32" Name="Molarity_CO3" NumberOfComponents="1" format="ascii">
          0.00031775 0.000324008 0.00154815 0.00135248 0.000117535 0.000123512 5.81857e-05 6.41564e-05 4.54114e-05 4.68448e-05 4.04313e-05 3.97085e-05
          3.76113e-05 3.59897e-05 3.56883e-05 3.36221e-05 3.42457e-05 3.19028e-05 3.1438e-05 2.90595e-05 2.95556e-05 2.72054e-05 2.81033e-05 2.59065e-05
          2.68763e-05 2.49194e-05 2.57695e-05 2.40973e-05 2.47073e-05 2.33509e-05 2.3635e-05 2.25796e-05 2.23003e-05 2.17542e-05 1.93478e-05 1.90826e-05
          1.66951e-05 1.65766e-05 1.44358e-05 1.43642e-05 1.27196e-05 1.26786e-05 1.15805e-05 1.15473e-05 1.0755e-05 1.0741e-05 1.0621e-05 1.0622e-05
          1.11646e-05 1.11645e-05 1.14692e-05 1.14693e-05 1.16812e-05 1.1681e-05 1.12465e-05 1.12463e-05 9.65072e-06 9.6509e-06 7.34397e-06 7.34413e-06
          4.82109e-06 4.82084e-06 2.40789e-06 2.40806e-06 4.26535e-07 4.26535e-07
        </DataArray>
        <DataArray type="Float32" Name="Molarity_CO2" NumberOfComponents="1" format="ascii">
          0.271712 0.27337 0.475853 0.448993 0.189638 0.191559 0.149512 0.152579 0.135747 0.135384 0.12933 0.126741
          0.125385 0.121626 0.122549 0.118052 0.120335 0.115261 0.115556 0.110125 0.112 0.106345 0.108968 0.10342
          0.106149 0.100981 0.103362 0.0987556 0.100439 0.096555 0.0972248 0.0941044 0.0929327 0.0912716 0.082078 0.081078
          0.0707039 0.0702003 0.0597303 0.0593842 0.0504691 0.0502454 0.043584 0.043405 0.037337 0.0372089 0.0328828 0.0328978
          0.0308403 0.0308365 0.0298355 0.0298362 0.028731 0.0287305 0.0271545 0.0271543 0.0246526 0.0246529 0.0213342 0.0213344
          0.0173746 0.0173741 0.0126924 0.0126928 0.00769319 0.00769319
        </DataArray>
        <DataArray type="Float32" Name="Molarity_H" NumberOfComponents="1" format="ascii">
          0.000266976 0.000264667 0.000120859 0.000130869 0.000411358 0.000403224 0.000547028 0.000526358 0.00060338 0.000596073 0.000631368 0.000635662
          0.00064929 0.00066018 0.00066254 0.000677548 0.000673096 0.000691152 0.000695304 0.000715707 0.000711571 0.00073325 0.000724931 0.000746299
          0.000736773 0.000756613 0.000747874 0.000765421 0.000758872 0.000773547 0.000770272 0.000782047 0.00078488 0.000791196 0.00081795 0.000821027
          0.000846286 0.000847568 0.000865224 0.000865765 0.000871109 0.000871142 0.00086478 0.000864687 0.000842229 0.000841509 0.000795273 0.000795407
          0.000737827 0.000737788 0.000704031 0.00070404 0.000668233 0.00066823 0.000639562 0.000639562 0.000625848 0.000625853 0.000620501 0.000620501
          0.000618972 0.000618972 0.000622213 0.000622213 0.000628379 0.000628379
        </DataArray>
        <DataArray type="Float32" Name="Molarity_OH" NumberOfComponents="1" format="ascii">
          3.60513e-05 3.63681e-05 8.01021e-05 7.39325e-05 2.33021e-05 2.37724e-05 1.74815e-05 1.81679e-05 1.5831e-05 1.60212e-05 1.51201e-05 1.50116e-05
          1.46969e-05 1.44466e-05 1.43987e-05 1.40707e-05 1.41695e-05 1.37893e-05 1.3709e-05 1.33074e-05 1.33894e-05 1.29821e-05 1.3137e-05 1.27494e-05
          1.29203e-05 1.25705e-05 1.27227e-05 1.2421e-05 1.25319e-05 1.22855e-05 1.23391e-05 1.21462e-05 1.20993e-05 1.19988e-05 1.15825e-05 1.15364e-05
          1.11626e-05 1.11442e-05 1.08843e-05 1.08764e-05 1.07801e-05 1.0779e-05 1.08365e-05 1.0837e-05 1.1111e-05 1.11203e-05 1.17769e-05 1.17749e-05
          1.27395e-05 1.27402e-05 1.33909e-05 1.33908e-05 1.41634e-05 1.41635e-05 1.48719e-05 1.48719e-05 1.52909e-05 1.52908e-05 1.55351e-05 1.55351e-05
          1.57027e-05 1.57027e-05 1.57632e-05 1.57632e-05 1.57575e-05 1.57575e-05
        </DataArray>
        <DataArray type="Float32" Name="Sum_charges" NumberOfComponents="1" format="ascii">
          0.00968355 0.00969717 0.0110182 0.010886 0.00874581 0.00874771 0.0082068 0.00820438 0.00794985 0.00789315 0.00781103 0.00771328
          0.00772048 0.00759479 0.00765199 0.00750534 0.00759723 0.00743142 0.00746657 0.00728103 0.00736002 0.00715809 0.00726192 0.00705578
          0.00716375 0.00696422 0.00705953 0.00687483 0.00694297 0.00678102 0.00680683 0.00667153 0.00661315 0.00653805 0.00606494 0.00601112
          0.00539944 0.00536843 0.00466574 0.00464133 0.00397542 0.00395795 0.00342367 0.00340897 0.00290789 0.00289755 0.00257509 0.00257615
          0.00249324 0.00249313 0.00247926 0.00247937 0.0024737 0.00247371 0.0024712 0.00247113 0.00247035 0.00247054 0.00247 0.00246994
          0.00246969 0.00246951 0.0024694 0.00246937 0.00246913 0.00246913
        </DataArray>
        <DataArray type="Float32" Name="Vx" NumberOfComponents="1" format="ascii">
          1.38729e-08 9.12468e-09 1.2099e-08 2.77234e-09 2.49727e-08 2.4792e-08 4.40955e-08 4.39632e-08 5.54879e-08 5.5433e-08 5.45382e-08 5.45072e-08
          4.65473e-08 4.65249e-08 3.69705e-08 3.69532e-08 2.54535e-08 2.54415e-08 1.40728e-08 1.40656e-08 6.1763e-09 6.17335e-09 -5.98173e-10 -5.97929e-10
          -6.84217e-09 -6.83905e-09 -1.21605e-08 -1.21551e-08 -1.76958e-08 -1.7688e-08 -2.22387e-08 -2.22297e-08 -1.51059e-08 -1.50992e-08 -6.08415e-09 -6.08022e-09
          -3.4314e-09 -3.42936e-09 -1.92447e-09 -1.92325e-09 -1.2795e-09 -1.27886e-09 -1.80663e-09 -1.80625e-09 -1.23743e-09 -1.23718e-09 3.36209e-11 3.38435e-11
          -6.4284e-11 -6.41849e-11 -5.92019e-11 -5.9139e-11 -3.06334e-11 -3.06474e-11 1.32076e-10 1.32345e-10 7.02934e-11 7.05079e-11 -1.0483e-10 -1.04961e-10
          -5.76125e-12 -5.76131e-12 6.7905e-11 6.8167e-11 3.88081e-11 3.9332e-11
        </DataArray>
        <DataArray type="Float32" Name="Vy" NumberOfComponents="1" format="ascii">
          -1.64494e-08 -2.25685e-08 1.75325e-08 1.62055e-08 -2.58273e-08 -4.68484e-08 3.18653e-10 -4.85411e-08 3.29299e-08 -5.62658e-08 6.1737e-08 -7.18324e-08
          8.45437e-08 -8.91848e-08 1.02152e-07 -1.04616e-07 1.28701e-07 -7.25319e-08 9.38474e-08 -1.04375e-07 1.04706e-07 -1.10305e-07 1.08826e-07 -1.10965e-07
          1.0699e-07 -1.06397e-07 1.0022e-07 -9.69444e-08 8.95765e-08 -8.24951e-08 7.66422e-08 -6.06775e-08 2.22573e-07 1.5386e-07 4.92882e-08 1.60284e-08
          2.64673e-08 5.33959e-09 -1.97418e-08 -3.3711e-08 -5.88133e-08 -6.86826e-08 -7.93994e-08 -8.5155e-08 -2.48668e-07 -2.50187e-07 -3.03515e-07 -3.03501e-07
          3.93435e-07 3.93345e-07 -9.01833e-08 -9.01055e-08 -1.07374e-07 -1.07205e-07 -1.19475e-07 -1.19402e-07 -1.21484e-07 -1.21648e-07 -1.10312e-07 -1.10422e-07
          -9.24947e-08 -9.24726e-08 -5.44672e-08 -5.45266e-08 2.12026e-06 2.12012e-06
        </DataArray>
      </PointData>
      <CellData Scalars="process rank">
        <DataArray type="Float32" Name="process rank" NumberOfComponents="1" format="ascii">
          0 0 0 0 0 0 0 0 0 0 0 0
          0 0 0 0 0 0 0 0 0 0 0 0
          0 0 0 0 0 0 0 0
        </DataArray>
      </CellData>
      <Points>
        <DataArray type="Float32" Name="Coordinates" NumberOfComponents="3" format="ascii">
          0.0254 0.00625 0 0 0.00625 0 0.0254 0 0 0 0 0
          0.0254 0.0125 0 0 0.0125 0 0.0254 0.01875 0 0 0.01875 0
          0.0254 0.025 0 0 0.025 0 0.0254 0.03125 0 0 0.03125 0
          0.0254 0.0375 0 0 0.0375 0 0.0254 0.04375 0 0 0.04375 0
          0.0254 0.05 0 0 0.05 0 0.0254 0.06875 0 0 0.06875 0
          0.0254 0.0875 0 0 0.0875 0 0.0254 0.10625 0 0 0.10625 0
          0.0254 0.125 0 0 0.125 0 0.0254 0.14375 0 0 0.14375 0
          0.0254 0.1625 0 0 0.1625 0 0.0254 0.18125 0 0 0.18125 0
          0.0254 0.2 0 0 0.2 0 0.0254 0.25125 0 0 0.25125 0
          0.0254 0.3025 0 0 0.3025 0 0.0254 0.35375 0 0 0.35375 0
          0.0254 0.405 0 0 0.405 0 0.0254 0.45625 0 0 0.45625 0
          0.0254 0.5075 0 0 0.5075 0 0.0254 0.55875 0 0 0.55875 0
          0.0254 0.61 0 0 0.61 0 0.0254 0.63375 0 0 0.63375 0
          0.0254 0.6575 0 0 0.6575 0 0.0254 0.68125 0 0 0.68125 0
          0.0254 0.705 0 0 0.705 0 0.0254 0.72875 0 0 0.72875 0
          0.0254 0.7525 0 0 0.7525 0 0.0254 0.77625 0 0 0.77625 0
          0.0254 0.8 0 0 0.8 0
        </DataArray>
      </Points>
      <Cells>
        <DataArray type="Int32" Name="connectivity" NumberOfComponents="1" format="ascii">
          0 1 3 2 4 5 1 0 6 7 5 4
          8 9 7 6 10 11 9 8 12 13 11 10
          14 15 13 12 16 17 15 14 18 19 17 16
          20 21 19 18 22 23 21 20 24 25 23 22
          26 27 25 24 28 29 27 26 30 31 29 28
          32 33 31 30 34 35 33 32 36 37 35 34
          38 39 37 36 40 41 39 38 42 43 41 40
          44 45 43 42 46 47 45 44 48 49 47 46
          50 51 49 48 52 53 51 50 54 55 53 52
          56 57 55 54 58 59 57 56 60 61 59 58
          62 63 61 60 64 65 63 62
        </DataArray>
        <DataArray type="Int32" Name="offsets" NumberOfComponents="1" format="ascii">
          4 8 12 16 20 24 28 32 36 40 44 48
          52 56 60 64 68 72 76 80 84 88 92 96
          100 104 108 112 116 120 124 128
        </DataArray>
        <DataArray type="UInt8" Name="types" NumberOfComponents="1" format="ascii">
          9 9 9 9 9 9 9 9 9 9 9 9
          9 9 9 9 9 9 9 9 9 9 9 9
          9 9 9 9 9 9 9 9
        </DataArray>
      </Cells>
    </Piece>
  </UnstructuredGrid>
</VTKFile>
