<?xml version="1.0"?>
<VTKFile type="UnstructuredGrid" version="0.1" byte_order="LittleEndian">
  <UnstructuredGrid>
    <Piece NumberOfCells="32" NumberOfPoints="66">
      <PointData Scalars="Sg">
        <DataArray type="Float32" Name="Sg" NumberOfComponents="1" format="ascii">
          0 0 0 0 0 0 0 0 0 0 0 0
          0 0 0 0 0 0 0 0 0 0 0 0
          0 0 0 0 0 0 0 0 0 0 0 0
          0 0 0 0 0 0 0 0 0 0 0 0
          0 0 0 0 0 0 0 0 0 0 0 0
          0 0 0 0 0 0
        </DataArray>
        <DataArray type="Float32" Name="Sl" NumberOfComponents="1" format="ascii">
          1 1 1 1 1 1 1 1 1 1 1 1
          1 1 1 1 1 1 1 1 1 1 1 1
          1 1 1 1 1 1 1 1 1 1 1 1
          1 1 1 1 1 1 1 1 1 1 1 1
          1 1 1 1 1 1 1 1 1 1 1 1
          1 1 1 1 1 1
        </DataArray>
        <DataArray type="Float32" Name="pg" NumberOfComponents="1" format="ascii">
          124046 124049 124276 124215 123894 123899 123741 123745 123592 123594 123448 123446
          123306 123304 123170 123171 123041 123042 122684 122685 122348 122348 122015 122015
          121682 121682 121349 121349 121015 121015 120682 120682 120349 120349 119437 119437
          118525 118525 117612 117612 116698 116698 115783 115783 114868 114868 113953 113953
          113039 113039 112615 112615 112192 112192 111770 111770 111348 111348 110926 110926
          110506 110506 110086 110086 109667 109667
        </DataArray>
        <DataArray type="Float32" Name="pl" NumberOfComponents="1" format="ascii">
          114379 114383 114609 114548 114228 114232 114074 114079 113925 113928 113781 113779
          113640 113637 113504 113504 113374 113376 113017 113018 112681 112682 112348 112348
          112015 112015 111682 111682 111349 111349 111016 111016 110682 110682 109771 109771
          108858 108858 107945 107945 107031 107031 106117 106117 105202 105202 104287 104287
          103372 103372 102948 102948 102525 102525 102103 102103 101681 101681 101260 101260
          100839 100839 100419 100419 100000 100000
        </DataArray>
        <DataArray type="Float32" Name="pc" NumberOfComponents="1" format="ascii">
          9666.67 9666.67 9666.67 9666.67 9666.67 9666.67 9666.67 9666.67 9666.67 9666.67 9666.67 9666.67
          9666.67 9666.67 9666.67 9666.67 9666.67 9666.67 9666.67 9666.67 9666.67 9666.67 9666.67 9666.67
          9666.67 9666.67 9666.67 9666.67 9666.67 9666.67 9666.67 9666.67 9666.67 9666.67 9666.67 9666.67
          9666.67 9666.67 9666.67 9666.67 9666.67 9666.67 9666.67 9666.67 9666.67 9666.67 9666.67 9666.67
          9666.67 9666.67 9666.67 9666.67 9666.67 9666.67 9666.67 9666.67 9666.67 9666.67 9666.67 9666.67
          9666.67 9666.67 9666.67 9666.67 9666.67 9666.67
        </DataArray>
        <DataArray type="Float32" Name="rhoL" NumberOfComponents="1" format="ascii">
          1001.4 1001.4 1001.4 1001.4 1001.4 1001.4 1001.41 1001.4 1001.41 1001.41 1001.41 1001.41
          1001.41 1001.41 1001.41 1001.41 1001.42 1001.42 1001.42 1001.42 1001.43 1001.43 1001.45 1001.45
          1001.46 1001.46 1001.48 1001.48 1001.49 1001.49 1001.52 1001.52 1001.54 1001.54 1001.61 1001.61
          1001.7 1001.7 1001.8 1001.8 1001.93 1001.93 1002.06 1002.06 1002.21 1002.21 1002.35 1002.35
          1002.45 1002.45 1002.48 1002.48 1002.5 1002.5 1002.48 1002.48 1002.42 1002.42 1002.31 1002.31
          1002.12 1002.12 1001.84 1001.84 1001.45 1001.45
        </DataArray>
        <DataArray type="Float32" Name="rhoG" NumberOfComponents="1" format="ascii">
          2.18538 2.18544 2.18954 2.18844 2.18263 2.18271 2.17985 2.17994 2.17715 2.1772 2.17454 2.17451
          2.17198 2.17193 2.16952 2.16952 2.16717 2.1672 2.16071 2.16072 2.15463 2.15463 2.14859 2.14859
          2.14256 2.14256 2.13652 2.13652 2.13049 2.13049 2.12445 2.12445 2.11841 2.11841 2.1019 2.1019
          2.08538 2.08538 2.06884 2.06884 2.05228 2.05228 2.03572 2.03572 2.01914 2.01914 2.00257 2.00257
          1.986 1.986 1.97833 1.97833 1.97067 1.97067 1.96301 1.96301 1.95537 1.95537 1.94774 1.94774
          1.94011 1.94011 1.9325 1.9325 1.9249 1.9249
        </DataArray>
        <DataArray type="Float32" Name="mobL" NumberOfComponents="1" format="ascii">
          1103.45 1103.45 1103.45 1103.46 1103.44 1103.44 1103.43 1103.43 1103.42 1103.42 1103.4 1103.4
          1103.39 1103.39 1103.38 1103.38 1103.36 1103.36 1103.31 1103.31 1103.25 1103.25 1103.18 1103.18
          1103.1 1103.1 1103 1103 1102.89 1102.89 1102.77 1102.77 1102.62 1102.62 1102.21 1102.21
          1101.69 1101.69 1101.07 1101.07 1100.35 1100.35 1099.56 1099.56 1098.73 1098.73 1097.96 1097.96
          1097.37 1097.37 1097.18 1097.18 1097.11 1097.11 1097.2 1097.2 1097.53 1097.53 1098.16 1098.16
          1099.2 1099.2 1100.79 1100.79 1103.12 1103.12
        </DataArray>
        <DataArray type="Float32" Name="mobG" NumberOfComponents="1" format="ascii">
          0 0 0 0 0 0 0 0 0 0 0 0
          0 0 0 0 0 0 0 0 0 0 0 0
          0 0 0 0 0 0 0 0 0 0 0 0
          0 0 0 0 0 0 0 0 0 0 0 0
          0 0 0 0 0 0 0 0 0 0 0 0
          0 0 0 0 0 0
        </DataArray>
        <DataArray type="Float32" Name="porosity" NumberOfComponents="1" format="ascii">
          0.327206 0.33231 0.243371 0.275622 0.323316 0.328206 0.322697 0.325087 0.335348 0.334039 0.333506 0.331898
          0.346015 0.350031 0.350217 0.356353 0.366823 0.368267 0.393849 0.393905 0.398964 0.398968 0.399117 0.399115
          0.399152 0.399151 0.399132 0.399131 0.39908 0.399079 0.399017 0.399016 0.399045 0.399045 0.39883 0.39883
          0.398625 0.398625 0.398428 0.398429 0.398274 0.398274 0.398191 0.398191 0.398212 0.398213 0.398365 0.398365
          0.39864 0.39864 0.398903 0.398904 0.399213 0.399214 0.399545 0.399545 0.39982 0.399821 0.399965 0.399965
          0.399998 0.399998 0.4 0.4 0.4 0.4
        </DataArray>
        <DataArray type="Float32" Name="temperature" NumberOfComponents="1" format="ascii">
          298.15 298.15 298.15 298.15 298.15 298.15 298.15 298.15 298.15 298.15 298.15 298.15
          298.15 298.15 298.15 298.15 298.15 298.15 298.15 298.15 298.15 298.15 298.15 298.15
          298.15 298.15 298.15 298.15 298.15 298.15 298.15 298.15 298.15 298.15 298.15 298.15
          298.15 298.15 298.15 298.15 298.15 298.15 298.15 298.15 298.15 298.15 298.15 298.15
          298.15 298.15 298.15 298.15 298.15 298.15 298.15 298.15 298.15 298.15 298.15 298.15
          298.15 298.15 298.15 298.15 298.15 298.15
        </DataArray>
        <DataArray type="Float32" Name="phase presence" NumberOfComponents="1" format="ascii">
          1 1 1 1 1 1 1 1 1 1 1 1
          1 1 1 1 1 1 1 1 1 1 1 1
          1 1 1 1 1 1 1 1 1 1 1 1
          1 1 1 1 1 1 1 1 1 1 1 1
          1 1 1 1 1 1 1 1 1 1 1 1
          1 1 1 1 1 1
        </DataArray>
        <DataArray type="Float32" Name="potential" NumberOfComponents="1" format="ascii">
          0.669962 0.670319 0.687099 0.68091 0.660796 0.661229 0.65139 0.651883 0.642488 0.642754 0.634054 0.633889
          0.625933 0.625656 0.61832 0.618353 0.611361 0.611548 0.593824 0.593877 0.578359 0.578364 0.563176 0.563177
          0.547999 0.547999 0.53282 0.53282 0.517633 0.517633 0.502436 0.502436 0.487232 0.487232 0.445646 0.445646
          0.403972 0.403972 0.362213 0.362213 0.320378 0.320378 0.278488 0.278488 0.236577 0.236577 0.194692 0.194692
          0.152888 0.152888 0.133563 0.133563 0.114293 0.114293 0.095088 0.095088 0.0759508 0.0759508 0.0568757 0.0568757
          0.0378553 0.0378553 0.0188921 0.0188921 0 0
        </DataArray>
        <DataArray type="Float32" Name="boxVolume" NumberOfComponents="1" format="ascii">
          7.9375e-05 7.9375e-05 3.96875e-05 3.96875e-05 7.9375e-05 7.9375e-05 7.9375e-05 7.9375e-05 7.9375e-05 7.9375e-05 7.9375e-05 7.9375e-05
          7.9375e-05 7.9375e-05 7.9375e-05 7.9375e-05 0.00015875 0.00015875 0.000238125 0.000238125 0.000238125 0.000238125 0.000238125 0.000238125
          0.000238125 0.000238125 0.000238125 0.000238125 0.000238125 0.000238125 0.000238125 0.000238125 0.0004445 0.0004445 0.000650875 0.000650875
          0.000650875 0.000650875 0.000650875 0.000650875 0.000650875 0.000650875 0.000650875 0.000650875 0.000650875 0.000650875 0.000650875 0.000650875
          0.00047625 0.00047625 0.000301625 0.000301625 0.000301625 0.000301625 0.000301625 0.000301625 0.000301625 0.000301625 0.000301625 0.000301625
          0.000301625 0.000301625 0.000301625 0.000301625 0.000150812 0.000150812
        </DataArray>
        <DataArray type="Float32" Name="pH" NumberOfComponents="1" format="ascii">
          6.89817 6.89491 6.8799 6.87494 6.91629 6.91315 6.93149 6.92861 6.94435 6.94155 6.95522 6.95219
          6.96391 6.96053 6.97064 6.96716 6.97529 6.97202 6.97774 6.97551 6.97693 6.97543 6.97618 6.97516
          6.97544 6.97475 6.97468 6.97422 6.97389 6.97358 6.97302 6.97282 6.97207 6.97194 6.96958 6.96953
          6.96655 6.96653 6.96284 6.96283 6.95825 6.95825 6.95248 6.95248 6.94498 6.94498 6.93469 6.93469
          6.91943 6.91943 6.90763 6.90763 6.89173 6.89173 6.86973 6.86973 6.83824 6.83824 6.79119 6.79119
          6.71604 6.71604 6.57928 6.57928 6.19963 6.19963
        </DataArray>
        <DataArray type="Float32" Name="Omega" NumberOfComponents="1" format="ascii">
          0 0 0 0 0 0 0 0 0 0 0 0
          0 0 0 0 0 0 0 0 0 0 0 0
          0 0 0 0 0 0 0 0 0 0 0 0
          0 0 0 0 0 0 0 0 0 0 0 0
          0 0 0 0 0 0 0 0 0 0 0 0
          0 0 0 0 0 0
        </DataArray>
        <DataArray type="Float32" Name="Attachment_rate" NumberOfComponents="1" format="ascii">
          0 0 0 0 0 0 0 0 0 0 0 0
          0 0 0 0 0 0 0 0 0 0 0 0
          0 0 0 0 0 0 0 0 0 0 0 0
          0 0 0 0 0 0 0 0 0 0 0 0
          0 0 0 0 0 0 0 0 0 0 0 0
          0 0 0 0 0 0
        </DataArray>
        <DataArray type="Float32" Name="Detachment_rate" NumberOfComponents="1" format="ascii">
          2.68124e-07 2.50389e-07 8.06922e-07 7.82712e-07 2.68325e-07 2.51939e-07 2.70252e-07 2.65958e-07 2.18779e-07 2.28519e-07 2.37573e-07 2.48234e-07
          1.87529e-07 1.69842e-07 1.82694e-07 1.53899e-07 1.19604e-07 1.1182e-07 1.30376e-08 1.2936e-08 5.43229e-14 4.54864e-14 1.00724e-20 1.00205e-20
          1.63961e-15 2.20892e-27 -7.66428e-34 4.86419e-34 9.70653e-36 0 -1.01023e-31 0 0 0 0 0
          0 0 0 3.75054e-36 0 0 0 0 0 0 0 0
          0 0 0 0 0 0 3.47596e-29 0 -1.663e-32 9.19959e-26 2.89028e-18 1.97519e-20
          0 0 0 0 0 0
        </DataArray>
        <DataArray type="Float32" Name="Growth_rate" NumberOfComponents="1" format="ascii">
          3.15568e-06 3.05244e-06 5.72437e-06 5.96597e-06 3.16569e-06 3.06878e-06 3.17372e-06 3.15108e-06 2.86248e-06 2.92634e-06 2.99764e-06 3.06478e-06
          2.66071e-06 2.52295e-06 2.64196e-06 2.4063e-06 2.10698e-06 2.02359e-06 4.52459e-07 4.48882e-07 2.70038e-12 2.25984e-12 5.03121e-19 5.00498e-19
          8.19108e-14 1.10351e-25 -3.82868e-32 2.4299e-32 4.84803e-34 0 -5.0445e-30 0 0 0 0 0
          0 4.65344e-38 0 1.35707e-34 0 0 0 0 0 0 0 0
          0 0 0 0 0 0 1.62889e-27 0 -7.80152e-31 4.31574e-24 1.357e-16 9.27358e-19
          0 0 0 0 0 0
        </DataArray>
        <DataArray type="Float32" Name="Decay_rate" NumberOfComponents="1" format="ascii">
          4.83517e-08 4.67699e-08 8.77094e-08 9.14112e-08 4.85052e-08 4.70203e-08 4.86283e-08 4.82814e-08 4.38595e-08 4.4838e-08 4.59305e-08 4.69592e-08
          4.0768e-08 3.86573e-08 4.04808e-08 3.687e-08 3.22837e-08 3.1006e-08 6.9327e-09 6.8779e-09 4.13759e-14 3.46258e-14 7.70898e-21 7.66878e-21
          1.25506e-15 1.69084e-27 -5.86642e-34 3.72317e-34 7.42831e-36 0 -7.72937e-32 0 0 0 0 0
          0 0 0 2.07939e-36 0 0 0 0 0 0 0 0
          0 0 0 0 0 0 2.49772e-29 0 -1.19673e-32 6.6202e-26 2.08299e-18 1.42349e-20
          0 0 0 0 0 0
        </DataArray>
        <DataArray type="Float32" Name="Volume_Fraction_Biofilm" NumberOfComponents="1" format="ascii">
          0.0220154 0.0212952 0.0399356 0.0416211 0.0220853 0.0214092 0.0221413 0.0219834 0.01997 0.0204155 0.020913 0.0213813
          0.0185624 0.0176013 0.0184316 0.0167876 0.0146993 0.0141176 0.00315658 0.00313163 1.88392e-08 1.57657e-08 3.51003e-15 3.49173e-15
          5.71452e-10 7.69868e-22 -2.67108e-28 1.69522e-28 3.38224e-30 3.73092e-35 -3.51932e-26 0 4.12225e-36 0 0 0
          5.66455e-36 3.24653e-34 0 9.46785e-31 0 0 0 1.21833e-35 0 2.5499e-35 0 0
          0 0 0 0 0 0 1.13726e-23 0 -5.44891e-27 3.01429e-20 9.4842e-13 6.48142e-15
          0 0 0 0 0 0
        </DataArray>
        <DataArray type="Float32" Name="Volume_Fraction_Calcite" NumberOfComponents="1" format="ascii">
          0.0507789 0.0463949 0.116694 0.0827568 0.0545991 0.0503851 0.0551615 0.0529298 0.0446818 0.0455453 0.0455813 0.046721
          0.0354228 0.0323674 0.0313514 0.0268595 0.0184776 0.017615 0.00299491 0.00296359 0.00103584 0.00103175 0.000883441 0.000884643
          0.000847632 0.000848675 0.000867842 0.000868668 0.000920382 0.000921208 0.000982579 0.000984398 0.000955018 0.000955323 0.0011699 0.00116995
          0.00137546 0.00137543 0.00157163 0.00157086 0.00172552 0.00172586 0.00180872 0.00180869 0.00178756 0.00178699 0.00163514 0.0016355
          0.0013597 0.00135972 0.00109683 0.00109646 0.000787077 0.000786271 0.000454914 0.000454768 0.000179537 0.000178856 3.50689e-05 3.50488e-05
          1.57468e-06 1.57676e-06 1.57509e-11 1.5752e-11 0 0
        </DataArray>
        <DataArray type="Float32" Name="Kxx" NumberOfComponents="1" format="ascii">
          1.09474e-10 1.14678e-10 4.50459e-11 6.54323e-11 1.05616e-10 1.10481e-10 1.05011e-10 1.07361e-10 1.17852e-10 1.16478e-10 1.1592e-10 1.14252e-10
          1.29459e-10 1.3402e-10 1.34234e-10 1.41414e-10 1.54248e-10 1.56077e-10 1.90914e-10 1.90996e-10 1.9845e-10 1.98456e-10 1.98678e-10 1.98676e-10
          1.98731e-10 1.9873e-10 1.98701e-10 1.987e-10 1.98623e-10 1.98621e-10 1.9853e-10 1.98527e-10 1.98571e-10 1.9857e-10 1.9825e-10 1.9825e-10
          1.97944e-10 1.97944e-10 1.97652e-10 1.97653e-10 1.97423e-10 1.97422e-10 1.97299e-10 1.97299e-10 1.97331e-10 1.97331e-10 1.97557e-10 1.97557e-10
          1.97967e-10 1.97967e-10 1.98359e-10 1.9836e-10 1.98822e-10 1.98823e-10 1.99318e-10 1.99319e-10 1.99731e-10 1.99732e-10 1.99947e-10 1.99947e-10
          1.99998e-10 1.99998e-10 2e-10 2e-10 2e-10 2e-10
        </DataArray>
        <DataArray type="Float32" Name="X_lBrine" NumberOfComponents="1" format="ascii">
          0.968066 0.968066 0.968068 0.968068 0.968064 0.968064 0.968062 0.968062 0.968059 0.96806 0.968057 0.968057
          0.968055 0.968055 0.968052 0.968052 0.96805 0.96805 0.968042 0.968042 0.968032 0.968032 0.96802 0.96802
          0.968007 0.968007 0.967992 0.967992 0.967974 0.967974 0.967953 0.967953 0.96793 0.96793 0.967866 0.967866
          0.967791 0.967791 0.96771 0.96771 0.967638 0.967638 0.967604 0.967604 0.967663 0.967663 0.967916 0.967916
          0.968545 0.968545 0.969139 0.969139 0.97 0.97 0.971231 0.971231 0.972974 0.972974 0.975425 0.975425
          0.978853 0.978853 0.983634 0.983634 0.99029 0.99029
        </DataArray>
        <DataArray type="Float32" Name="X_lTotalC" NumberOfComponents="1" format="ascii">
          2.33101e-05 2.30748e-05 2.20114e-05 2.16697e-05 2.46619e-05 2.44239e-05 2.58462e-05 2.56191e-05 2.68854e-05 2.66572e-05 2.77927e-05 2.75387e-05
          2.85376e-05 2.82481e-05 2.91277e-05 2.88245e-05 2.95433e-05 2.92545e-05 2.9781e-05 2.95827e-05 2.97317e-05 2.9598e-05 2.96897e-05 2.95994e-05
          2.96511e-05 2.95902e-05 2.96132e-05 2.95721e-05 2.95738e-05 2.95463e-05 2.9531e-05 2.95129e-05 2.94832e-05 2.94719e-05 2.93528e-05 2.93486e-05
          2.91829e-05 2.91813e-05 2.89597e-05 2.8959e-05 2.86653e-05 2.86651e-05 2.82729e-05 2.82728e-05 2.77371e-05 2.77371e-05 2.69738e-05 2.69738e-05
          2.5823e-05 2.5823e-05 2.49395e-05 2.49395e-05 2.37752e-05 2.37752e-05 2.22222e-05 2.22222e-05 2.01289e-05 2.01289e-05 1.72829e-05 1.72829e-05
          1.33861e-05 1.33861e-05 8.01777e-06 8.01777e-06 5.81077e-07 5.81077e-07
        </DataArray>
        <DataArray type="Float32" Name="X_lNa" NumberOfComponents="1" format="ascii">
          3.68072e-06 3.68073e-06 3.68092e-06 3.68095e-06 3.68047e-06 3.68048e-06 3.68022e-06 3.68022e-06 3.67994e-06 3.67995e-06 3.67965e-06 3.67966e-06
          3.67933e-06 3.67934e-06 3.67899e-06 3.679e-06 3.67862e-06 3.67862e-06 3.6774e-06 3.6774e-06 3.67593e-06 3.67593e-06 3.67419e-06 3.67419e-06
          3.67216e-06 3.67216e-06 3.66979e-06 3.66979e-06 3.66705e-06 3.66706e-06 3.66389e-06 3.66389e-06 3.66024e-06 3.66024e-06 3.65007e-06 3.65007e-06
          3.63732e-06 3.63732e-06 3.6219e-06 3.6219e-06 3.60399e-06 3.60399e-06 3.58419e-06 3.58419e-06 3.56383e-06 3.56383e-06 3.54532e-06 3.54532e-06
          3.53275e-06 3.53275e-06 3.52995e-06 3.52995e-06 3.53112e-06 3.53112e-06 3.53781e-06 3.53781e-06 3.55202e-06 3.55202e-06 3.57634e-06 3.57634e-06
          3.61411e-06 3.61411e-06 3.6697e-06 3.6697e-06 3.74881e-06 3.74881e-06
        </DataArray>
        <DataArray type="Float32" Name="X_lCl" NumberOfComponents="1" format="ascii">
          0.00646264 0.00646258 0.00646131 0.0064611 0.00646426 0.00646422 0.00646597 0.00646594 0.00646781 0.00646777 0.0064698 0.00646973
          0.00647192 0.00647184 0.00647421 0.00647417 0.00647671 0.0064767 0.00648491 0.00648489 0.00649486 0.00649484 0.00650658 0.00650657
          0.00652027 0.00652026 0.0065362 0.0065362 0.00655467 0.00655467 0.00657601 0.00657601 0.00660062 0.00660062 0.00666924 0.00666924
          0.00675536 0.00675536 0.00685978 0.00685978 0.00698163 0.00698163 0.0071174 0.0071174 0.00725941 0.00725941 0.00739358 0.00739358
          0.00749622 0.00749622 0.00753062 0.00753062 0.00754432 0.00754432 0.00752932 0.00752932 0.00747543 0.00747543 0.00736973 0.00736973
          0.00719595 0.00719595 0.00693347 0.00693347 0.00655617 0.00655617
        </DataArray>
        <DataArray type="Float32" Name="X_lCa" NumberOfComponents="1" format="ascii">
          1.09644e-05 1.09041e-05 1.0264e-05 1.0127e-05 1.18121e-05 1.17628e-05 1.26935e-05 1.2654e-05 1.36356e-05 1.35936e-05 1.4643e-05 1.45869e-05
          1.57157e-05 1.56568e-05 1.68675e-05 1.68276e-05 1.81188e-05 1.80942e-05 2.22055e-05 2.21824e-05 2.71729e-05 2.71546e-05 3.30362e-05 3.30233e-05
          3.98974e-05 3.98885e-05 4.78957e-05 4.78896e-05 5.71874e-05 5.71833e-05 6.79483e-05 6.79455e-05 8.0377e-05 8.03752e-05 0.000115179 0.000115178
          0.000159088 0.000159087 0.000212584 0.000212584 0.000275279 0.000275279 0.000345352 0.000345352 0.000418729 0.000418729 0.000487864 0.000487864
          0.000539942 0.000539942 0.000556578 0.000556577 0.000561832 0.000561832 0.000551279 0.000551279 0.000519258 0.000519258 0.000458566 0.000458566
          0.00036007 0.00036007 0.000212158 0.000212158 0 0
        </DataArray>
        <DataArray type="Float32" Name="X_lUrea" NumberOfComponents="1" format="ascii">
          0.0193973 0.0193976 0.0193998 0.0194003 0.0193945 0.0193948 0.0193919 0.0193922 0.0193895 0.0193898 0.0193871 0.0193875
          0.0193849 0.0193853 0.0193828 0.0193832 0.0193808 0.0193811 0.0193757 0.019376 0.0193701 0.0193703 0.0193634 0.0193635
          0.0193556 0.0193557 0.0193465 0.0193465 0.0193358 0.0193359 0.0193234 0.0193235 0.019309 0.019309 0.0192677 0.0192677
          0.0192118 0.0192118 0.0191352 0.0191352 0.0190267 0.0190267 0.0188661 0.0188661 0.0186164 0.0186164 0.0182099 0.0182099
          0.017522 0.017522 0.01696 0.01696 0.0161954 0.0161954 0.01515 0.01515 0.0137152 0.0137152 0.0117399 0.0117399
          0.00901306 0.00901306 0.00523883 0.00523883 0 0
        </DataArray>
        <DataArray type="Float32" Name="X_lTotalNH" NumberOfComponents="1" format="ascii">
          0.00311283 0.00311267 0.00311178 0.00311153 0.00311394 0.00311377 0.00311493 0.00311477 0.00311581 0.00311565 0.00311661 0.00311643
          0.0031173 0.00311709 0.00311788 0.00311766 0.00311834 0.00311813 0.00311898 0.00311884 0.0031195 0.00311941 0.00312012 0.00312005
          0.00312084 0.00312079 0.00312166 0.00312163 0.0031226 0.00312258 0.00312368 0.00312367 0.0031249 0.00312489 0.00312818 0.00312818
          0.00313211 0.0031321 0.00313663 0.00313663 0.00314165 0.00314165 0.00314702 0.00314701 0.00315245 0.00315245 0.00315756 0.00315756
          0.00316171 0.00316171 0.00316341 0.00316341 0.00316463 0.00316463 0.00316519 0.00316519 0.00316489 0.00316489 0.0031635 0.0031635
          0.0031607 0.0031607 0.00315617 0.00315617 0.00314947 0.00314947
        </DataArray>
        <DataArray type="Float32" Name="X_lO2" NumberOfComponents="1" format="ascii">
          7.69195e-06 7.69271e-06 7.69678e-06 7.69793e-06 7.68688e-06 7.68765e-06 7.68239e-06 7.68312e-06 7.67837e-06 7.67912e-06 7.6748e-06 7.67566e-06
          7.67177e-06 7.67276e-06 7.66927e-06 7.67031e-06 7.66735e-06 7.66834e-06 7.66509e-06 7.66577e-06 7.66358e-06 7.66404e-06 7.66174e-06 7.66205e-06
          7.65954e-06 7.65975e-06 7.65694e-06 7.65708e-06 7.65389e-06 7.65398e-06 7.6503e-06 7.65037e-06 7.6461e-06 7.64614e-06 7.63383e-06 7.63384e-06
          7.61676e-06 7.61676e-06 7.59238e-06 7.59238e-06 7.55618e-06 7.55618e-06 7.49995e-06 7.49995e-06 7.40862e-06 7.40862e-06 7.25462e-06 7.25462e-06
          6.98738e-06 6.98738e-06 6.76652e-06 6.76652e-06 6.46432e-06 6.46432e-06 6.04948e-06 6.04948e-06 5.47846e-06 5.47846e-06 4.69074e-06 4.69074e-06
          3.60195e-06 3.60195e-06 2.0939e-06 2.0939e-06 0 0
        </DataArray>
        <DataArray type="Float32" Name="X_lSubstrate" NumberOfComponents="1" format="ascii">
          0.00291569 0.00291569 0.0029157 0.0029157 0.00291567 0.00291567 0.00291565 0.00291565 0.00291563 0.00291564 0.00291562 0.00291562
          0.0029156 0.0029156 0.00291559 0.00291559 0.00291557 0.00291557 0.00291552 0.00291553 0.00291546 0.00291546 0.00291538 0.00291538
          0.00291527 0.00291527 0.00291511 0.00291511 0.00291491 0.00291491 0.00291463 0.00291463 0.00291427 0.00291427 0.00291293 0.00291293
          0.00291039 0.00291039 0.00290565 0.00290565 0.00289688 0.00289688 0.00288073 0.00288073 0.00285117 0.00285117 0.00279716 0.00279716
          0.00269864 0.00269864 0.00261545 0.00261545 0.00250051 0.00250051 0.00234159 0.00234159 0.00212177 0.00212177 0.00181752 0.00181752
          0.00139612 0.00139612 0.000811762 0.000811762 0 0
        </DataArray>
        <DataArray type="Float32" Name="X_lSuspended_Biomass" NumberOfComponents="1" format="ascii">
          2.05587e-08 2.03269e-08 1.94353e-08 1.91348e-08 2.16836e-08 2.14537e-08 2.26547e-08 2.24401e-08 2.34898e-08 2.32813e-08 2.42066e-08 2.39813e-08
          2.47819e-08 2.4527e-08 2.52285e-08 2.49617e-08 2.55347e-08 2.52828e-08 2.57411e-08 2.55694e-08 2.57978e-08 2.5682e-08 2.58773e-08 2.5799e-08
          2.59773e-08 2.59245e-08 2.60974e-08 2.60618e-08 2.62379e-08 2.6214e-08 2.63997e-08 2.6384e-08 2.6584e-08 2.65743e-08 2.7081e-08 2.70773e-08
          2.76666e-08 2.76652e-08 2.83234e-08 2.83228e-08 2.90173e-08 2.90171e-08 2.96878e-08 2.96877e-08 3.02302e-08 3.02302e-08 3.04659e-08 3.04659e-08
          3.00878e-08 3.00878e-08 2.94864e-08 2.94864e-08 2.84769e-08 2.84769e-08 2.6906e-08 2.6906e-08 2.45654e-08 2.45654e-08 2.11709e-08 2.11709e-08
          1.63345e-08 1.63345e-08 9.52324e-09 9.52324e-09 0 0
        </DataArray>
        <DataArray type="Float32" Name="X_lNH4" NumberOfComponents="1" format="ascii">
          0.00328308 0.00328301 0.00328255 0.00328244 0.00328365 0.00328358 0.00328417 0.00328411 0.00328466 0.00328459 0.0032851 0.00328502
          0.00328551 0.00328541 0.00328586 0.00328576 0.00328617 0.00328607 0.00328676 0.00328669 0.00328734 0.0032873 0.00328802 0.00328799
          0.00328881 0.00328879 0.00328971 0.0032897 0.00329074 0.00329073 0.00329191 0.0032919 0.00329324 0.00329323 0.00329681 0.00329681
          0.00330108 0.00330108 0.003306 0.003306 0.0033115 0.0033115 0.00331739 0.00331739 0.00332343 0.00332343 0.00332921 0.00332921
          0.00333413 0.00333413 0.00333632 0.00333632 0.00333812 0.00333812 0.00333939 0.00333939 0.00333999 0.00333999 0.00333975 0.00333975
          0.00333852 0.00333852 0.00333621 0.00333621 0.00333307 0.00333307
        </DataArray>
        <DataArray type="Float32" Name="X_lHCO3" NumberOfComponents="1" format="ascii">
          2.53783e-05 2.50812e-05 2.37408e-05 2.3312e-05 2.70935e-05 2.67914e-05 2.86049e-05 2.83153e-05 2.99376e-05 2.96456e-05 3.11062e-05 3.07801e-05
          3.20697e-05 3.16972e-05 3.28364e-05 3.24457e-05 3.33798e-05 3.30073e-05 3.37102e-05 3.34542e-05 3.36731e-05 3.35003e-05 3.36473e-05 3.35307e-05
          3.3628e-05 3.35493e-05 3.36116e-05 3.35585e-05 3.35952e-05 3.35596e-05 3.35765e-05 3.3553e-05 3.35532e-05 3.35386e-05 3.34777e-05 3.34721e-05
          3.33544e-05 3.33523e-05 3.31635e-05 3.31627e-05 3.2879e-05 3.28787e-05 3.24626e-05 3.24625e-05 3.18512e-05 3.18511e-05 3.09299e-05 3.09298e-05
          2.94845e-05 2.94845e-05 2.8355e-05 2.8355e-05 2.68567e-05 2.68567e-05 2.48536e-05 2.48536e-05 2.21612e-05 2.21612e-05 1.85368e-05 1.85368e-05
          1.36861e-05 1.36861e-05 7.36532e-06 7.36532e-06 3.37056e-07 3.37056e-07
        </DataArray>
        <DataArray type="Float32" Name="X_lCO3" NumberOfComponents="1" format="ascii">
          9.96748e-09 9.77572e-09 8.92366e-09 8.65978e-09 1.11192e-08 1.09146e-08 1.2185e-08 1.19807e-08 1.31665e-08 1.2953e-08 1.40616e-08 1.38156e-08
          1.48276e-08 1.45398e-08 1.54601e-08 1.5153e-08 1.59296e-08 1.56327e-08 1.6319e-08 1.61113e-08 1.64292e-08 1.62879e-08 1.65616e-08 1.64652e-08
          1.67119e-08 1.66463e-08 1.6878e-08 1.68333e-08 1.70581e-08 1.70277e-08 1.72507e-08 1.72305e-08 1.74547e-08 1.7442e-08 1.79463e-08 1.79413e-08
          1.84405e-08 1.84385e-08 1.89048e-08 1.89041e-08 1.9293e-08 1.92927e-08 1.95361e-08 1.9536e-08 1.95269e-08 1.95268e-08 1.90911e-08 1.90911e-08
          1.7948e-08 1.7948e-08 1.69064e-08 1.69063e-08 1.5467e-08 1.5467e-08 1.35476e-08 1.35476e-08 1.10894e-08 1.10894e-08 8.11024e-09 8.11024e-09
          4.80731e-09 4.80731e-09 1.73257e-09 1.73257e-09 2.55591e-11 2.55591e-11
        </DataArray>
        <DataArray type="Float32" Name="X_lCO2" NumberOfComponents="1" format="ascii">
          5.0026e-06 4.98162e-06 4.88544e-06 4.8532e-06 5.11668e-06 5.09667e-06 5.21039e-06 5.19222e-06 5.28786e-06 5.27041e-06 5.35182e-06 5.33315e-06
          5.40137e-06 5.38069e-06 5.43814e-06 5.41691e-06 5.46156e-06 5.44163e-06 5.46068e-06 5.44722e-06 5.43811e-06 5.42909e-06 5.41453e-06 5.40846e-06
          5.38974e-06 5.38567e-06 5.36356e-06 5.36084e-06 5.33585e-06 5.33403e-06 5.30646e-06 5.30526e-06 5.27527e-06 5.27454e-06 5.19903e-06 5.19875e-06
          5.11759e-06 5.11749e-06 5.0317e-06 5.03166e-06 4.94221e-06 4.9422e-06 4.84988e-06 4.84988e-06 4.75501e-06 4.75501e-06 4.65633e-06 4.65633e-06
          4.54865e-06 4.54865e-06 4.48039e-06 4.48039e-06 4.3976e-06 4.3976e-06 4.29042e-06 4.29042e-06 4.1404e-06 4.1404e-06 3.91014e-06 3.91014e-06
          3.51362e-06 3.51362e-06 2.70541e-06 2.70541e-06 3.38012e-07 3.38012e-07
        </DataArray>
        <DataArray type="Float32" Name="X_lH" NumberOfComponents="1" format="ascii">
          1.24552e-10 1.25488e-10 1.29902e-10 1.31393e-10 1.1946e-10 1.20327e-10 1.15351e-10 1.16119e-10 1.11987e-10 1.12711e-10 1.09218e-10 1.09982e-10
          1.07054e-10 1.0789e-10 1.05407e-10 1.06254e-10 1.04285e-10 1.05074e-10 1.03697e-10 1.04231e-10 1.03889e-10 1.0425e-10 1.04068e-10 1.04312e-10
          1.04243e-10 1.04408e-10 1.04423e-10 1.04534e-10 1.04613e-10 1.04688e-10 1.04819e-10 1.04868e-10 1.05046e-10 1.05076e-10 1.05642e-10 1.05654e-10
          1.06372e-10 1.06377e-10 1.07275e-10 1.07276e-10 1.08403e-10 1.08403e-10 1.09844e-10 1.09844e-10 1.11755e-10 1.11756e-10 1.14452e-10 1.14452e-10
          1.18594e-10 1.18594e-10 1.21915e-10 1.21915e-10 1.26539e-10 1.26539e-10 1.3324e-10 1.3324e-10 1.43448e-10 1.43448e-10 1.6016e-10 1.6016e-10
          1.90914e-10 1.90914e-10 2.62528e-10 2.62528e-10 6.32454e-10 6.32454e-10
        </DataArray>
        <DataArray type="Float32" Name="X_lOH" NumberOfComponents="1" format="ascii">
          1.3143e-06 1.30449e-06 1.26017e-06 1.24586e-06 1.37031e-06 1.36044e-06 1.41912e-06 1.40973e-06 1.46174e-06 1.45235e-06 1.4988e-06 1.48838e-06
          1.52909e-06 1.51724e-06 1.55297e-06 1.54058e-06 1.56967e-06 1.55789e-06 1.57853e-06 1.57045e-06 1.57558e-06 1.57013e-06 1.57283e-06 1.56916e-06
          1.57014e-06 1.56766e-06 1.56738e-06 1.56571e-06 1.56447e-06 1.56335e-06 1.56133e-06 1.56059e-06 1.55787e-06 1.55742e-06 1.54884e-06 1.54867e-06
          1.53794e-06 1.53787e-06 1.52469e-06 1.52467e-06 1.50852e-06 1.50851e-06 1.48849e-06 1.48848e-06 1.46299e-06 1.46299e-06 1.42891e-06 1.42891e-06
          1.38018e-06 1.38018e-06 1.34375e-06 1.34375e-06 1.29628e-06 1.29628e-06 1.23338e-06 1.23338e-06 1.14863e-06 1.14863e-06 1.03263e-06 1.03263e-06
          8.70824e-07 8.70824e-07 6.37904e-07 6.37904e-07 2.67481e-07 2.67481e-07
        </DataArray>
        <DataArray type="Float32" Name="X_gBrine" NumberOfComponents="1" format="ascii">
          0.0106528 0.0106525 0.0106329 0.0106382 0.010666 0.0106656 0.0106794 0.010679 0.0106924 0.0106921 0.010705 0.0107051
          0.0107174 0.0107176 0.0107293 0.0107293 0.0107408 0.0107406 0.0107723 0.0107722 0.0108022 0.0108022 0.0108319 0.0108319
          0.0108619 0.0108619 0.010892 0.010892 0.0109222 0.0109222 0.0109527 0.0109527 0.0109832 0.0109832 0.0110678 0.0110678
          0.0111536 0.0111536 0.0112408 0.0112408 0.0113294 0.0113294 0.0114194 0.0114194 0.0115109 0.0115109 0.0116039 0.0116039
          0.0116987 0.0116987 0.0117432 0.0117432 0.011788 0.011788 0.0118334 0.0118334 0.0118793 0.0118793 0.0119257 0.0119257
          0.0119729 0.0119729 0.0120209 0.0120209 0.0120698 0.0120698
        </DataArray>
        <DataArray type="Float32" Name="X_gTotalC" NumberOfComponents="1" format="ascii">
          0.989347 0.989347 0.989367 0.989362 0.989334 0.989334 0.989321 0.989321 0.989308 0.989308 0.989295 0.989295
          0.989283 0.989282 0.989271 0.989271 0.989259 0.989259 0.989228 0.989228 0.989198 0.989198 0.989168 0.989168
          0.989138 0.989138 0.989108 0.989108 0.989078 0.989078 0.989047 0.989047 0.989017 0.989017 0.988932 0.988932
          0.988846 0.988846 0.988759 0.988759 0.988671 0.988671 0.988581 0.988581 0.988489 0.988489 0.988396 0.988396
          0.988301 0.988301 0.988257 0.988257 0.988212 0.988212 0.988167 0.988167 0.988121 0.988121 0.988074 0.988074
          0.988027 0.988027 0.987979 0.987979 0.98793 0.98793
        </DataArray>
        <DataArray type="Float32" Name="X_gNa" NumberOfComponents="1" format="ascii">
          0 0 0 0 0 0 0 0 0 0 0 0
          0 0 0 0 0 0 0 0 0 0 0 0
          0 0 0 0 0 0 0 0 0 0 0 0
          0 0 0 0 0 0 0 0 0 0 0 0
          0 0 0 0 0 0 0 0 0 0 0 0
          0 0 0 0 0 0
        </DataArray>
        <DataArray type="Float32" Name="X_gCl" NumberOfComponents="1" format="ascii">
          0 0 0 0 0 0 0 0 0 0 0 0
          0 0 0 0 0 0 0 0 0 0 0 0
          0 0 0 0 0 0 0 0 0 0 0 0
          0 0 0 0 0 0 0 0 0 0 0 0
          0 0 0 0 0 0 0 0 0 0 0 0
          0 0 0 0 0 0
        </DataArray>
        <DataArray type="Float32" Name="X_gCa" NumberOfComponents="1" format="ascii">
          0 0 0 0 0 0 0 0 0 0 0 0
          0 0 0 0 0 0 0 0 0 0 0 0
          0 0 0 0 0 0 0 0 0 0 0 0
          0 0 0 0 0 0 0 0 0 0 0 0
          0 0 0 0 0 0 0 0 0 0 0 0
          0 0 0 0 0 0
        </DataArray>
        <DataArray type="Float32" Name="X_gUrea" NumberOfComponents="1" format="ascii">
          0 0 0 0 0 0 0 0 0 0 0 0
          0 0 0 0 0 0 0 0 0 0 0 0
          0 0 0 0 0 0 0 0 0 0 0 0
          0 0 0 0 0 0 0 0 0 0 0 0
          0 0 0 0 0 0 0 0 0 0 0 0
          0 0 0 0 0 0
        </DataArray>
        <DataArray type="Float32" Name="X_gTotalNH" NumberOfComponents="1" format="ascii">
          0 0 0 0 0 0 0 0 0 0 0 0
          0 0 0 0 0 0 0 0 0 0 0 0
          0 0 0 0 0 0 0 0 0 0 0 0
          0 0 0 0 0 0 0 0 0 0 0 0
          0 0 0 0 0 0 0 0 0 0 0 0
          0 0 0 0 0 0
        </DataArray>
        <DataArray type="Float32" Name="X_gO2" NumberOfComponents="1" format="ascii">
          0 0 0 0 0 0 0 0 0 0 0 0
          0 0 0 0 0 0 0 0 0 0 0 0
          0 0 0 0 0 0 0 0 0 0 0 0
          0 0 0 0 0 0 0 0 0 0 0 0
          0 0 0 0 0 0 0 0 0 0 0 0
          0 0 0 0 0 0
        </DataArray>
        <DataArray type="Float32" Name="X_gSubstrate" NumberOfComponents="1" format="ascii">
          0 0 0 0 0 0 0 0 0 0 0 0
          0 0 0 0 0 0 0 0 0 0 0 0
          0 0 0 0 0 0 0 0 0 0 0 0
          0 0 0 0 0 0 0 0 0 0 0 0
          0 0 0 0 0 0 0 0 0 0 0 0
          0 0 0 0 0 0
        </DataArray>
        <DataArray type="Float32" Name="X_gSuspended_Biomass" NumberOfComponents="1" format="ascii">
          0 0 0 0 0 0 0 0 0 0 0 0
          0 0 0 0 0 0 0 0 0 0 0 0
          0 0 0 0 0 0 0 0 0 0 0 0
          0 0 0 0 0 0 0 0 0 0 0 0
          0 0 0 0 0 0 0 0 0 0 0 0
          0 0 0 0 0 0
        </DataArray>
        <DataArray type="Float32" Name="X_gNH4" NumberOfComponents="1" format="ascii">
          0 0 0 0 0 0 0 0 0 0 0 0
          0 0 0 0 0 0 0 0 0 0 0 0
          0 0 0 0 0 0 0 0 0 0 0 0
          0 0 0 0 0 0 0 0 0 0 0 0
          0 0 0 0 0 0 0 0 0 0 0 0
          0 0 0 0 0 0
        </DataArray>
        <DataArray type="Float32" Name="X_gHCO3" NumberOfComponents="1" format="ascii">
          0 0 0 0 0 0 0 0 0 0 0 0
          0 0 0 0 0 0 0 0 0 0 0 0
          0 0 0 0 0 0 0 0 0 0 0 0
          0 0 0 0 0 0 0 0 0 0 0 0
          0 0 0 0 0 0 0 0 0 0 0 0
          0 0 0 0 0 0
        </DataArray>
        <DataArray type="Float32" Name="X_gCO3" NumberOfComponents="1" format="ascii">
          0 0 0 0 0 0 0 0 0 0 0 0
          0 0 0 0 0 0 0 0 0 0 0 0
          0 0 0 0 0 0 0 0 0 0 0 0
          0 0 0 0 0 0 0 0 0 0 0 0
          0 0 0 0 0 0 0 0 0 0 0 0
          0 0 0 0 0 0
        </DataArray>
        <DataArray type="Float32" Name="X_gCO2" NumberOfComponents="1" format="ascii">
          0.989347 0.989347 0.989367 0.989362 0.989334 0.989334 0.989321 0.989321 0.989308 0.989308 0.989295 0.989295
          0.989283 0.989282 0.989271 0.989271 0.989259 0.989259 0.989228 0.989228 0.989198 0.989198 0.989168 0.989168
          0.989138 0.989138 0.989108 0.989108 0.989078 0.989078 0.989047 0.989047 0.989017 0.989017 0.988932 0.988932
          0.988846 0.988846 0.988759 0.988759 0.988671 0.988671 0.988581 0.988581 0.988489 0.988489 0.988396 0.988396
          0.988301 0.988301 0.988257 0.988257 0.988212 0.988212 0.988167 0.988167 0.988121 0.988121 0.988074 0.988074
          0.988027 0.988027 0.987979 0.987979 0.98793 0.98793
        </DataArray>
        <DataArray type="Float32" Name="X_gH" NumberOfComponents="1" format="ascii">
          0 0 0 0 0 0 0 0 0 0 0 0
          0 0 0 0 0 0 0 0 0 0 0 0
          0 0 0 0 0 0 0 0 0 0 0 0
          0 0 0 0 0 0 0 0 0 0 0 0
          0 0 0 0 0 0 0 0 0 0 0 0
          0 0 0 0 0 0
        </DataArray>
        <DataArray type="Float32" Name="X_gOH" NumberOfComponents="1" format="ascii">
          0 0 0 0 0 0 0 0 0 0 0 0
          0 0 0 0 0 0 0 0 0 0 0 0
          0 0 0 0 0 0 0 0 0 0 0 0
          0 0 0 0 0 0 0 0 0 0 0 0
          0 0 0 0 0 0 0 0 0 0 0 0
          0 0 0 0 0 0
        </DataArray>
        <DataArray type="Float32" Name="Molarity_Brine" NumberOfComponents="1" format="ascii">
          53811.4 53811.4 53811.4 53811.4 53811.4 53811.4 53811.4 53811.4 53811.4 53811.4 53811.4 53811.4
          53811.3 53811.3 53811.3 53811.3 53811.3 53811.3 53811.3 53811.3 53811.3 53811.3 53811.3 53811.3
          53811.3 53811.3 53811.3 53811.3 53811.3 53811.3 53811.3 53811.3 53811.3 53811.3 53811.5 53811.5
          53812 53812 53813.2 53813.2 53815.8 53815.8 53821.4 53821.4 53832.4 53832.4 53853.8 53853.8
          53894.4 53894.4 53929.2 53929.2 53977.8 53977.8 54045.4 54045.4 54139.2 54139.2 54269.5 54269.5
          54450.2 54450.2 54701 54701 55049.2 55049.2
        </DataArray>
        <DataArray type="Float32" Name="Molarity_TotalC" NumberOfComponents="1" format="ascii">
          0.530517 0.525161 0.500959 0.493183 0.561284 0.555867 0.58824 0.58307 0.611893 0.606698 0.632543 0.626762
          0.649498 0.642908 0.662929 0.656029 0.67239 0.665818 0.677805 0.673293 0.67669 0.673647 0.675741 0.673687
          0.674871 0.673486 0.674019 0.673086 0.673135 0.672509 0.672177 0.671764 0.671104 0.670848 0.668184 0.668086
          0.664373 0.664336 0.65936 0.659346 0.652739 0.652734 0.643893 0.643891 0.631782 0.631781 0.614478 0.614478
          0.588324 0.588324 0.568213 0.568213 0.541694 0.541694 0.506301 0.506301 0.458582 0.458582 0.3937 0.3937
          0.304876 0.304876 0.182558 0.182558 0.0132254 0.0132254
        </DataArray>
        <DataArray type="Float32" Name="Molarity_Na" NumberOfComponents="1" format="ascii">
          0.160327 0.160327 0.160335 0.160336 0.160316 0.160316 0.160305 0.160306 0.160294 0.160294 0.160281 0.160282
          0.160268 0.160268 0.160253 0.160254 0.160237 0.160238 0.160186 0.160186 0.160123 0.160123 0.160049 0.160049
          0.159963 0.159963 0.159863 0.159863 0.159746 0.159746 0.159612 0.159612 0.159457 0.159457 0.159025 0.159025
          0.158483 0.158483 0.157828 0.157828 0.157067 0.157067 0.156225 0.156225 0.15536 0.15536 0.154574 0.154574
          0.154042 0.154042 0.153925 0.153925 0.153978 0.153978 0.154267 0.154267 0.154878 0.154878 0.155921 0.155921
          0.157538 0.157538 0.159917 0.159917 0.1633 0.1633
        </DataArray>
        <DataArray type="Float32" Name="Molarity_Cl" NumberOfComponents="1" format="ascii">
          182.543 182.541 182.505 182.499 182.589 182.588 182.638 182.637 182.69 182.689 182.747 182.745
          182.807 182.805 182.872 182.871 182.943 182.943 183.176 183.176 183.459 183.459 183.792 183.792
          184.182 184.181 184.635 184.634 185.16 185.159 185.767 185.766 186.466 186.466 188.418 188.418
          190.867 190.867 193.838 193.838 197.306 197.306 201.17 201.17 205.214 205.214 209.035 209.035
          211.959 211.959 212.939 212.939 213.329 213.329 212.901 212.901 211.365 211.365 208.353 208.353
          203.402 203.402 195.929 195.929 185.193 185.193
        </DataArray>
        <DataArray type="Float32" Name="Molarity_Ca" NumberOfComponents="1" format="ascii">
          0.273959 0.272453 0.25646 0.253036 0.295142 0.293908 0.317164 0.316178 0.340707 0.339657 0.365877 0.364476
          0.392682 0.39121 0.421461 0.420465 0.452729 0.452113 0.554847 0.55427 0.678973 0.678515 0.825489 0.825167
          0.996946 0.996724 1.19683 1.19667 1.42904 1.42893 1.69797 1.6979 2.0086 2.00856 2.8785 2.87848
          3.97619 3.97618 5.31383 5.31382 6.88181 6.88181 8.63478 8.63478 10.4709 10.4709 12.2014 12.2014
          13.5053 13.5053 13.9218 13.9218 14.0535 14.0535 13.7892 13.7892 12.9875 12.9875 11.4682 11.4682
          9.00331 9.00331 5.30339 5.30339 0 0
        </DataArray>
        <DataArray type="Float32" Name="Molarity_Urea" NumberOfComponents="1" format="ascii">
          320.536 320.541 320.577 320.586 320.491 320.496 320.449 320.454 320.409 320.414 320.37 320.376
          320.334 320.341 320.3 320.307 320.267 320.274 320.187 320.191 320.097 320.1 319.99 319.992
          319.865 319.867 319.72 319.721 319.55 319.55 319.352 319.353 319.122 319.122 318.46 318.46
          317.565 317.565 316.332 316.332 314.577 314.577 311.964 311.964 307.88 307.88 301.199 301.199
          289.85 289.85 280.563 280.563 267.917 267.917 250.619 250.619 226.872 226.872 194.175 194.175
          149.046 149.046 86.6087 86.6087 0 0
        </DataArray>
        <DataArray type="Float32" Name="Molarity_TotalNH" NumberOfComponents="1" format="ascii">
          183.03 183.021 182.969 182.954 183.096 183.086 183.154 183.145 183.207 183.198 183.254 183.244
          183.295 183.283 183.329 183.316 183.357 183.345 183.397 183.388 183.429 183.423 183.467 183.463
          183.512 183.509 183.563 183.562 183.622 183.621 183.689 183.689 183.766 183.765 183.971 183.971
          184.218 184.218 184.504 184.503 184.822 184.822 185.163 185.163 185.51 185.51 185.836 185.836
          186.099 186.099 186.206 186.206 186.279 186.279 186.309 186.309 186.281 186.281 186.178 186.178
          185.979 185.979 185.661 185.661 185.193 185.193
        </DataArray>
        <DataArray type="Float32" Name="Molarity_O2" NumberOfComponents="1" format="ascii">
          0.24071 0.240734 0.240861 0.240897 0.240552 0.240576 0.240412 0.240435 0.240287 0.24031 0.240175 0.240202
          0.240081 0.240112 0.240003 0.240036 0.239944 0.239975 0.239875 0.239897 0.23983 0.239845 0.239775 0.239785
          0.23971 0.239717 0.239633 0.239637 0.239541 0.239544 0.239434 0.239436 0.239309 0.23931 0.238941 0.238942
          0.238427 0.238428 0.237689 0.23769 0.236586 0.236586 0.234857 0.234857 0.232031 0.232031 0.227238 0.227238
          0.21889 0.21889 0.211979 0.211979 0.202514 0.202514 0.189515 0.189515 0.171616 0.171616 0.146924 0.146924
          0.1128 0.1128 0.0655549 0.0655549 0 0
        </DataArray>
        <DataArray type="Float32" Name="Molarity_Substrate" NumberOfComponents="1" format="ascii">
          16.2065 16.2066 16.2066 16.2066 16.2065 16.2065 16.2064 16.2064 16.2064 16.2064 16.2063 16.2063
          16.2062 16.2063 16.2062 16.2062 16.2062 16.2062 16.206 16.206 16.2058 16.2058 16.2056 16.2056
          16.2052 16.2052 16.2046 16.2046 16.2037 16.2037 16.2025 16.2025 16.2009 16.2009 16.1946 16.1946
          16.1819 16.1819 16.1573 16.1573 16.1104 16.1104 16.0229 16.0229 15.8607 15.8607 15.5624 15.5624
          15.0158 15.0158 14.5534 14.5534 13.914 13.914 13.0295 13.0295 11.8056 11.8056 10.1117 10.1117
          7.76577 7.76577 4.5141 4.5141 0 0
        </DataArray>
        <DataArray type="Float32" Name="Molarity_Suspended_Biomass" NumberOfComponents="1" format="ascii">
          2.05875e-05 2.03554e-05 1.94625e-05 1.91616e-05 2.17141e-05 2.14838e-05 2.26866e-05 2.24716e-05 2.35228e-05 2.3314e-05 2.42407e-05 2.40151e-05
          2.48169e-05 2.45616e-05 2.52642e-05 2.4997e-05 2.55709e-05 2.53186e-05 2.57778e-05 2.56058e-05 2.58348e-05 2.57188e-05 2.59147e-05 2.58363e-05
          2.60152e-05 2.59623e-05 2.61359e-05 2.61003e-05 2.62771e-05 2.62532e-05 2.64397e-05 2.64239e-05 2.6625e-05 2.66152e-05 2.71246e-05 2.71208e-05
          2.77135e-05 2.77121e-05 2.83744e-05 2.83739e-05 2.90732e-05 2.9073e-05 2.9749e-05 2.9749e-05 3.0297e-05 3.0297e-05 3.05374e-05 3.05373e-05
          3.01615e-05 3.01615e-05 2.95596e-05 2.95596e-05 2.85479e-05 2.85479e-05 2.69727e-05 2.69727e-05 2.46248e-05 2.46248e-05 2.12197e-05 2.12197e-05
          1.63691e-05 1.63691e-05 9.5408e-06 9.5408e-06 0 0
        </DataArray>
        <DataArray type="Float32" Name="Molarity_NH4" NumberOfComponents="1" format="ascii">
          182.254 182.25 182.224 182.218 182.286 182.282 182.315 182.312 182.343 182.339 182.368 182.363
          182.391 182.385 182.411 182.405 182.428 182.423 182.463 182.459 182.497 182.494 182.537 182.535
          182.583 182.582 182.636 182.635 182.696 182.696 182.765 182.765 182.843 182.843 183.054 183.054
          183.307 183.307 183.6 183.6 183.928 183.928 184.281 184.281 184.643 184.643 184.989 184.989
          185.282 185.282 185.41 185.41 185.512 185.512 185.579 185.579 185.602 185.602 185.568 185.568
          185.465 185.465 185.285 185.285 185.037 185.037
        </DataArray>
        <DataArray type="Float32" Name="Molarity_HCO3" NumberOfComponents="1" format="ascii">
          0.416503 0.411628 0.389629 0.382591 0.444654 0.439696 0.46946 0.464707 0.491333 0.48654 0.510513 0.505161
          0.526328 0.520213 0.538911 0.5325 0.547831 0.541717 0.553258 0.549056 0.552654 0.549819 0.552238 0.550324
          0.551929 0.550637 0.551668 0.550797 0.551409 0.550825 0.551114 0.550728 0.550744 0.550506 0.549543 0.549452
          0.547567 0.547533 0.54449 0.544477 0.539887 0.539882 0.533123 0.533121 0.523157 0.523156 0.508093 0.508093
          0.484401 0.484401 0.465859 0.465859 0.441248 0.441248 0.40833 0.40833 0.364075 0.364075 0.304498 0.304498
          0.224775 0.224775 0.120932 0.120932 0.00553194 0.00553194
        </DataArray>
        <DataArray type="Float32" Name="Molarity_CO3" NumberOfComponents="1" format="ascii">
          0.000166332 0.000163132 0.000148913 0.00014451 0.000185552 0.000182138 0.000203337 0.000199928 0.000219717 0.000216153 0.000234654 0.000230548
          0.000247438 0.000242635 0.000257994 0.000252868 0.000265829 0.000260874 0.000272328 0.000268863 0.000274171 0.000271812 0.000276383 0.000274775
          0.000278896 0.0002778 0.000281672 0.000280926 0.000284682 0.000284176 0.000287904 0.000287565 0.000291315 0.000291103 0.00029954 0.000299457
          0.000307816 0.000307783 0.0003156 0.000315587 0.000322121 0.000322116 0.000326224 0.000326222 0.000326117 0.000326116 0.000318883 0.000318882
          0.000299821 0.00029982 0.000282429 0.000282429 0.000258388 0.000258388 0.000226319 0.000226319 0.000185241 0.000185241 0.000135462 0.000135462
          8.02795e-05 8.02795e-05 2.8925e-05 2.8925e-05 4.26535e-07 4.26535e-07
        </DataArray>
        <DataArray type="Float32" Name="Molarity_CO2" NumberOfComponents="1" format="ascii">
          0.113855 0.113377 0.111188 0.110454 0.116451 0.115996 0.118584 0.118171 0.120348 0.119951 0.121804 0.121379
          0.122932 0.122461 0.123769 0.123286 0.124302 0.123849 0.124283 0.123977 0.123771 0.123565 0.123235 0.123097
          0.122673 0.12258 0.122079 0.122017 0.12145 0.121409 0.120784 0.120757 0.120077 0.120061 0.11835 0.118344
          0.116506 0.116504 0.114563 0.114562 0.112539 0.112539 0.110452 0.110452 0.108307 0.108307 0.106074 0.106074
          0.103632 0.103632 0.10208 0.10208 0.100195 0.100195 0.0977511 0.0977511 0.0943276 0.0943276 0.0890718 0.0890718
          0.0800243 0.0800243 0.0615999 0.0615999 0.00769319 0.00769319
        </DataArray>
        <DataArray type="Float32" Name="Molarity_H" NumberOfComponents="1" format="ascii">
          0.000123744 0.000124674 0.000129059 0.000130541 0.000118686 0.000119547 0.000114603 0.000115366 0.000111261 0.00011198 0.00010851 0.00010927
          0.00010636 0.000107191 0.000104724 0.000105566 0.00010361 0.000104394 0.000103027 0.000103557 0.000103219 0.000103577 0.000103398 0.00010364
          0.000103573 0.000103737 0.000103753 0.000103864 0.000103944 0.000104018 0.000104151 0.0001042 0.000104379 0.000104409 0.000104979 0.000104991
          0.000105714 0.000105718 0.000106621 0.000106623 0.000107756 0.000107757 0.000109204 0.000109204 0.00011112 0.00011112 0.000113816 0.000113816
          0.000117948 0.000117948 0.000121255 0.000121255 0.000125856 0.000125856 0.000132517 0.000132517 0.000142662 0.000142662 0.000159264 0.000159264
          0.000189812 0.000189812 0.000260941 0.000260941 0.000628379 0.000628379
        </DataArray>
        <DataArray type="Float32" Name="Molarity_OH" NumberOfComponents="1" format="ascii">
          7.74226e-05 7.68448e-05 7.42342e-05 7.33913e-05 8.07222e-05 8.01407e-05 8.35977e-05 8.3045e-05 8.61089e-05 8.55557e-05 8.8292e-05 8.76781e-05
          9.00766e-05 8.93784e-05 9.14836e-05 9.07538e-05 9.24678e-05 9.17734e-05 9.29904e-05 9.25143e-05 9.28174e-05 9.24965e-05 9.26567e-05 9.24402e-05
          9.24993e-05 9.23532e-05 9.23384e-05 9.224e-05 9.21686e-05 9.21027e-05 9.19853e-05 9.19418e-05 9.17841e-05 9.17571e-05 9.12583e-05 9.12481e-05
          9.06235e-05 9.06196e-05 8.98526e-05 8.98511e-05 8.89103e-05 8.89098e-05 8.7742e-05 8.77417e-05 8.62513e-05 8.62513e-05 8.42538e-05 8.42537e-05
          8.1389e-05 8.1389e-05 7.92429e-05 7.92429e-05 7.6445e-05 7.6445e-05 7.2734e-05 7.2734e-05 6.77325e-05 6.77325e-05 6.08851e-05 6.08851e-05
          5.13354e-05 5.13354e-05 3.75943e-05 3.75943e-05 1.57575e-05 1.57575e-05
        </DataArray>
        <DataArray type="Float32" Name="Sum_charges" NumberOfComponents="1" format="ascii">
          0.00242634 0.00242636 0.00242631 0.00242632 0.00242639 0.00242641 0.00242645 0.00242646 0.00242651 0.00242653 0.00242659 0.0024266
          0.00242667 0.00242669 0.00242677 0.00242678 0.00242688 0.00242689 0.00242725 0.00242726 0.0024277 0.0024277 0.00242821 0.00242822
          0.00242881 0.00242881 0.00242949 0.00242949 0.00243027 0.00243027 0.00243115 0.00243115 0.00243215 0.00243215 0.00243486 0.00243486
          0.0024381 0.0024381 0.00244186 0.00244186 0.00244606 0.00244606 0.00245061 0.00245061 0.00245531 0.00245531 0.00245988 0.00245988
          0.00246391 0.00246391 0.00246581 0.00246581 0.00246749 0.00246749 0.00246887 0.00246887 0.00246988 0.00246988 0.00247044 0.00247044
          0.0024705 0.0024705 0.00247003 0.00247003 0.00246913 0.00246913
        </DataArray>
        <DataArray type="Float32" Name="Vx" NumberOfComponents="1" format="ascii">
          -2.88815e-05 -3.82782e-05 -8.42323e-05 -0.000103706 1.9535e-05 2.01592e-05 1.96517e-05 1.99796e-05 1.06081e-05 1.06385e-05 -4.82151e-06 -4.87379e-06
          -9.8645e-06 -1.00249e-05 1.13016e-07 8.28623e-08 8.51412e-06 8.60997e-06 5.40577e-06 5.42281e-06 1.16527e-06 1.16543e-06 1.27065e-07 1.27066e-07
          1.2438e-08 1.24379e-08 1.13924e-09 1.13923e-09 8.79306e-10 8.79303e-10 -7.26895e-10 -7.26892e-10 -1.65343e-09 -1.65342e-09 -5.08289e-10 -5.08289e-10
          -5.1262e-10 -5.1262e-10 2.43536e-10 2.43536e-10 4.35035e-10 4.35035e-10 -4.94866e-10 -4.94866e-10 2.23693e-10 2.23693e-10 3.40586e-10 3.40586e-10
          -7.37439e-10 -7.3744e-10 -9.99495e-10 -9.99496e-10 -8.63297e-12 -8.6333e-12 2.48851e-10 2.48851e-10 4.0549e-10 4.0549e-10 7.68786e-10 7.68787e-10
          2.50859e-10 2.50859e-10 8.47738e-12 8.47738e-12 -9.92168e-13 -9.92168e-13
        </DataArray>
        <DataArray type="Float32" Name="Vy" NumberOfComponents="1" format="ascii">
          0.00181357 0.00186306 0.00163022 0.00167117 0.0017144 0.00176458 0.00171459 0.00174875 0.00174107 0.0017623 0.00171941 0.00173831
          0.00173669 0.00176299 0.00171997 0.00175093 0.00170046 0.00171939 0.00177382 0.00177997 0.0017478 0.00174876 0.00174133 0.00174142
          0.00174128 0.00174128 0.00174124 0.00174123 0.00174119 0.00174119 0.00174104 0.00174103 0.00174181 0.00174181 0.00174094 0.00174094
          0.00174085 0.00174085 0.00174067 0.00174067 0.00174047 0.00174047 0.00174022 0.00174022 0.00173992 0.00173992 0.00173956 0.00173956
          0.00173963 0.00173963 0.00173852 0.00173852 0.00173768 0.00173769 0.0017366 0.0017366 0.00173504 0.00173505 0.00173269 0.00173269
          0.00172935 0.00172935 0.00172485 0.00172485 0.00172355 0.00172355
        </DataArray>
      </PointData>
      <CellData Scalars="process rank">
        <DataArray type="Float32" Name="process rank" NumberOfComponents="1" format="ascii">
          0 0 0 0 0 0 0 0 0 0 0 0
          0 0 0 0 0 0 0 0 0 0 0 0
          0 0 0 0 0 0 0 0
        </DataArray>
      </CellData>
      <Points>
        <DataArray type="Float32" Name="Coordinates" NumberOfComponents="3" format="ascii">
          0.0254 0.00625 0 0 0.00625 0 0.0254 0 0 0 0 0
          0.0254 0.0125 0 0 0.0125 0 0.0254 0.01875 0 0 0.01875 0
          0.0254 0.025 0 0 0.025 0 0.0254 0.03125 0 0 0.03125 0
          0.0254 0.0375 0 0 0.0375 0 0.0254 0.04375 0 0 0.04375 0
          0.0254 0.05 0 0 0.05 0 0.0254 0.06875 0 0 0.06875 0
          0.0254 0.0875 0 0 0.0875 0 0.0254 0.10625 0 0 0.10625 0
          0.0254 0.125 0 0 0.125 0 0.0254 0.14375 0 0 0.14375 0
          0.0254 0.1625 0 0 0.1625 0 0.0254 0.18125 0 0 0.18125 0
          0.0254 0.2 0 0 0.2 0 0.0254 0.25125 0 0 0.25125 0
          0.0254 0.3025 0 0 0.3025 0 0.0254 0.35375 0 0 0.35375 0
          0.0254 0.405 0 0 0.405 0 0.0254 0.45625 0 0 0.45625 0
          0.0254 0.5075 0 0 0.5075 0 0.0254 0.55875 0 0 0.55875 0
          0.0254 0.61 0 0 0.61 0 0.0254 0.63375 0 0 0.63375 0
          0.0254 0.6575 0 0 0.6575 0 0.0254 0.68125 0 0 0.68125 0
          0.0254 0.705 0 0 0.705 0 0.0254 0.72875 0 0 0.72875 0
          0.0254 0.7525 0 0 0.7525 0 0.0254 0.77625 0 0 0.77625 0
          0.0254 0.8 0 0 0.8 0
        </DataArray>
      </Points>
      <Cells>
        <DataArray type="Int32" Name="connectivity" NumberOfComponents="1" format="ascii">
          0 1 3 2 4 5 1 0 6 7 5 4
          8 9 7 6 10 11 9 8 12 13 11 10
          14 15 13 12 16 17 15 14 18 19 17 16
          20 21 19 18 22 23 21 20 24 25 23 22
          26 27 25 24 28 29 27 26 30 31 29 28
          32 33 31 30 34 35 33 32 36 37 35 34
          38 39 37 36 40 41 39 38 42 43 41 40
          44 45 43 42 46 47 45 44 48 49 47 46
          50 51 49 48 52 53 51 50 54 55 53 52
          56 57 55 54 58 59 57 56 60 61 59 58
          62 63 61 60 64 65 63 62
        </DataArray>
        <DataArray type="Int32" Name="offsets" NumberOfComponents="1" format="ascii">
          4 8 12 16 20 24 28 32 36 40 44 48
          52 56 60 64 68 72 76 80 84 88 92 96
          100 104 108 112 116 120 124 128
        </DataArray>
        <DataArray type="UInt8" Name="types" NumberOfComponents="1" format="ascii">
          9 9 9 9 9 9 9 9 9 9 9 9
          9 9 9 9 9 9 9 9 9 9 9 9
          9 9 9 9 9 9 9 9
        </DataArray>
      </Cells>
    </Piece>
  </UnstructuredGrid>
</VTKFile>
