<?xml version="1.0"?>
<VTKFile type="UnstructuredGrid" version="0.1" byte_order="LittleEndian">
  <UnstructuredGrid>
    <Piece NumberOfCells="32" NumberOfPoints="66">
      <PointData Scalars="Sg">
        <DataArray type="Float32" Name="Sg" NumberOfComponents="1" format="ascii">
          0 0 0 0 0 0 0 0 0 0 0 0
          0 0 0 0 0 0 0 0 0 0 0 0
          0 0 0 0 0 0 0 0 0 0 0 0
          0 0 0 0 0 0 0 0 0 0 0 0
          0 0 0 0 0 0 0 0 0 0 0 0
          0 0 0 0 0 0
        </DataArray>
        <DataArray type="Float32" Name="Sl" NumberOfComponents="1" format="ascii">
          1 1 1 1 1 1 1 1 1 1 1 1
          1 1 1 1 1 1 1 1 1 1 1 1
          1 1 1 1 1 1 1 1 1 1 1 1
          1 1 1 1 1 1 1 1 1 1 1 1
          1 1 1 1 1 1 1 1 1 1 1 1
          1 1 1 1 1 1
        </DataArray>
        <DataArray type="Float32" Name="pg" NumberOfComponents="1" format="ascii">
          118911 118915 119069 119179 118798 118801 118692 118692 118592 118590 118500 118498
          118412 118410 118329 118327 118249 118248 118024 118023 117807 117807 117593 117593
          117378 117378 117164 117164 116949 116949 116735 116735 116521 116521 115935 115935
          115349 115349 114763 114763 114177 114177 113591 113591 113006 113006 112420 112420
          111834 111834 111563 111563 111291 111291 111020 111020 110749 110749 110478 110478
          110208 110208 109937 109937 109667 109667
        </DataArray>
        <DataArray type="Float32" Name="pl" NumberOfComponents="1" format="ascii">
          109244 109248 109402 109512 109131 109135 109025 109025 108925 108924 108833 108832
          108746 108744 108662 108661 108583 108582 108357 108356 108141 108140 107926 107926
          107711 107711 107497 107497 107283 107283 107068 107068 106854 106854 106268 106268
          105682 105682 105097 105097 104511 104511 103925 103925 103339 103339 102753 102753
          102167 102167 101896 101896 101625 101625 101354 101354 101083 101083 100812 100812
          100541 100541 100270 100270 100000 100000
        </DataArray>
        <DataArray type="Float32" Name="pc" NumberOfComponents="1" format="ascii">
          9666.67 9666.67 9666.67 9666.67 9666.67 9666.67 9666.67 9666.67 9666.67 9666.67 9666.67 9666.67
          9666.67 9666.67 9666.67 9666.67 9666.67 9666.67 9666.67 9666.67 9666.67 9666.67 9666.67 9666.67
          9666.67 9666.67 9666.67 9666.67 9666.67 9666.67 9666.67 9666.67 9666.67 9666.67 9666.67 9666.67
          9666.67 9666.67 9666.67 9666.67 9666.67 9666.67 9666.67 9666.67 9666.67 9666.67 9666.67 9666.67
          9666.67 9666.67 9666.67 9666.67 9666.67 9666.67 9666.67 9666.67 9666.67 9666.67 9666.67 9666.67
          9666.67 9666.67 9666.67 9666.67 9666.67 9666.67
        </DataArray>
        <DataArray type="Float32" Name="rhoL" NumberOfComponents="1" format="ascii">
          1001.44 1001.44 1001.43 1001.44 1001.44 1001.44 1001.44 1001.44 1001.44 1001.44 1001.44 1001.45
          1001.45 1001.45 1001.45 1001.45 1001.45 1001.45 1001.45 1001.45 1001.45 1001.46 1001.46 1001.46
          1001.46 1001.46 1001.47 1001.47 1001.47 1001.47 1001.48 1001.48 1001.48 1001.48 1001.5 1001.5
          1001.53 1001.53 1001.56 1001.56 1001.6 1001.6 1001.64 1001.64 1001.69 1001.69 1001.74 1001.74
          1001.78 1001.78 1001.79 1001.79 1001.8 1001.8 1001.8 1001.8 1001.78 1001.78 1001.74 1001.74
          1001.68 1001.68 1001.59 1001.59 1001.45 1001.45
        </DataArray>
        <DataArray type="Float32" Name="rhoG" NumberOfComponents="1" format="ascii">
          2.09236 2.09243 2.09522 2.09721 2.09031 2.09038 2.08839 2.08839 2.08658 2.08656 2.08492 2.08489
          2.08333 2.08329 2.08181 2.08179 2.08038 2.08036 2.07629 2.07628 2.07237 2.07237 2.06848 2.06848
          2.06459 2.06459 2.06071 2.06071 2.05683 2.05683 2.05294 2.05294 2.04906 2.04906 2.03845 2.03845
          2.02784 2.02784 2.01723 2.01723 2.00662 2.00662 1.996 1.996 1.98539 1.98539 1.97477 1.97477
          1.96416 1.96416 1.95925 1.95925 1.95434 1.95434 1.94943 1.94943 1.94452 1.94452 1.93961 1.93961
          1.9347 1.9347 1.9298 1.9298 1.9249 1.9249
        </DataArray>
        <DataArray type="Float32" Name="mobL" NumberOfComponents="1" format="ascii">
          1103.53 1103.53 1103.54 1103.53 1103.53 1103.53 1103.53 1103.53 1103.53 1103.53 1103.52 1103.52
          1103.52 1103.52 1103.52 1103.52 1103.51 1103.51 1103.5 1103.5 1103.48 1103.48 1103.46 1103.46
          1103.44 1103.44 1103.41 1103.41 1103.38 1103.38 1103.34 1103.34 1103.3 1103.3 1103.17 1103.17
          1103 1103 1102.8 1102.8 1102.55 1102.55 1102.27 1102.27 1101.95 1101.95 1101.64 1101.64
          1101.38 1101.38 1101.28 1101.28 1101.22 1101.22 1101.22 1101.22 1101.3 1101.3 1101.49 1101.49
          1101.82 1101.82 1102.35 1102.35 1103.12 1103.12
        </DataArray>
        <DataArray type="Float32" Name="mobG" NumberOfComponents="1" format="ascii">
          0 0 0 0 0 0 0 0 0 0 0 0
          0 0 0 0 0 0 0 0 0 0 0 0
          0 0 0 0 0 0 0 0 0 0 0 0
          0 0 0 0 0 0 0 0 0 0 0 0
          0 0 0 0 0 0 0 0 0 0 0 0
          0 0 0 0 0 0
        </DataArray>
        <DataArray type="Float32" Name="porosity" NumberOfComponents="1" format="ascii">
          0.224902 0.218245 0.150528 0.128325 0.245103 0.233172 0.245731 0.231127 0.274718 0.264605 0.287314 0.273157
          0.299141 0.291173 0.323479 0.316043 0.341116 0.33519 0.38448 0.383708 0.395809 0.395705 0.396709 0.39666
          0.397141 0.397111 0.397379 0.397361 0.397527 0.397517 0.397645 0.39764 0.397801 0.397797 0.397843 0.397844
          0.397827 0.397827 0.397772 0.397772 0.39771 0.397711 0.397693 0.397693 0.397767 0.397766 0.397969 0.397969
          0.398341 0.398342 0.398664 0.398664 0.399036 0.399037 0.399416 0.399416 0.399733 0.399734 0.399933 0.399933
          0.399999 0.399999 0.4 0.4 0.4 0.4
        </DataArray>
        <DataArray type="Float32" Name="temperature" NumberOfComponents="1" format="ascii">
          298.15 298.15 298.15 298.15 298.15 298.15 298.15 298.15 298.15 298.15 298.15 298.15
          298.15 298.15 298.15 298.15 298.15 298.15 298.15 298.15 298.15 298.15 298.15 298.15
          298.15 298.15 298.15 298.15 298.15 298.15 298.15 298.15 298.15 298.15 298.15 298.15
          298.15 298.15 298.15 298.15 298.15 298.15 298.15 298.15 298.15 298.15 298.15 298.15
          298.15 298.15 298.15 298.15 298.15 298.15 298.15 298.15 298.15 298.15 298.15 298.15
          298.15 298.15 298.15 298.15 298.15 298.15
        </DataArray>
        <DataArray type="Float32" Name="phase presence" NumberOfComponents="1" format="ascii">
          1 1 1 1 1 1 1 1 1 1 1 1
          1 1 1 1 1 1 1 1 1 1 1 1
          1 1 1 1 1 1 1 1 1 1 1 1
          1 1 1 1 1 1 1 1 1 1 1 1
          1 1 1 1 1 1 1 1 1 1 1 1
          1 1 1 1 1 1
        </DataArray>
        <DataArray type="Float32" Name="potential" NumberOfComponents="1" format="ascii">
          0.147239 0.14764 0.157033 0.168252 0.141955 0.142326 0.137407 0.137439 0.133485 0.133349 0.130408 0.130235
          0.127722 0.127504 0.125457 0.125305 0.123625 0.12351 0.119396 0.119348 0.116118 0.11611 0.113013 0.113012
          0.109927 0.109926 0.106848 0.106848 0.103773 0.103773 0.100701 0.100701 0.0976322 0.0976321 0.0892491 0.089249
          0.0808639 0.0808639 0.0724736 0.0724736 0.0640772 0.0640772 0.0556769 0.0556769 0.0472784 0.0472784 0.0388909 0.0388909
          0.030527 0.030527 0.0266641 0.0266641 0.0228143 0.0228143 0.0189795 0.0189795 0.0151596 0.0151596 0.0113533 0.0113533
          0.00755837 0.00755837 0.00377354 0.00377354 0 0
        </DataArray>
        <DataArray type="Float32" Name="boxVolume" NumberOfComponents="1" format="ascii">
          7.9375e-05 7.9375e-05 3.96875e-05 3.96875e-05 7.9375e-05 7.9375e-05 7.9375e-05 7.9375e-05 7.9375e-05 7.9375e-05 7.9375e-05 7.9375e-05
          7.9375e-05 7.9375e-05 7.9375e-05 7.9375e-05 0.00015875 0.00015875 0.000238125 0.000238125 0.000238125 0.000238125 0.000238125 0.000238125
          0.000238125 0.000238125 0.000238125 0.000238125 0.000238125 0.000238125 0.000238125 0.000238125 0.0004445 0.0004445 0.000650875 0.000650875
          0.000650875 0.000650875 0.000650875 0.000650875 0.000650875 0.000650875 0.000650875 0.000650875 0.000650875 0.000650875 0.000650875 0.000650875
          0.00047625 0.00047625 0.000301625 0.000301625 0.000301625 0.000301625 0.000301625 0.000301625 0.000301625 0.000301625 0.000301625 0.000301625
          0.000301625 0.000301625 0.000301625 0.000301625 0.000150812 0.000150812
        </DataArray>
        <DataArray type="Float32" Name="pH" NumberOfComponents="1" format="ascii">
          7.82952 7.83875 7.81359 7.82437 7.84453 7.8546 7.85739 7.8677 7.86794 7.87833 7.87693 7.88722
          7.88405 7.89395 7.88941 7.89886 7.89345 7.90227 7.89637 7.90246 7.89573 7.89982 7.89446 7.89726
          7.89269 7.89459 7.89035 7.89161 7.88747 7.88835 7.88405 7.88461 7.87992 7.88029 7.86788 7.86806
          7.85177 7.85183 7.83078 7.83084 7.80442 7.80447 7.77271 7.77271 7.73627 7.73623 7.69642 7.69642
          7.65452 7.65452 7.62951 7.62951 7.60096 7.60096 7.5663 7.5663 7.52095 7.52095 7.45625 7.45625
          7.3533 7.3533 7.15506 7.15506 6.19963 6.19963
        </DataArray>
        <DataArray type="Float32" Name="Omega" NumberOfComponents="1" format="ascii">
          0 0 0 0 0 0 0 0 0 0 0 0
          0 0 0 0 0 0 0 0 0 0 0 0
          0 0 0 0 0 0 0 0 0 0 0 0
          0 0 0 0 0 0 0 0 0 0 0 0
          0 0 0 0 0 0 0 0 0 0 0 0
          0 0 0 0 0 0
        </DataArray>
        <DataArray type="Float32" Name="Attachment_rate" NumberOfComponents="1" format="ascii">
          0 0 0 0 0 0 0 0 0 0 0 0
          0 0 0 0 0 0 0 0 0 0 0 0
          0 0 0 0 0 0 0 0 0 0 0 0
          0 0 0 0 0 0 0 0 0 0 0 0
          0 0 0 0 0 0 0 0 0 0 0 0
          0 0 0 0 0 0
        </DataArray>
        <DataArray type="Float32" Name="Detachment_rate" NumberOfComponents="1" format="ascii">
          2.42972e-06 2.5123e-06 8.30373e-06 7.85626e-06 1.84698e-06 2.07402e-06 1.87714e-06 2.14388e-06 1.15731e-06 1.29455e-06 9.3011e-07 1.1497e-06
          7.65379e-07 8.64702e-07 4.37901e-07 5.21378e-07 2.84378e-07 3.40088e-07 1.84113e-08 2.01947e-08 9.16222e-13 9.26979e-13 1.34546e-15 2.02926e-19
          4.4498e-26 4.54724e-26 1.02327e-25 9.86668e-33 0 4.08564e-36 1.36915e-25 0 7.44544e-38 7.14109e-37 0 0
          8.3902e-38 0 0 8.27629e-38 0 0 0 0 0 0 0 0
          0 0 0 3.5723e-38 0 0 -4.91443e-36 1.28624e-15 1.91607e-28 -2.01912e-35 0 0
          0 0 0 0 0 0
        </DataArray>
        <DataArray type="Float32" Name="Growth_rate" NumberOfComponents="1" format="ascii">
          9.79605e-06 9.8573e-06 1.8164e-05 1.65727e-05 8.74392e-06 9.14343e-06 8.83848e-06 9.28671e-06 7.09085e-06 7.42932e-06 6.42307e-06 7.0642e-06
          5.88348e-06 6.22152e-06 4.50574e-06 4.90742e-06 3.66077e-06 4.00602e-06 7.99124e-07 8.47419e-07 1.13722e-10 1.15383e-10 1.69483e-13 2.55718e-17
          5.61596e-24 5.73922e-24 1.2926e-23 1.24639e-30 2.71341e-37 5.16375e-34 1.73106e-23 0 9.41729e-36 9.03234e-35 0 0
          7.70772e-36 0 0 7.60167e-36 0 0 0 0 0 0 0 0
          0 0 0 4.25259e-36 0 0 -5.86343e-34 1.53461e-13 2.2885e-26 -2.41158e-33 0 0
          0 0 0 0 0 0
        </DataArray>
        <DataArray type="Float32" Name="Decay_rate" NumberOfComponents="1" format="ascii">
          1.50153e-07 1.51094e-07 2.78412e-07 2.54024e-07 1.34029e-07 1.40154e-07 1.35481e-07 1.42353e-07 1.08694e-07 1.13883e-07 9.84586e-08 1.08288e-07
          9.01883e-08 9.53714e-08 6.90693e-08 7.52278e-08 5.61171e-08 6.14103e-08 1.22501e-08 1.29905e-08 1.7433e-12 1.76877e-12 2.59813e-15 3.92012e-19
          8.60954e-26 8.79859e-26 1.98189e-25 1.91104e-32 0 7.91974e-36 2.6565e-25 0 1.44682e-37 1.38771e-36 0 0
          1.21186e-37 0 0 1.23494e-37 0 0 0 0 0 0 0 0
          0 0 0 7.83659e-38 0 0 -9.65907e-36 2.52803e-15 3.60157e-28 -3.79528e-35 0 0
          0 0 0 0 0 0
        </DataArray>
        <DataArray type="Float32" Name="Volume_Fraction_Biofilm" NumberOfComponents="1" format="ascii">
          0.0683674 0.0687957 0.126766 0.115661 0.0610257 0.0638147 0.0616867 0.0648159 0.0494901 0.0518531 0.0448299 0.0493054
          0.0410643 0.0434243 0.0314485 0.0342525 0.0255511 0.0279612 0.00557767 0.00591481 7.93754e-07 8.05346e-07 1.18295e-09 1.78486e-13
          3.91981e-20 4.00585e-20 9.02208e-20 8.6995e-27 1.8939e-33 3.60418e-30 1.20824e-19 0 6.57307e-32 6.30438e-31 -1.9375e-37 0
          5.37986e-32 9.85649e-36 0 5.30588e-32 3.24199e-37 5.32613e-36 0 0 0 0 0 0
          0 0 0 2.96941e-32 0 0 -4.096e-30 1.07203e-09 1.59937e-22 -1.68539e-29 0 0
          0 0 0 0 0 0
        </DataArray>
        <DataArray type="Float32" Name="Volume_Fraction_Calcite" NumberOfComponents="1" format="ascii">
          0.10673 0.112959 0.122706 0.156014 0.0938713 0.103014 0.0925828 0.104057 0.0757918 0.083542 0.0678561 0.0775372
          0.059795 0.0654024 0.0450723 0.0497047 0.0333331 0.0368485 0.00994195 0.0103776 0.00419032 0.00429437 0.00329105 0.00334029
          0.00285918 0.00288863 0.00262085 0.00263882 0.00247327 0.00248263 0.00235487 0.00236015 0.00219918 0.00220276 0.00215725 0.00215628
          0.00217292 0.00217315 0.00222825 0.00222837 0.00228974 0.00228858 0.00230706 0.00230691 0.00223342 0.00223444 0.00203149 0.00203126
          0.001659 0.0016584 0.00133589 0.00133615 0.000963578 0.000963168 0.000584204 0.000583838 0.000266868 0.000266252 6.70049e-05 6.70389e-05
          7.93696e-07 7.94476e-07 0 -5.24797e-38 0 0
        </DataArray>
        <DataArray type="Float32" Name="Kxx" NumberOfComponents="1" format="ascii">
          3.55494e-11 3.24851e-11 1.06587e-11 6.60365e-12 4.60146e-11 3.96166e-11 4.6369e-11 3.85835e-11 6.47906e-11 5.78954e-11 7.41174e-11 6.36926e-11
          8.36521e-11 7.71445e-11 1.05777e-10 9.86478e-11 1.24038e-10 1.17686e-10 1.77612e-10 1.76543e-10 1.93779e-10 1.93626e-10 1.95104e-10 1.95031e-10
          1.95742e-10 1.95698e-10 1.96094e-10 1.96068e-10 1.96313e-10 1.96299e-10 1.96488e-10 1.96481e-10 1.96719e-10 1.96714e-10 1.96782e-10 1.96783e-10
          1.96758e-10 1.96758e-10 1.96676e-10 1.96676e-10 1.96585e-10 1.96587e-10 1.96559e-10 1.9656e-10 1.96669e-10 1.96667e-10 1.96968e-10 1.96969e-10
          1.97522e-10 1.97523e-10 1.98003e-10 1.98002e-10 1.98558e-10 1.98559e-10 1.99125e-10 1.99126e-10 1.996e-10 1.99601e-10 1.999e-10 1.99899e-10
          1.99999e-10 1.99999e-10 2e-10 2e-10 2e-10 2e-10
        </DataArray>
        <DataArray type="Float32" Name="X_lBrine" NumberOfComponents="1" format="ascii">
          0.967982 0.967979 0.967987 0.967984 0.967978 0.967975 0.967974 0.967971 0.96797 0.967967 0.967967 0.967964
          0.967965 0.967962 0.967963 0.96796 0.967961 0.967958 0.967959 0.967957 0.967958 0.967957 0.967957 0.967956
          0.967955 0.967955 0.967954 0.967954 0.967953 0.967952 0.967951 0.967951 0.96795 0.96795 0.967949 0.967949
          0.967953 0.967953 0.96797 0.96797 0.968013 0.968013 0.968107 0.968107 0.968298 0.968298 0.968674 0.968674
          0.969393 0.969393 0.970015 0.970015 0.970885 0.970885 0.9721 0.9721 0.973792 0.973792 0.976147 0.976147
          0.97942 0.97942 0.983968 0.983968 0.99029 0.99029
        </DataArray>
        <DataArray type="Float32" Name="X_lTotalC" NumberOfComponents="1" format="ascii">
          0.000287861 0.00029462 0.000276554 0.000284139 0.000298967 0.000306615 0.000308771 0.000316878 0.000317107 0.000325486 0.000324332 0.000332865
          0.000330223 0.000338567 0.000334746 0.000342814 0.000338166 0.000345781 0.00034077 0.000346058 0.000340338 0.000343891 0.000339408 0.000341803
          0.000338047 0.000339661 0.000336274 0.000337361 0.000334087 0.000334815 0.000331463 0.000331943 0.000328365 0.000328662 0.000319396 0.000319508
          0.000307711 0.000307753 0.000293091 0.000293107 0.000275617 0.000275622 0.000255805 0.000255805 0.000234613 0.000234611 0.000213206 0.000213204
          0.000192452 0.000192452 0.00018086 0.00018086 0.000168324 0.000168324 0.000154098 0.000154099 0.000137092 0.000137092 0.000115792 0.000115792
          8.81217e-05 8.81218e-05 5.11423e-05 5.11424e-05 5.81077e-07 5.81077e-07
        </DataArray>
        <DataArray type="Float32" Name="X_lNa" NumberOfComponents="1" format="ascii">
          3.6823e-06 3.68228e-06 3.68237e-06 3.68234e-06 3.68222e-06 3.6822e-06 3.68214e-06 3.68212e-06 3.68205e-06 3.68203e-06 3.68195e-06 3.68193e-06
          3.68185e-06 3.68183e-06 3.68174e-06 3.68172e-06 3.68161e-06 3.6816e-06 3.68121e-06 3.6812e-06 3.68071e-06 3.6807e-06 3.68011e-06 3.6801e-06
          3.6794e-06 3.6794e-06 3.67857e-06 3.67857e-06 3.6776e-06 3.67759e-06 3.67646e-06 3.67646e-06 3.67514e-06 3.67514e-06 3.67138e-06 3.67138e-06
          3.66654e-06 3.66654e-06 3.66054e-06 3.66054e-06 3.6534e-06 3.6534e-06 3.64535e-06 3.64535e-06 3.63699e-06 3.63699e-06 3.62947e-06 3.62947e-06
          3.62484e-06 3.62484e-06 3.62437e-06 3.62437e-06 3.62598e-06 3.62598e-06 3.6305e-06 3.6305e-06 3.63901e-06 3.63901e-06 3.65293e-06 3.65293e-06
          3.67413e-06 3.67413e-06 3.70502e-06 3.70502e-06 3.74881e-06 3.74881e-06
        </DataArray>
        <DataArray type="Float32" Name="X_lCl" NumberOfComponents="1" format="ascii">
          0.00644885 0.00644891 0.00644853 0.00644863 0.00644925 0.0064493 0.0064497 0.00644973 0.0064502 0.00645022 0.00645077 0.00645078
          0.0064514 0.00645139 0.00645211 0.0064521 0.00645291 0.00645289 0.00645563 0.00645564 0.00645908 0.00645909 0.00646322 0.00646323
          0.0064681 0.00646811 0.00647384 0.00647384 0.00648056 0.00648056 0.0064884 0.0064884 0.00649754 0.00649754 0.00652358 0.00652358
          0.00655726 0.00655726 0.00659935 0.00659935 0.00664999 0.00664999 0.00670817 0.00670817 0.006771 0.006771 0.00683266 0.00683266
          0.00688301 0.00688301 0.00690207 0.00690207 0.00691306 0.00691306 0.00691267 0.00691267 0.00689678 0.00689678 0.00686025 0.00686025
          0.00679676 0.00679676 0.00669858 0.00669858 0.00655617 0.00655617
        </DataArray>
        <DataArray type="Float32" Name="X_lCa" NumberOfComponents="1" format="ascii">
          3.20821e-06 3.26449e-06 3.07148e-06 3.1476e-06 3.34931e-06 3.40162e-06 3.4839e-06 3.52741e-06 3.61564e-06 3.64955e-06 3.75223e-06 3.77623e-06
          3.89332e-06 3.90759e-06 4.04465e-06 4.05244e-06 4.21256e-06 4.21511e-06 4.77694e-06 4.78108e-06 5.5005e-06 5.50483e-06 6.37846e-06 6.38174e-06
          7.42362e-06 7.4259e-06 8.65911e-06 8.66064e-06 1.01113e-05 1.01123e-05 1.18099e-05 1.18105e-05 1.37889e-05 1.37892e-05 1.94244e-05 1.94242e-05
          2.67146e-05 2.67142e-05 3.59305e-05 3.593e-05 4.73722e-05 4.73712e-05 6.1277e-05 6.12755e-05 7.75368e-05 7.75338e-05 9.51314e-05 9.513e-05
          0.00011128 0.00011128 0.000118001 0.000118001 0.000122386 0.000122386 0.000123088 0.000123089 0.000118415 0.000118416 0.000106342 0.000106343
          8.45088e-05 8.45089e-05 5.01528e-05 5.01529e-05 0 0
        </DataArray>
        <DataArray type="Float32" Name="X_lUrea" NumberOfComponents="1" format="ascii">
          0.0190363 0.0190269 0.0190522 0.0190417 0.0190205 0.0190099 0.0190065 0.0189953 0.0189945 0.0189828 0.0189838 0.018972
          0.018975 0.0189635 0.018968 0.0189568 0.0189624 0.0189518 0.0189558 0.0189485 0.0189527 0.0189477 0.0189494 0.0189461
          0.0189459 0.0189437 0.0189419 0.0189404 0.0189372 0.0189362 0.0189316 0.0189309 0.0189248 0.0189244 0.0189039 0.0189038
          0.018872 0.0188719 0.018822 0.018822 0.0187423 0.0187423 0.0186118 0.0186118 0.0183924 0.0183924 0.0180153 0.0180153
          0.0173549 0.0173549 0.0168075 0.0168075 0.0160577 0.0160577 0.0150278 0.0150278 0.0136097 0.0136097 0.011653 0.011653
          0.00894825 0.00894825 0.00520178 0.00520178 0 0
        </DataArray>
        <DataArray type="Float32" Name="X_lTotalNH" NumberOfComponents="1" format="ascii">
          0.0033176 0.00332281 0.0033088 0.00331466 0.00332627 0.00333217 0.00333396 0.00334021 0.00334054 0.00334701 0.00334629 0.00335288
          0.00335103 0.00335748 0.00335475 0.00336098 0.00335763 0.00336352 0.00336048 0.00336457 0.00336119 0.00336394 0.00336171 0.00336356
          0.00336211 0.00336336 0.00336245 0.00336329 0.00336275 0.00336331 0.00336304 0.00336341 0.00336335 0.00336358 0.00336413 0.00336422
          0.00336506 0.0033651 0.00336613 0.00336614 0.00336721 0.00336721 0.003368 0.003368 0.00336796 0.00336796 0.00336605 0.00336605
          0.00336045 0.00336045 0.00335492 0.00335492 0.00334677 0.00334677 0.00333497 0.00333497 0.00331814 0.00331814 0.00329436 0.00329436
          0.003261 0.003261 0.0032144 0.0032144 0.00314947 0.00314947
        </DataArray>
        <DataArray type="Float32" Name="X_lO2" NumberOfComponents="1" format="ascii">
          6.70947e-06 6.68447e-06 6.75153e-06 6.72346e-06 6.66797e-06 6.63967e-06 6.63116e-06 6.60116e-06 6.59965e-06 6.56863e-06 6.57211e-06 6.54051e-06
          6.54939e-06 6.51847e-06 6.53159e-06 6.50168e-06 6.51773e-06 6.4895e-06 6.50402e-06 6.48439e-06 6.50055e-06 6.48735e-06 6.49795e-06 6.48905e-06
          6.49591e-06 6.48991e-06 6.49415e-06 6.49011e-06 6.49249e-06 6.48978e-06 6.49077e-06 6.48898e-06 6.48883e-06 6.48772e-06 6.48315e-06 6.48273e-06
          6.47423e-06 6.47407e-06 6.45965e-06 6.45959e-06 6.43527e-06 6.43525e-06 6.3938e-06 6.39379e-06 6.32204e-06 6.32203e-06 6.19605e-06 6.19605e-06
          5.97217e-06 5.97217e-06 5.78537e-06 5.78537e-06 5.52869e-06 5.52869e-06 5.17528e-06 5.17528e-06 4.68786e-06 4.68786e-06 4.01455e-06 4.01455e-06
          3.0831e-06 3.0831e-06 1.7924e-06 1.7924e-06 0 0
        </DataArray>
        <DataArray type="Float32" Name="X_lSubstrate" NumberOfComponents="1" format="ascii">
          0.00291337 0.00291331 0.00291347 0.00291341 0.00291327 0.0029132 0.00291318 0.00291311 0.0029131 0.00291302 0.00291302 0.00291295
          0.00291296 0.00291289 0.00291291 0.00291284 0.00291286 0.0029128 0.00291278 0.00291273 0.0029127 0.00291267 0.0029126 0.00291258
          0.00291247 0.00291245 0.00291229 0.00291228 0.00291207 0.00291206 0.00291177 0.00291177 0.00291139 0.00291138 0.00290998 0.00290998
          0.00290738 0.00290738 0.00290256 0.00290256 0.00289371 0.00289371 0.0028775 0.0028775 0.00284787 0.00284787 0.00279384 0.00279384
          0.00269537 0.00269537 0.00261226 0.00261226 0.00249744 0.00249744 0.00233872 0.00233872 0.00211917 0.00211917 0.0018153 0.0018153
          0.00139441 0.00139441 0.000810759 0.000810759 0 0
        </DataArray>
        <DataArray type="Float32" Name="X_lSuspended_Biomass" NumberOfComponents="1" format="ascii">
          3.4473e-07 3.53459e-07 3.33454e-07 3.42494e-07 3.54769e-07 3.64663e-07 3.63055e-07 3.73535e-07 3.69429e-07 3.7999e-07 3.74559e-07 3.85015e-07
          3.78483e-07 3.88378e-07 3.81272e-07 3.90471e-07 3.83328e-07 3.91707e-07 3.85405e-07 3.91051e-07 3.86359e-07 3.90155e-07 3.87033e-07 3.89593e-07
          3.87518e-07 3.89244e-07 3.8788e-07 3.89042e-07 3.88164e-07 3.88943e-07 3.88402e-07 3.88916e-07 3.88618e-07 3.88937e-07 3.89021e-07 3.89142e-07
          3.89351e-07 3.89397e-07 3.89523e-07 3.8954e-07 3.89307e-07 3.89314e-07 3.88241e-07 3.88243e-07 3.85459e-07 3.8546e-07 3.7938e-07 3.7938e-07
          3.67131e-07 3.67131e-07 3.56354e-07 3.56354e-07 3.41177e-07 3.41177e-07 3.19907e-07 3.19907e-07 2.90201e-07 2.90201e-07 2.48817e-07 2.48817e-07
          1.91256e-07 1.91256e-07 1.1125e-07 1.1125e-07 0 0
        </DataArray>
        <DataArray type="Float32" Name="X_lNH4" NumberOfComponents="1" format="ascii">
          0.00339025 0.00339301 0.00338556 0.00338866 0.00339491 0.00339803 0.00339904 0.00340235 0.00340261 0.00340604 0.00340574 0.00340925
          0.00340836 0.00341179 0.00341046 0.00341378 0.00341211 0.00341525 0.00341407 0.00341626 0.003415 0.00341648 0.00341594 0.00341693
          0.00341692 0.00341759 0.00341801 0.00341847 0.00341923 0.00341953 0.00342062 0.00342082 0.00342223 0.00342235 0.00342674 0.00342677
          0.00343252 0.00343254 0.00343965 0.00343965 0.00344796 0.00344796 0.00345693 0.00345693 0.00346558 0.00346559 0.00347235 0.00347235
          0.00347495 0.00347495 0.00347386 0.00347386 0.00347037 0.00347037 0.00346372 0.00346372 0.00345289 0.00345289 0.00343647 0.00343647
          0.00341256 0.00341256 0.00337864 0.00337864 0.00333307 0.00333307
        </DataArray>
        <DataArray type="Float32" Name="X_lHCO3" NumberOfComponents="1" format="ascii">
          0.000385425 0.000394708 0.000369895 0.000380313 0.000400679 0.000411183 0.000414145 0.000425277 0.000425592 0.000437097 0.000435514 0.000447229
          0.000443603 0.000455058 0.000449814 0.000460888 0.00045451 0.000464963 0.00045809 0.000465349 0.000457505 0.000462381 0.000456237 0.000459524
          0.000454378 0.000456593 0.000451955 0.000453446 0.000448964 0.000449964 0.000445375 0.000446034 0.000441135 0.000441543 0.000428856 0.000429012
          0.000412851 0.000412909 0.000392816 0.000392838 0.00036886 0.000368868 0.000341698 0.000341699 0.000312646 0.000312642 0.000283301 0.000283299
          0.000254858 0.000254857 0.000238968 0.000238968 0.000221781 0.000221781 0.000202274 0.000202274 0.000178953 0.000178953 0.000149763 0.000149763
          0.000111936 0.000111936 6.18505e-05 6.18507e-05 3.37056e-07 3.37056e-07
        </DataArray>
        <DataArray type="Float32" Name="X_lCO3" NumberOfComponents="1" format="ascii">
          1.26233e-06 1.32074e-06 1.16726e-06 1.23061e-06 1.35911e-06 1.42772e-06 1.44768e-06 1.52256e-06 1.525e-06 1.60433e-06 1.59393e-06 1.67622e-06
          1.65121e-06 1.73298e-06 1.696e-06 1.77601e-06 1.73069e-06 1.80684e-06 1.75942e-06 1.81259e-06 1.75874e-06 1.79433e-06 1.75358e-06 1.77766e-06
          1.74484e-06 1.76104e-06 1.73244e-06 1.74321e-06 1.7165e-06 1.72379e-06 1.69702e-06 1.70171e-06 1.67323e-06 1.6762e-06 1.60269e-06 1.60393e-06
          1.50863e-06 1.50904e-06 1.39011e-06 1.39037e-06 1.25049e-06 1.25066e-06 1.09756e-06 1.09756e-06 9.41869e-07 9.41757e-07 7.93708e-07 7.93702e-07
          6.58825e-07 6.58823e-07 5.8686e-07 5.86859e-07 5.12028e-07 5.12028e-07 4.31399e-07 4.314e-07 3.42305e-07 3.42305e-07 2.43956e-07 2.43956e-07
          1.4061e-07 1.4061e-07 4.71614e-08 4.71615e-08 2.55591e-11 2.55591e-11
        </DataArray>
        <DataArray type="Float32" Name="X_lCO2" NumberOfComponents="1" format="ascii">
          9.00527e-06 9.0275e-06 8.96752e-06 8.99301e-06 9.0414e-06 9.06493e-06 9.07049e-06 9.09497e-06 9.09526e-06 9.1198e-06 9.11452e-06 9.14002e-06
          9.13047e-06 9.15495e-06 9.14235e-06 9.16576e-06 9.14978e-06 9.1719e-06 9.15126e-06 9.16661e-06 9.14207e-06 9.1528e-06 9.13068e-06 9.13731e-06
          9.11607e-06 9.1205e-06 9.09975e-06 9.10333e-06 9.0812e-06 9.08309e-06 9.05927e-06 9.06101e-06 9.03608e-06 9.03676e-06 8.97294e-06 8.9725e-06
          8.89839e-06 8.89848e-06 8.81313e-06 8.81252e-06 8.71497e-06 8.71413e-06 8.60159e-06 8.60162e-06 8.47405e-06 8.47481e-06 8.3356e-06 8.33556e-06
          8.19174e-06 8.19173e-06 8.11051e-06 8.11051e-06 8.02254e-06 8.02254e-06 7.9227e-06 7.92271e-06 7.79807e-06 7.79808e-06 7.61921e-06 7.61922e-06
          7.30176e-06 7.30177e-06 6.50744e-06 6.50744e-06 3.38012e-07 3.38012e-07
        </DataArray>
        <DataArray type="Float32" Name="X_lH" NumberOfComponents="1" format="ascii">
          1.45882e-11 1.42818e-11 1.51333e-11 1.47626e-11 1.40928e-11 1.37698e-11 1.36817e-11 1.33606e-11 1.33532e-11 1.30376e-11 1.30798e-11 1.27733e-11
          1.28669e-11 1.2577e-11 1.27091e-11 1.24357e-11 1.25916e-11 1.23384e-11 1.25072e-11 1.23329e-11 1.25255e-11 1.24081e-11 1.25622e-11 1.24815e-11
          1.26136e-11 1.25585e-11 1.26814e-11 1.26447e-11 1.27658e-11 1.27401e-11 1.28667e-11 1.28502e-11 1.29896e-11 1.29786e-11 1.33547e-11 1.33492e-11
          1.38593e-11 1.38575e-11 1.45457e-11 1.45438e-11 1.54562e-11 1.54543e-11 1.66279e-11 1.66279e-11 1.80855e-11 1.80873e-11 1.98288e-11 1.98288e-11
          2.18486e-11 2.18486e-11 2.31541e-11 2.31541e-11 2.47431e-11 2.47431e-11 2.6823e-11 2.6823e-11 2.98126e-11 2.98126e-11 3.46627e-11 3.46627e-11
          4.40423e-11 4.40423e-11 6.9754e-11 6.97539e-11 6.32454e-10 6.32454e-10
        </DataArray>
        <DataArray type="Float32" Name="X_lOH" NumberOfComponents="1" format="ascii">
          1.12218e-05 1.14626e-05 1.08176e-05 1.10893e-05 1.16163e-05 1.18888e-05 1.19653e-05 1.2253e-05 1.22597e-05 1.25565e-05 1.2516e-05 1.28163e-05
          1.2723e-05 1.30164e-05 1.2881e-05 1.31643e-05 1.30012e-05 1.3268e-05 1.30889e-05 1.32739e-05 1.30697e-05 1.31934e-05 1.30315e-05 1.31158e-05
          1.29784e-05 1.30353e-05 1.29089e-05 1.29463e-05 1.28235e-05 1.28493e-05 1.27229e-05 1.27392e-05 1.26024e-05 1.26131e-05 1.22577e-05 1.22628e-05
          1.18113e-05 1.18129e-05 1.12541e-05 1.12555e-05 1.05915e-05 1.05928e-05 9.84626e-06 9.84626e-06 9.05498e-06 9.05406e-06 8.26319e-06 8.26319e-06
          7.50707e-06 7.50707e-06 7.09024e-06 7.09024e-06 6.64343e-06 6.64343e-06 6.13929e-06 6.13929e-06 5.53753e-06 5.53753e-06 4.77938e-06 4.77938e-06
          3.77984e-06 3.77984e-06 2.4027e-06 2.40271e-06 2.67481e-07 2.67481e-07
        </DataArray>
        <DataArray type="Float32" Name="X_gBrine" NumberOfComponents="1" format="ascii">
          0.0111185 0.0111182 0.0111036 0.0110932 0.0111293 0.0111289 0.0111393 0.0111393 0.0111488 0.011149 0.0111576 0.0111577
          0.0111659 0.0111662 0.0111739 0.0111741 0.0111815 0.0111816 0.0112032 0.0112032 0.011224 0.011224 0.0112448 0.0112448
          0.0112656 0.0112656 0.0112865 0.0112865 0.0113074 0.0113074 0.0113284 0.0113284 0.0113495 0.0113495 0.0114075 0.0114075
          0.0114661 0.0114661 0.0115253 0.0115253 0.0115851 0.0115851 0.0116455 0.0116455 0.0117065 0.0117065 0.0117682 0.0117682
          0.0118305 0.0118305 0.0118597 0.0118597 0.011889 0.011889 0.0119185 0.0119185 0.0119482 0.0119482 0.0119781 0.0119781
          0.0120083 0.0120083 0.0120389 0.0120389 0.0120698 0.0120698
        </DataArray>
        <DataArray type="Float32" Name="X_gTotalC" NumberOfComponents="1" format="ascii">
          0.988881 0.988882 0.988896 0.988907 0.988871 0.988871 0.988861 0.988861 0.988851 0.988851 0.988842 0.988842
          0.988834 0.988834 0.988826 0.988826 0.988818 0.988818 0.988797 0.988797 0.988776 0.988776 0.988755 0.988755
          0.988734 0.988734 0.988714 0.988714 0.988693 0.988693 0.988672 0.988672 0.988651 0.988651 0.988592 0.988592
          0.988534 0.988534 0.988475 0.988475 0.988415 0.988415 0.988355 0.988355 0.988293 0.988293 0.988232 0.988232
          0.988169 0.988169 0.98814 0.98814 0.988111 0.988111 0.988082 0.988082 0.988052 0.988052 0.988022 0.988022
          0.987992 0.987992 0.987961 0.987961 0.98793 0.98793
        </DataArray>
        <DataArray type="Float32" Name="X_gNa" NumberOfComponents="1" format="ascii">
          0 0 0 0 0 0 0 0 0 0 0 0
          0 0 0 0 0 0 0 0 0 0 0 0
          0 0 0 0 0 0 0 0 0 0 0 0
          0 0 0 0 0 0 0 0 0 0 0 0
          0 0 0 0 0 0 0 0 0 0 0 0
          0 0 0 0 0 0
        </DataArray>
        <DataArray type="Float32" Name="X_gCl" NumberOfComponents="1" format="ascii">
          0 0 0 0 0 0 0 0 0 0 0 0
          0 0 0 0 0 0 0 0 0 0 0 0
          0 0 0 0 0 0 0 0 0 0 0 0
          0 0 0 0 0 0 0 0 0 0 0 0
          0 0 0 0 0 0 0 0 0 0 0 0
          0 0 0 0 0 0
        </DataArray>
        <DataArray type="Float32" Name="X_gCa" NumberOfComponents="1" format="ascii">
          0 0 0 0 0 0 0 0 0 0 0 0
          0 0 0 0 0 0 0 0 0 0 0 0
          0 0 0 0 0 0 0 0 0 0 0 0
          0 0 0 0 0 0 0 0 0 0 0 0
          0 0 0 0 0 0 0 0 0 0 0 0
          0 0 0 0 0 0
        </DataArray>
        <DataArray type="Float32" Name="X_gUrea" NumberOfComponents="1" format="ascii">
          0 0 0 0 0 0 0 0 0 0 0 0
          0 0 0 0 0 0 0 0 0 0 0 0
          0 0 0 0 0 0 0 0 0 0 0 0
          0 0 0 0 0 0 0 0 0 0 0 0
          0 0 0 0 0 0 0 0 0 0 0 0
          0 0 0 0 0 0
        </DataArray>
        <DataArray type="Float32" Name="X_gTotalNH" NumberOfComponents="1" format="ascii">
          0 0 0 0 0 0 0 0 0 0 0 0
          0 0 0 0 0 0 0 0 0 0 0 0
          0 0 0 0 0 0 0 0 0 0 0 0
          0 0 0 0 0 0 0 0 0 0 0 0
          0 0 0 0 0 0 0 0 0 0 0 0
          0 0 0 0 0 0
        </DataArray>
        <DataArray type="Float32" Name="X_gO2" NumberOfComponents="1" format="ascii">
          0 0 0 0 0 0 0 0 0 0 0 0
          0 0 0 0 0 0 0 0 0 0 0 0
          0 0 0 0 0 0 0 0 0 0 0 0
          0 0 0 0 0 0 0 0 0 0 0 0
          0 0 0 0 0 0 0 0 0 0 0 0
          0 0 0 0 0 0
        </DataArray>
        <DataArray type="Float32" Name="X_gSubstrate" NumberOfComponents="1" format="ascii">
          0 0 0 0 0 0 0 0 0 0 0 0
          0 0 0 0 0 0 0 0 0 0 0 0
          0 0 0 0 0 0 0 0 0 0 0 0
          0 0 0 0 0 0 0 0 0 0 0 0
          0 0 0 0 0 0 0 0 0 0 0 0
          0 0 0 0 0 0
        </DataArray>
        <DataArray type="Float32" Name="X_gSuspended_Biomass" NumberOfComponents="1" format="ascii">
          0 0 0 0 0 0 0 0 0 0 0 0
          0 0 0 0 0 0 0 0 0 0 0 0
          0 0 0 0 0 0 0 0 0 0 0 0
          0 0 0 0 0 0 0 0 0 0 0 0
          0 0 0 0 0 0 0 0 0 0 0 0
          0 0 0 0 0 0
        </DataArray>
        <DataArray type="Float32" Name="X_gNH4" NumberOfComponents="1" format="ascii">
          0 0 0 0 0 0 0 0 0 0 0 0
          0 0 0 0 0 0 0 0 0 0 0 0
          0 0 0 0 0 0 0 0 0 0 0 0
          0 0 0 0 0 0 0 0 0 0 0 0
          0 0 0 0 0 0 0 0 0 0 0 0
          0 0 0 0 0 0
        </DataArray>
        <DataArray type="Float32" Name="X_gHCO3" NumberOfComponents="1" format="ascii">
          0 0 0 0 0 0 0 0 0 0 0 0
          0 0 0 0 0 0 0 0 0 0 0 0
          0 0 0 0 0 0 0 0 0 0 0 0
          0 0 0 0 0 0 0 0 0 0 0 0
          0 0 0 0 0 0 0 0 0 0 0 0
          0 0 0 0 0 0
        </DataArray>
        <DataArray type="Float32" Name="X_gCO3" NumberOfComponents="1" format="ascii">
          0 0 0 0 0 0 0 0 0 0 0 0
          0 0 0 0 0 0 0 0 0 0 0 0
          0 0 0 0 0 0 0 0 0 0 0 0
          0 0 0 0 0 0 0 0 0 0 0 0
          0 0 0 0 0 0 0 0 0 0 0 0
          0 0 0 0 0 0
        </DataArray>
        <DataArray type="Float32" Name="X_gCO2" NumberOfComponents="1" format="ascii">
          0.988881 0.988882 0.988896 0.988907 0.988871 0.988871 0.988861 0.988861 0.988851 0.988851 0.988842 0.988842
          0.988834 0.988834 0.988826 0.988826 0.988818 0.988818 0.988797 0.988797 0.988776 0.988776 0.988755 0.988755
          0.988734 0.988734 0.988714 0.988714 0.988693 0.988693 0.988672 0.988672 0.988651 0.988651 0.988592 0.988592
          0.988534 0.988534 0.988475 0.988475 0.988415 0.988415 0.988355 0.988355 0.988293 0.988293 0.988232 0.988232
          0.988169 0.988169 0.98814 0.98814 0.988111 0.988111 0.988082 0.988082 0.988052 0.988052 0.988022 0.988022
          0.987992 0.987992 0.987961 0.987961 0.98793 0.98793
        </DataArray>
        <DataArray type="Float32" Name="X_gH" NumberOfComponents="1" format="ascii">
          0 0 0 0 0 0 0 0 0 0 0 0
          0 0 0 0 0 0 0 0 0 0 0 0
          0 0 0 0 0 0 0 0 0 0 0 0
          0 0 0 0 0 0 0 0 0 0 0 0
          0 0 0 0 0 0 0 0 0 0 0 0
          0 0 0 0 0 0
        </DataArray>
        <DataArray type="Float32" Name="X_gOH" NumberOfComponents="1" format="ascii">
          0 0 0 0 0 0 0 0 0 0 0 0
          0 0 0 0 0 0 0 0 0 0 0 0
          0 0 0 0 0 0 0 0 0 0 0 0
          0 0 0 0 0 0 0 0 0 0 0 0
          0 0 0 0 0 0 0 0 0 0 0 0
          0 0 0 0 0 0
        </DataArray>
        <DataArray type="Float32" Name="Molarity_Brine" NumberOfComponents="1" format="ascii">
          53808.6 53808.6 53808.8 53808.7 53808.5 53808.4 53808.4 53808.3 53808.3 53808.3 53808.3 53808.2
          53808.2 53808.1 53808.2 53808.1 53808.2 53808.1 53808.2 53808.1 53808.3 53808.2 53808.4 53808.3
          53808.5 53808.5 53808.6 53808.6 53808.8 53808.8 53809.1 53809.1 53809.4 53809.4 53810.3 53810.3
          53811.9 53811.9 53814.6 53814.6 53819 53819 53826.6 53826.6 53839.8 53839.9 53863.3 53863.3
          53905.5 53905.5 53940.9 53940.9 53989.7 53989.7 54057.1 54057.1 54150.3 54150.3 54279.2 54279.2
          54457.8 54457.8 54705.4 54705.4 55049.2 55049.2
        </DataArray>
        <DataArray type="Float32" Name="Molarity_TotalC" NumberOfComponents="1" format="ascii">
          6.55168 6.70552 6.29433 6.46697 6.80449 6.97856 7.02765 7.21217 7.21738 7.4081 7.38182 7.57606
          7.51591 7.70585 7.61889 7.80252 7.69672 7.87005 7.75601 7.87638 7.7462 7.82707 7.72507 7.77958
          7.69411 7.73084 7.65379 7.67853 7.60405 7.62063 7.54437 7.5553 7.4739 7.48066 7.2699 7.27246
          7.00411 7.00508 6.67155 6.67191 6.27402 6.27413 5.82328 5.8233 5.34113 5.34108 4.85401 4.85398
          4.3817 4.38169 4.11783 4.11783 3.83244 3.83244 3.50854 3.50854 3.12127 3.12128 2.63622 2.63623
          2.00613 2.00614 1.16417 1.16417 0.0132254 0.0132254
        </DataArray>
        <DataArray type="Float32" Name="Molarity_Na" NumberOfComponents="1" format="ascii">
          0.160401 0.1604 0.160404 0.160403 0.160398 0.160397 0.160395 0.160394 0.160391 0.160391 0.160387 0.160387
          0.160383 0.160383 0.160378 0.160378 0.160373 0.160373 0.160356 0.160356 0.160335 0.160335 0.160309 0.160309
          0.160279 0.160279 0.160243 0.160243 0.160202 0.160202 0.160153 0.160153 0.160097 0.160097 0.159936 0.159936
          0.159729 0.159729 0.159473 0.159473 0.159167 0.159167 0.158824 0.158824 0.158468 0.158468 0.158148 0.158148
          0.157952 0.157952 0.157934 0.157934 0.158005 0.158005 0.158202 0.158202 0.15857 0.15857 0.159171 0.159171
          0.160084 0.160084 0.161415 0.161415 0.1633 0.1633
        </DataArray>
        <DataArray type="Float32" Name="Molarity_Cl" NumberOfComponents="1" format="ascii">
          182.16 182.162 182.15 182.153 182.172 182.173 182.185 182.186 182.199 182.2 182.216 182.216
          182.234 182.234 182.254 182.254 182.277 182.277 182.354 182.355 182.452 182.453 182.57 182.57
          182.708 182.708 182.871 182.871 183.062 183.062 183.284 183.284 183.544 183.544 184.283 184.283
          185.239 185.239 186.434 186.434 187.872 187.872 189.524 189.524 191.308 191.308 193.059 193.059
          194.49 194.49 195.032 195.032 195.344 195.344 195.332 195.332 194.88 194.88 193.84 193.84
          192.034 192.034 189.242 189.242 185.193 185.193
        </DataArray>
        <DataArray type="Float32" Name="Molarity_Ca" NumberOfComponents="1" format="ascii">
          0.0801641 0.0815706 0.0767473 0.0786495 0.0836901 0.0849973 0.0870533 0.0881406 0.0903454 0.0911927 0.0937585 0.0943583
          0.097284 0.0976408 0.101066 0.10126 0.105261 0.105325 0.119364 0.119468 0.137444 0.137553 0.159383 0.159465
          0.1855 0.185557 0.216373 0.216411 0.252661 0.252686 0.295109 0.295123 0.344563 0.344568 0.485393 0.485389
          0.667582 0.667574 0.897913 0.8979 1.18389 1.18386 1.53145 1.53142 1.93792 1.93784 2.37778 2.37775
          2.78154 2.78153 2.94956 2.94956 3.0592 3.05921 3.07675 3.07675 2.95989 2.95989 2.65802 2.65802
          2.11216 2.11216 1.25336 1.25337 0 0
        </DataArray>
        <DataArray type="Float32" Name="Molarity_Urea" NumberOfComponents="1" format="ascii">
          314.581 314.427 314.844 314.67 314.322 314.147 314.091 313.906 313.892 313.701 313.717 313.523
          313.572 313.381 313.456 313.272 313.364 313.19 313.257 313.136 313.205 313.124 313.153 313.098
          313.095 313.058 313.03 313.005 312.954 312.937 312.863 312.852 312.754 312.747 312.415 312.412
          311.894 311.893 311.079 311.078 309.773 309.773 307.629 307.629 304.017 304.017 297.799 297.799
          286.893 286.893 277.849 277.849 265.456 265.456 248.429 248.429 224.982 224.982 192.63 192.63
          147.909 147.909 85.9741 85.9741 0 0
        </DataArray>
        <DataArray type="Float32" Name="Molarity_TotalNH" NumberOfComponents="1" format="ascii">
          195.077 195.384 194.56 194.904 195.588 195.935 196.04 196.408 196.428 196.808 196.766 197.154
          197.045 197.425 197.264 197.631 197.434 197.781 197.602 197.843 197.644 197.806 197.675 197.785
          197.7 197.773 197.72 197.77 197.739 197.772 197.757 197.779 197.777 197.79 197.826 197.832
          197.886 197.888 197.955 197.956 198.026 198.026 198.082 198.082 198.089 198.089 197.986 197.986
          197.665 197.665 197.342 197.343 196.864 196.864 196.17 196.17 195.176 195.176 193.771 193.771
          191.796 191.796 189.037 189.037 185.193 185.193
        </DataArray>
        <DataArray type="Float32" Name="Molarity_O2" NumberOfComponents="1" format="ascii">
          0.209972 0.20919 0.211288 0.21041 0.208674 0.207789 0.207522 0.206584 0.206537 0.205566 0.205675 0.204686
          0.204964 0.203997 0.204408 0.203472 0.203974 0.203091 0.203546 0.202932 0.203438 0.203025 0.203357 0.203079
          0.203294 0.203106 0.20324 0.203113 0.203189 0.203104 0.203136 0.20308 0.203077 0.203042 0.202903 0.20289
          0.202629 0.202624 0.202179 0.202177 0.201423 0.201423 0.200134 0.200134 0.197898 0.197897 0.193963 0.193963
          0.186962 0.186962 0.181117 0.181117 0.173083 0.173083 0.162019 0.162019 0.146757 0.146757 0.125674 0.125674
          0.0965091 0.0965091 0.0561013 0.0561013 0 0
        </DataArray>
        <DataArray type="Float32" Name="Molarity_Substrate" NumberOfComponents="1" format="ascii">
          16.1943 16.1939 16.1948 16.1944 16.1937 16.1934 16.1932 16.1929 16.1928 16.1925 16.1925 16.1921
          16.1921 16.1918 16.1919 16.1915 16.1916 16.1913 16.1912 16.191 16.1908 16.1906 16.1903 16.1902
          16.1896 16.1895 16.1887 16.1887 16.1876 16.1875 16.186 16.186 16.184 16.184 16.1765 16.1765
          16.1624 16.1624 16.1361 16.1361 16.0875 16.0875 15.9981 15.9981 15.8342 15.8342 15.5345 15.5345
          14.9876 14.9876 14.5257 14.5257 13.8873 13.8873 13.0047 13.0047 11.7837 11.7837 10.0936 10.0936
          7.75285 7.75285 4.50735 4.50735 0 0
        </DataArray>
        <DataArray type="Float32" Name="Molarity_Suspended_Biomass" NumberOfComponents="1" format="ascii">
          0.000345225 0.000353967 0.000333932 0.000342985 0.000355279 0.000365188 0.000363578 0.000374074 0.000369963 0.000380539 0.0003751 0.000385572
          0.00037903 0.00038894 0.000381824 0.000391037 0.000383884 0.000392275 0.000385965 0.000391619 0.00038692 0.000390723 0.000387597 0.000390161
          0.000388084 0.000389813 0.000388448 0.000389612 0.000388735 0.000389515 0.000388976 0.00038949 0.000389195 0.000389513 0.000389605 0.000389727
          0.000389945 0.000389991 0.00039013 0.000390147 0.000389929 0.000389935 0.000388878 0.00038888 0.00038611 0.000386111 0.00038004 0.00038004
          0.000367784 0.000367784 0.000356993 0.000356993 0.000341792 0.000341792 0.000320483 0.000320483 0.000290718 0.000290718 0.000249251 0.000249251
          0.000191578 0.000191578 0.000111426 0.000111426 0 0
        </DataArray>
        <DataArray type="Float32" Name="Molarity_NH4" NumberOfComponents="1" format="ascii">
          188.21 188.363 187.949 188.121 188.469 188.642 188.699 188.883 188.897 189.088 189.071 189.266
          189.217 189.408 189.334 189.518 189.426 189.601 189.535 189.657 189.587 189.67 189.64 189.695
          189.695 189.732 189.757 189.782 189.825 189.842 189.903 189.915 189.994 190.001 190.248 190.25
          190.574 190.575 190.976 190.976 191.445 191.444 191.951 191.951 192.44 192.441 192.826 192.826
          192.978 192.978 192.92 192.92 192.728 192.728 192.359 192.359 191.753 191.753 190.835 190.835
          189.495 189.495 187.593 187.593 185.037 185.037
        </DataArray>
        <DataArray type="Float32" Name="Molarity_HCO3" NumberOfComponents="1" format="ascii">
          6.32574 6.47811 6.07084 6.24184 6.57611 6.74851 6.79714 6.97985 6.98501 7.17386 7.14787 7.34016
          7.28065 7.46867 7.38261 7.56437 7.45969 7.63125 7.51847 7.6376 7.50888 7.58891 7.48809 7.54205
          7.4576 7.49397 7.41787 7.44234 7.36882 7.38523 7.30996 7.32077 7.2404 7.2471 7.03901 7.04157
          6.77648 6.77744 6.44783 6.4482 6.05484 6.05498 5.60923 5.60925 5.13256 5.13249 4.65105 4.65102
          4.18425 4.18424 3.92343 3.92343 3.64128 3.64128 3.321 3.321 2.93806 2.93806 2.45872 2.45872
          1.83759 1.83759 1.01527 1.01527 0.00553194 0.00553194
        </DataArray>
        <DataArray type="Float32" Name="Molarity_CO3" NumberOfComponents="1" format="ascii">
          0.0210658 0.0220406 0.0194792 0.0205365 0.0226809 0.0238259 0.0241591 0.0254088 0.0254494 0.0267734 0.0265999 0.0279731
          0.0275557 0.0289204 0.0283033 0.0296386 0.0288821 0.0301531 0.0293617 0.030249 0.0293504 0.0299444 0.0292645 0.0296663
          0.0291186 0.0293891 0.0289119 0.0290916 0.028646 0.0287677 0.028321 0.0283994 0.0279242 0.0279737 0.0267475 0.0267682
          0.0251783 0.0251852 0.0232011 0.0232054 0.0208716 0.0208745 0.0183199 0.0183199 0.0157219 0.0157201 0.0132494 0.0132493
          0.0109983 0.0109982 0.00979704 0.00979704 0.00854786 0.00854786 0.00720182 0.00720183 0.00571437 0.00571438 0.0040724 0.0040724
          0.00234708 0.00234708 0.000787148 0.000787151 4.26535e-07 4.26535e-07
        </DataArray>
        <DataArray type="Float32" Name="Molarity_CO2" NumberOfComponents="1" format="ascii">
          0.204959 0.205465 0.204099 0.20468 0.205782 0.206318 0.206445 0.207002 0.207009 0.207568 0.207448 0.208028
          0.207811 0.208368 0.208081 0.208615 0.208251 0.208755 0.208285 0.208635 0.208076 0.208321 0.207818 0.207969
          0.207486 0.207587 0.207116 0.207197 0.206694 0.206737 0.206196 0.206236 0.20567 0.205686 0.204237 0.204227
          0.202545 0.202547 0.200611 0.200597 0.198384 0.198365 0.195811 0.195812 0.192917 0.192935 0.189775 0.189774
          0.186507 0.186507 0.184661 0.184661 0.182659 0.182659 0.180385 0.180386 0.177545 0.177545 0.173466 0.173466
          0.166228 0.166228 0.148131 0.148131 0.00769319 0.00769319
        </DataArray>
        <DataArray type="Float32" Name="Molarity_H" NumberOfComponents="1" format="ascii">
          1.44941e-05 1.41896e-05 1.50356e-05 1.46673e-05 1.40019e-05 1.3681e-05 1.35935e-05 1.32744e-05 1.32671e-05 1.29536e-05 1.29955e-05 1.2691e-05
          1.2784e-05 1.2496e-05 1.26272e-05 1.23556e-05 1.25105e-05 1.22589e-05 1.24267e-05 1.22535e-05 1.24449e-05 1.23283e-05 1.24814e-05 1.24012e-05
          1.25325e-05 1.24778e-05 1.26e-05 1.25635e-05 1.26839e-05 1.26584e-05 1.27842e-05 1.27678e-05 1.29064e-05 1.28955e-05 1.32694e-05 1.3264e-05
          1.37711e-05 1.37693e-05 1.44536e-05 1.44517e-05 1.53589e-05 1.53571e-05 1.6524e-05 1.6524e-05 1.79733e-05 1.79751e-05 1.97068e-05 1.97068e-05
          2.17151e-05 2.17151e-05 2.3013e-05 2.3013e-05 2.45924e-05 2.45924e-05 2.66596e-05 2.66596e-05 2.96305e-05 2.96305e-05 3.44496e-05 3.44496e-05
          4.37689e-05 4.37689e-05 6.93142e-05 6.93141e-05 0.000628379 0.000628379
        </DataArray>
        <DataArray type="Float32" Name="Molarity_OH" NumberOfComponents="1" format="ascii">
          0.000661077 0.000675263 0.000637266 0.000653269 0.000684321 0.000700373 0.000704883 0.000721827 0.000722224 0.00073971 0.000737323 0.000755015
          0.000749523 0.000766804 0.000758831 0.000775518 0.00076591 0.000781632 0.000771081 0.000781982 0.000769952 0.00077724 0.000767703 0.00077267
          0.000764577 0.000767929 0.000760485 0.000762693 0.000755458 0.000756982 0.000749535 0.000750498 0.000742443 0.000743073 0.00072215 0.000722448
          0.00069587 0.000695962 0.000663059 0.000663142 0.000624047 0.000624121 0.000580163 0.000580163 0.000533565 0.000533511 0.000486932 0.000486932
          0.000442394 0.000442394 0.000417836 0.000417836 0.000391508 0.000391508 0.000361797 0.000361797 0.000326329 0.000326329 0.000281641 0.000281641
          0.000222725 0.000222725 0.000141565 0.000141565 1.57575e-05 1.57575e-05
        </DataArray>
        <DataArray type="Float32" Name="Sum_charges" NumberOfComponents="1" format="ascii">
          0.00217867 0.00239915 0.00216285 0.0020363 0.0028661 0.00257991 0.00231711 0.00226174 0.00274451 0.00254364 0.0019447 0.00256877
          0.00208889 0.00260359 0.0024988 0.00298421 0.00206998 0.00267208 0.0023598 0.00287133 0.00217879 0.00288567 0.002447 0.00236077
          0.00202078 0.00191999 0.0022111 0.00265323 0.00254325 0.00238403 0.00205213 0.00237256 0.00265909 0.00250689 0.00273404 0.00206047
          0.00230106 0.00225735 0.00256177 0.00202563 0.00284541 0.00217283 0.00244794 0.00246222 0.00222222 0.00274243 0.00237035 0.00234035
          0.00239441 0.00238557 0.0024238 0.00242201 0.00238622 0.00238916 0.00247506 0.00248041 0.00245211 0.00245768 0.00251122 0.00251589
          0.00247377 0.00247733 0.0024893 0.0024893 0.00246913 0.00246913
        </DataArray>
        <DataArray type="Float32" Name="Vx" NumberOfComponents="1" format="ascii">
          2.39925e-05 1.83012e-05 3.84995e-05 2.77022e-05 5.46267e-06 4.92338e-06 1.33326e-06 1.1535e-06 -2.88611e-06 -2.59697e-06 -5.41961e-06 -4.90415e-06
          -6.92282e-06 -6.41446e-06 -6.84793e-06 -6.47772e-06 -5.59728e-06 -5.41217e-06 -3.66326e-06 -3.61338e-06 -1.11188e-06 -1.10966e-06 -1.71698e-07 -1.71637e-07
          -2.96951e-08 -2.969e-08 -1.07887e-08 -1.07877e-08 -5.93382e-09 -5.93352e-09 -3.16363e-09 -3.16354e-09 -1.62013e-09 -1.62011e-09 -5.74501e-10 -5.74499e-10
          7.21585e-11 7.21584e-11 -1.65824e-10 -1.65824e-10 -2.37983e-11 -2.37983e-11 2.83889e-10 2.83889e-10 -1.55779e-12 -1.55781e-12 -2.04586e-10 -2.04586e-10
          5.51479e-11 5.51479e-11 3.47539e-11 3.47539e-11 -1.3283e-10 -1.3283e-10 -5.81101e-11 -5.81102e-11 1.10934e-10 1.10934e-10 1.54234e-10 1.54235e-10
          3.47183e-11 3.47183e-11 -1.7697e-12 -1.7697e-12 -1.7094e-13 -1.7094e-13
        </DataArray>
        <DataArray type="Float32" Name="Vy" NumberOfComponents="1" format="ascii">
          0.000409492 0.000387764 0.000327759 0.00031605 0.000369538 0.000335397 0.000360835 0.00032391 0.000371876 0.000335779 0.000364012 0.000331125
          0.000361457 0.000333306 0.000361579 0.000338826 0.00034381 0.000330547 0.000364915 0.000359774 0.000352089 0.000350968 0.000348553 0.000348351
          0.0003484 0.000348338 0.000348354 0.000348323 0.000348328 0.000348311 0.000348304 0.000348294 0.000348324 0.000348321 0.000348323 0.000348322
          0.000348303 0.000348303 0.000348274 0.000348274 0.000348232 0.000348233 0.00034818 0.00034818 0.000348113 0.000348113 0.000348012 0.000348012
          0.000348068 0.000348068 0.000347777 0.000347777 0.000347606 0.000347606 0.000347372 0.000347373 0.000347037 0.000347038 0.000346555 0.000346556
          0.000345861 0.000345861 0.00034491 0.00034491 0.000344524 0.000344524
        </DataArray>
      </PointData>
      <CellData Scalars="process rank">
        <DataArray type="Float32" Name="process rank" NumberOfComponents="1" format="ascii">
          0 0 0 0 0 0 0 0 0 0 0 0
          0 0 0 0 0 0 0 0 0 0 0 0
          0 0 0 0 0 0 0 0
        </DataArray>
      </CellData>
      <Points>
        <DataArray type="Float32" Name="Coordinates" NumberOfComponents="3" format="ascii">
          0.0254 0.00625 0 0 0.00625 0 0.0254 0 0 0 0 0
          0.0254 0.0125 0 0 0.0125 0 0.0254 0.01875 0 0 0.01875 0
          0.0254 0.025 0 0 0.025 0 0.0254 0.03125 0 0 0.03125 0
          0.0254 0.0375 0 0 0.0375 0 0.0254 0.04375 0 0 0.04375 0
          0.0254 0.05 0 0 0.05 0 0.0254 0.06875 0 0 0.06875 0
          0.0254 0.0875 0 0 0.0875 0 0.0254 0.10625 0 0 0.10625 0
          0.0254 0.125 0 0 0.125 0 0.0254 0.14375 0 0 0.14375 0
          0.0254 0.1625 0 0 0.1625 0 0.0254 0.18125 0 0 0.18125 0
          0.0254 0.2 0 0 0.2 0 0.0254 0.25125 0 0 0.25125 0
          0.0254 0.3025 0 0 0.3025 0 0.0254 0.35375 0 0 0.35375 0
          0.0254 0.405 0 0 0.405 0 0.0254 0.45625 0 0 0.45625 0
          0.0254 0.5075 0 0 0.5075 0 0.0254 0.55875 0 0 0.55875 0
          0.0254 0.61 0 0 0.61 0 0.0254 0.63375 0 0 0.63375 0
          0.0254 0.6575 0 0 0.6575 0 0.0254 0.68125 0 0 0.68125 0
          0.0254 0.705 0 0 0.705 0 0.0254 0.72875 0 0 0.72875 0
          0.0254 0.7525 0 0 0.7525 0 0.0254 0.77625 0 0 0.77625 0
          0.0254 0.8 0 0 0.8 0
        </DataArray>
      </Points>
      <Cells>
        <DataArray type="Int32" Name="connectivity" NumberOfComponents="1" format="ascii">
          0 1 3 2 4 5 1 0 6 7 5 4
          8 9 7 6 10 11 9 8 12 13 11 10
          14 15 13 12 16 17 15 14 18 19 17 16
          20 21 19 18 22 23 21 20 24 25 23 22
          26 27 25 24 28 29 27 26 30 31 29 28
          32 33 31 30 34 35 33 32 36 37 35 34
          38 39 37 36 40 41 39 38 42 43 41 40
          44 45 43 42 46 47 45 44 48 49 47 46
          50 51 49 48 52 53 51 50 54 55 53 52
          56 57 55 54 58 59 57 56 60 61 59 58
          62 63 61 60 64 65 63 62
        </DataArray>
        <DataArray type="Int32" Name="offsets" NumberOfComponents="1" format="ascii">
          4 8 12 16 20 24 28 32 36 40 44 48
          52 56 60 64 68 72 76 80 84 88 92 96
          100 104 108 112 116 120 124 128
        </DataArray>
        <DataArray type="UInt8" Name="types" NumberOfComponents="1" format="ascii">
          9 9 9 9 9 9 9 9 9 9 9 9
          9 9 9 9 9 9 9 9 9 9 9 9
          9 9 9 9 9 9 9 9
        </DataArray>
      </Cells>
    </Piece>
  </UnstructuredGrid>
</VTKFile>
