<?xml version="1.0"?>
<VTKFile type="UnstructuredGrid" version="0.1" byte_order="LittleEndian">
  <UnstructuredGrid>
    <Piece NumberOfCells="32" NumberOfPoints="66">
      <PointData Scalars="Sg">
        <DataArray type="Float32" Name="Sg" NumberOfComponents="1" format="ascii">
          0 0 0 0 0 0 0 0 0 0 0 0
          0 0 0 0 0 0 0 0 0 0 0 0
          0 0 0 0 0 0 0 0 0 0 0 0
          0 0 0 0 0 0 0 0 0 0 0 0
          0 0 0 0 0 0 0 0 0 0 0 0
          0 0 0 0 0 0
        </DataArray>
        <DataArray type="Float32" Name="Sl" NumberOfComponents="1" format="ascii">
          1 1 1 1 1 1 1 1 1 1 1 1
          1 1 1 1 1 1 1 1 1 1 1 1
          1 1 1 1 1 1 1 1 1 1 1 1
          1 1 1 1 1 1 1 1 1 1 1 1
          1 1 1 1 1 1 1 1 1 1 1 1
          1 1 1 1 1 1
        </DataArray>
        <DataArray type="Float32" Name="pg" NumberOfComponents="1" format="ascii">
          117578 117578 117640 117640 117515 117515 117453 117453 117391 117391 117328 117328
          117266 117266 117203 117203 117141 117141 116954 116954 116766 116766 116579 116579
          116392 116392 116205 116205 116017 116017 115830 115830 115643 115643 115131 115131
          114619 114619 114107 114107 113595 113595 113084 113084 112572 112572 112060 112060
          111549 111549 111313 111313 111076 111076 110840 110840 110605 110605 110369 110369
          110135 110135 109900 109900 109667 109667
        </DataArray>
        <DataArray type="Float32" Name="pl" NumberOfComponents="1" format="ascii">
          107911 107911 107974 107974 107849 107849 107786 107786 107724 107724 107662 107662
          107599 107599 107537 107537 107474 107474 107287 107287 107100 107100 106912 106912
          106725 106725 106538 106538 106351 106351 106163 106163 105976 105976 105464 105464
          104952 104952 104440 104440 103929 103929 103417 103417 102905 102905 102394 102394
          101883 101883 101646 101646 101410 101410 101174 101174 100938 100938 100703 100703
          100468 100468 100234 100234 100000 100000
        </DataArray>
        <DataArray type="Float32" Name="pc" NumberOfComponents="1" format="ascii">
          9666.67 9666.67 9666.67 9666.67 9666.67 9666.67 9666.67 9666.67 9666.67 9666.67 9666.67 9666.67
          9666.67 9666.67 9666.67 9666.67 9666.67 9666.67 9666.67 9666.67 9666.67 9666.67 9666.67 9666.67
          9666.67 9666.67 9666.67 9666.67 9666.67 9666.67 9666.67 9666.67 9666.67 9666.67 9666.67 9666.67
          9666.67 9666.67 9666.67 9666.67 9666.67 9666.67 9666.67 9666.67 9666.67 9666.67 9666.67 9666.67
          9666.67 9666.67 9666.67 9666.67 9666.67 9666.67 9666.67 9666.67 9666.67 9666.67 9666.67 9666.67
          9666.67 9666.67 9666.67 9666.67 9666.67 9666.67
        </DataArray>
        <DataArray type="Float32" Name="rhoL" NumberOfComponents="1" format="ascii">
          1018.16 1018.16 1018.16 1018.16 1018.16 1018.16 1018.16 1018.16 1018.16 1018.16 1018.16 1018.16
          1018.16 1018.16 1018.16 1018.16 1018.16 1018.16 1018.16 1018.16 1018.16 1018.16 1018.16 1018.16
          1018.16 1018.16 1018.16 1018.16 1018.15 1018.15 1018.15 1018.15 1018.15 1018.15 1018.13 1018.13
          1018.11 1018.11 1018.06 1018.06 1017.98 1017.98 1017.82 1017.82 1017.52 1017.52 1016.96 1016.96
          1015.87 1015.87 1015.04 1015.04 1013.97 1013.97 1012.61 1012.61 1010.92 1010.92 1008.93 1008.93
          1006.64 1006.64 1004.13 1004.13 1001.45 1001.45
        </DataArray>
        <DataArray type="Float32" Name="rhoG" NumberOfComponents="1" format="ascii">
          2.06848 2.06848 2.06961 2.06961 2.06735 2.06735 2.06622 2.06622 2.06509 2.06509 2.06395 2.06395
          2.06282 2.06282 2.06169 2.06169 2.06056 2.06056 2.05717 2.05717 2.05378 2.05378 2.05038 2.05038
          2.04699 2.04699 2.0436 2.0436 2.04021 2.04021 2.03681 2.03681 2.03342 2.03342 2.02415 2.02415
          2.01488 2.01488 2.0056 2.0056 1.99633 1.99633 1.98706 1.98706 1.97778 1.97778 1.96851 1.96851
          1.95923 1.95923 1.95494 1.95494 1.95064 1.95064 1.94634 1.94634 1.94204 1.94204 1.93775 1.93775
          1.93346 1.93346 1.92917 1.92917 1.9249 1.9249
        </DataArray>
        <DataArray type="Float32" Name="mobL" NumberOfComponents="1" format="ascii">
          1032.21 1032.21 1032.21 1032.21 1032.21 1032.21 1032.21 1032.21 1032.21 1032.21 1032.21 1032.21
          1032.21 1032.21 1032.21 1032.21 1032.21 1032.21 1032.21 1032.21 1032.22 1032.22 1032.22 1032.22
          1032.22 1032.22 1032.23 1032.23 1032.24 1032.24 1032.25 1032.25 1032.26 1032.26 1032.3 1032.3
          1032.38 1032.38 1032.54 1032.54 1032.81 1032.81 1033.33 1033.33 1034.3 1034.3 1036.18 1036.18
          1039.86 1039.86 1042.73 1042.74 1046.56 1046.56 1051.58 1051.58 1058.07 1058.07 1066.22 1066.22
          1076.28 1076.28 1088.4 1088.4 1103.12 1103.12
        </DataArray>
        <DataArray type="Float32" Name="mobG" NumberOfComponents="1" format="ascii">
          0 0 0 0 0 0 0 0 0 0 0 0
          0 0 0 0 0 0 0 0 0 0 0 0
          0 0 0 0 0 0 0 0 0 0 0 0
          0 0 0 0 0 0 0 0 0 0 0 0
          0 0 0 0 0 0 0 0 0 0 0 0
          0 0 0 0 0 0
        </DataArray>
        <DataArray type="Float32" Name="porosity" NumberOfComponents="1" format="ascii">
          0.393699 0.3937 0.393527 0.393523 0.393796 0.393797 0.393864 0.393864 0.393919 0.393919 0.393967 0.393968
          0.394012 0.394013 0.394055 0.394056 0.394091 0.394091 0.394203 0.394203 0.394288 0.394288 0.394358 0.394358
          0.394416 0.394416 0.394465 0.394465 0.394507 0.394507 0.394544 0.394545 0.394584 0.394584 0.394668 0.394668
          0.394737 0.394737 0.394795 0.394795 0.394847 0.394847 0.394904 0.394904 0.394979 0.394979 0.395104 0.395104
          0.395301 0.395301 0.395479 0.395479 0.395712 0.395711 0.396036 0.396036 0.396497 0.396497 0.397163 0.397163
          0.3981 0.398099 0.39929 0.39929 0.399999 0.399999
        </DataArray>
        <DataArray type="Float32" Name="temperature" NumberOfComponents="1" format="ascii">
          298.15 298.15 298.15 298.15 298.15 298.15 298.15 298.15 298.15 298.15 298.15 298.15
          298.15 298.15 298.15 298.15 298.15 298.15 298.15 298.15 298.15 298.15 298.15 298.15
          298.15 298.15 298.15 298.15 298.15 298.15 298.15 298.15 298.15 298.15 298.15 298.15
          298.15 298.15 298.15 298.15 298.15 298.15 298.15 298.15 298.15 298.15 298.15 298.15
          298.15 298.15 298.15 298.15 298.15 298.15 298.15 298.15 298.15 298.15 298.15 298.15
          298.15 298.15 298.15 298.15 298.15 298.15
        </DataArray>
        <DataArray type="Float32" Name="phase presence" NumberOfComponents="1" format="ascii">
          1 1 1 1 1 1 1 1 1 1 1 1
          1 1 1 1 1 1 1 1 1 1 1 1
          1 1 1 1 1 1 1 1 1 1 1 1
          1 1 1 1 1 1 1 1 1 1 1 1
          1 1 1 1 1 1 1 1 1 1 1 1
          1 1 1 1 1 1
        </DataArray>
        <DataArray type="Float32" Name="potential" NumberOfComponents="1" format="ascii">
          -0.00168995 -0.00168995 -0.00168998 -0.00168998 -0.00168991 -0.00168991 -0.00168984 -0.00168984 -0.00168977 -0.00168977 -0.00168967 -0.00168967
          -0.00168956 -0.00168956 -0.00168944 -0.00168944 -0.0016893 -0.0016893 -0.00168882 -0.00168882 -0.00168821 -0.00168821 -0.00168744 -0.00168744
          -0.00168648 -0.00168648 -0.0016853 -0.0016853 -0.00168387 -0.00168387 -0.00168212 -0.00168212 -0.00168002 -0.00168002 -0.00167221 -0.00167221
          -0.0016592 -0.0016592 -0.00163778 -0.00163778 -0.00160277 -0.00160276 -0.00154589 -0.0015459 -0.00145387 -0.00145389 -0.00130624 -0.00130622
          -0.00107714 -0.00107716 -0.000932847 -0.000932813 -0.000770128 -0.000770127 -0.000595569 -0.00059557 -0.000418392 -0.000418382 -0.000254696 -0.00025471
          -0.000120342 -0.000120351 -3.17944e-05 -3.17924e-05 0 0
        </DataArray>
        <DataArray type="Float32" Name="boxVolume" NumberOfComponents="1" format="ascii">
          7.9375e-05 7.9375e-05 3.96875e-05 3.96875e-05 7.9375e-05 7.9375e-05 7.9375e-05 7.9375e-05 7.9375e-05 7.9375e-05 7.9375e-05 7.9375e-05
          7.9375e-05 7.9375e-05 7.9375e-05 7.9375e-05 0.00015875 0.00015875 0.000238125 0.000238125 0.000238125 0.000238125 0.000238125 0.000238125
          0.000238125 0.000238125 0.000238125 0.000238125 0.000238125 0.000238125 0.000238125 0.000238125 0.0004445 0.0004445 0.000650875 0.000650875
          0.000650875 0.000650875 0.000650875 0.000650875 0.000650875 0.000650875 0.000650875 0.000650875 0.000650875 0.000650875 0.000650875 0.000650875
          0.00047625 0.00047625 0.000301625 0.000301625 0.000301625 0.000301625 0.000301625 0.000301625 0.000301625 0.000301625 0.000301625 0.000301625
          0.000301625 0.000301625 0.000301625 0.000301625 0.000150812 0.000150812
        </DataArray>
        <DataArray type="Float32" Name="pH" NumberOfComponents="1" format="ascii">
          6.70793 6.70793 6.70793 6.70793 6.70795 6.70795 6.70798 6.70798 6.70801 6.70801 6.70806 6.70806
          6.70812 6.70812 6.70819 6.70819 6.70827 6.70827 6.70852 6.70852 6.70885 6.70885 6.70924 6.70924
          6.70969 6.70969 6.7102 6.7102 6.71077 6.71077 6.7114 6.7114 6.71209 6.71209 6.71425 6.71425
          6.71699 6.71699 6.72043 6.72043 6.72482 6.72482 6.73078 6.73078 6.73973 6.73973 6.75481 6.75481
          6.78261 6.7826 6.80384 6.80385 6.83178 6.83178 6.86778 6.86778 6.91372 6.91372 6.97023 6.97022
          7.03367 7.03367 7.08908 7.08912 6.19963 6.19963
        </DataArray>
        <DataArray type="Float32" Name="Omega" NumberOfComponents="1" format="ascii">
          0 0 0 0 0 0 0 0 0 0 0 0
          0 0 0 0 0 0 0 0 0 0 0 0
          0 0 0 0 0 0 0 0 0 0 0 0
          0 0 0 0 0 0 0 0 0 0 0 0
          0 0 0 0 0 0 0 0 0 0 0 0
          0 0 0 0 0 0
        </DataArray>
        <DataArray type="Float32" Name="Attachment_rate" NumberOfComponents="1" format="ascii">
          0 0 0 0 0 0 0 0 0 0 0 0
          0 0 0 0 0 0 0 0 0 0 0 0
          0 0 0 0 0 0 0 0 0 0 0 0
          0 0 0 0 0 0 0 0 0 0 0 0
          0 0 0 0 0 0 0 0 0 0 0 0
          0 0 0 0 0 0
        </DataArray>
        <DataArray type="Float32" Name="Detachment_rate" NumberOfComponents="1" format="ascii">
          -1.02488e-12 -1.02593e-12 -9.93352e-13 -9.85153e-13 -9.23621e-13 -9.28025e-13 -1.26366e-12 -1.24478e-12 -1.21255e-13 -1.26742e-13 -1.48044e-12 -1.4574e-12
          -2.32862e-13 -2.56607e-13 -3.05179e-14 -3.02319e-14 -1.23949e-12 -1.24135e-12 -2.28228e-13 -2.27075e-13 7.11608e-14 7.11701e-14 2.00779e-13 2.00784e-13
          2.72249e-13 2.72251e-13 3.15201e-13 3.15195e-13 3.42843e-13 3.42841e-13 3.6376e-13 3.63772e-13 3.79644e-13 3.79637e-13 1.24976e-12 1.24971e-12
          1.50371e-12 1.50376e-12 1.87917e-12 1.87911e-12 2.42865e-12 2.4288e-12 3.22631e-12 3.22631e-12 4.37524e-12 4.37494e-12 5.95881e-12 5.95895e-12
          8.38323e-12 8.38348e-12 4.29585e-12 4.29624e-12 4.69306e-12 4.69358e-12 4.94083e-12 4.94095e-12 4.9607e-12 4.96096e-12 4.58438e-12 4.58438e-12
          3.74064e-12 3.74055e-12 2.3652e-12 2.36531e-12 0 0
        </DataArray>
        <DataArray type="Float32" Name="Growth_rate" NumberOfComponents="1" format="ascii">
          -3.07442e-10 -3.07823e-10 -2.74435e-10 -2.72166e-10 -2.91748e-10 -2.93129e-10 -4.12555e-10 -4.06719e-10 -5.6523e-11 -5.83394e-11 -5.25444e-10 -5.17688e-10
          -1.03054e-10 -1.11583e-10 -3.2879e-11 -3.27756e-11 -5.06952e-10 -5.07736e-10 -2.27698e-10 -2.27191e-10 -1.15543e-10 -1.15541e-10 -6.4391e-11 -6.43962e-11
          -3.47462e-11 -3.47464e-11 -1.71847e-11 -1.71843e-11 -7.76541e-12 -7.76583e-12 -3.18381e-12 -3.18332e-12 -1.04689e-12 -1.04696e-12 -1.13126e-13 -1.13156e-13
          -1.09604e-14 -1.09555e-14 -9.84619e-16 -9.85102e-16 -8.46231e-17 -8.45958e-17 -7.86563e-18 -7.86044e-18 -1.04787e-18 -1.05163e-18 -2.0702e-19 -2.04747e-19
          -4.88181e-20 -5.00371e-20 -2.16092e-20 -2.10651e-20 -7.42791e-21 -7.76922e-21 -2.86187e-21 -2.91765e-21 -9.51574e-22 -9.4551e-22 -2.92517e-22 -2.92256e-22
          -7.71095e-23 -7.72794e-23 -1.41971e-23 -1.41896e-23 0 0
        </DataArray>
        <DataArray type="Float32" Name="Decay_rate" NumberOfComponents="1" format="ascii">
          3.0114e-09 3.0106e-09 3.13979e-09 3.1398e-09 2.88229e-09 2.88179e-09 2.75972e-09 2.75905e-09 2.64333e-09 2.64285e-09 2.53287e-09 2.5322e-09
          2.42804e-09 2.42702e-09 2.32774e-09 2.32698e-09 2.22388e-09 2.22363e-09 1.97023e-09 1.97023e-09 1.75073e-09 1.75084e-09 1.56249e-09 1.5626e-09
          1.40101e-09 1.40102e-09 1.2625e-09 1.26247e-09 1.1437e-09 1.14369e-09 1.04177e-09 1.04178e-09 9.45488e-10 9.45474e-10 7.69872e-10 7.69859e-10
          6.51608e-10 6.51609e-10 5.73546e-10 5.73544e-10 5.21144e-10 5.21152e-10 4.84336e-10 4.84331e-10 4.55397e-10 4.55398e-10 4.25672e-10 4.2568e-10
          4.10143e-10 4.10157e-10 3.84327e-10 3.84332e-10 3.60567e-10 3.60571e-10 3.30889e-10 3.30891e-10 2.93308e-10 2.93317e-10 2.45421e-10 2.45429e-10
          1.84797e-10 1.84806e-10 1.10679e-10 1.10686e-10 1.49212e-12 1.49212e-12
        </DataArray>
        <DataArray type="Float32" Name="Volume_Fraction_Biofilm" NumberOfComponents="1" format="ascii">
          0.00137114 0.00137077 0.0014296 0.0014296 0.00131235 0.00131213 0.00125654 0.00125624 0.00120355 0.00120333 0.00115326 0.00115295
          0.00110553 0.00110506 0.00105986 0.00105951 0.00101257 0.00101246 0.000897075 0.000897078 0.000797135 0.000797185 0.000711428 0.000711476
          0.000637903 0.000637909 0.000574837 0.000574824 0.000520744 0.000520741 0.000474335 0.00047434 0.000430495 0.000430489 0.000350534 0.000350528
          0.000296687 0.000296687 0.000261144 0.000261143 0.000237284 0.000237288 0.000220524 0.000220522 0.000207347 0.000207348 0.000193812 0.000193816
          0.00018674 0.000186747 0.000174985 0.000174987 0.000164165 0.000164167 0.000150651 0.000150652 0.00013354 0.000133544 0.000111738 0.000111742
          8.41398e-05 8.41443e-05 5.0394e-05 5.03974e-05 6.79386e-07 6.79386e-07
        </DataArray>
        <DataArray type="Float32" Name="Volume_Fraction_Calcite" NumberOfComponents="1" format="ascii">
          0.00492995 0.00492953 0.00504301 0.00504716 0.00489151 0.00489124 0.00487973 0.00488015 0.00487776 0.0048778 0.00487949 0.00487929
          0.00488231 0.00488217 0.00488493 0.00488498 0.0048966 0.00489665 0.0049004 0.00490035 0.00491489 0.00491477 0.00493016 0.00493023
          0.00494614 0.00494595 0.00496026 0.00496011 0.00497192 0.00497202 0.00498128 0.00498087 0.00498533 0.00498578 0.00498143 0.00498127
          0.00496585 0.00496594 0.00494413 0.00494412 0.0049158 0.00491588 0.00487587 0.00487584 0.00481355 0.00481358 0.00470218 0.00470232
          0.00451225 0.00451222 0.00434609 0.00434613 0.00412433 0.00412454 0.00381334 0.00381319 0.00336904 0.00336904 0.00272495 0.0027257
          0.00181627 0.00181655 0.000659997 0.000660062 0 0
        </DataArray>
        <DataArray type="Float32" Name="Kxx" NumberOfComponents="1" format="ascii">
          1.90696e-10 1.90698e-10 1.90447e-10 1.90441e-10 1.90838e-10 1.90839e-10 1.90936e-10 1.90936e-10 1.91016e-10 1.91016e-10 1.91087e-10 1.91087e-10
          1.91152e-10 1.91153e-10 1.91215e-10 1.91215e-10 1.91267e-10 1.91267e-10 1.91429e-10 1.91429e-10 1.91554e-10 1.91554e-10 1.91656e-10 1.91656e-10
          1.9174e-10 1.91741e-10 1.91812e-10 1.91812e-10 1.91874e-10 1.91873e-10 1.91928e-10 1.91928e-10 1.91986e-10 1.91985e-10 1.92108e-10 1.92108e-10
          1.9221e-10 1.92209e-10 1.92293e-10 1.92293e-10 1.9237e-10 1.92369e-10 1.92452e-10 1.92452e-10 1.92563e-10 1.92563e-10 1.92746e-10 1.92745e-10
          1.93034e-10 1.93034e-10 1.93295e-10 1.93295e-10 1.93636e-10 1.93636e-10 1.94113e-10 1.94113e-10 1.94792e-10 1.94792e-10 1.95775e-10 1.95774e-10
          1.97163e-10 1.97162e-10 1.98936e-10 1.98936e-10 1.99999e-10 1.99999e-10
        </DataArray>
        <DataArray type="Float32" Name="X_lBrine" NumberOfComponents="1" format="ascii">
          0.951386 0.951386 0.951386 0.951386 0.951386 0.951386 0.951386 0.951386 0.951386 0.951386 0.951386 0.951386
          0.951387 0.951387 0.951387 0.951387 0.951387 0.951387 0.951389 0.951389 0.95139 0.95139 0.951393 0.951393
          0.951396 0.951396 0.9514 0.9514 0.951405 0.951405 0.951411 0.951411 0.951419 0.951419 0.95145 0.95145
          0.951508 0.951508 0.951614 0.951614 0.951809 0.951809 0.95217 0.95217 0.95285 0.95285 0.954151 0.954151
          0.956653 0.956652 0.958561 0.958562 0.961045 0.961045 0.964196 0.964196 0.968106 0.968107 0.972753 0.972752
          0.978094 0.978093 0.983963 0.983963 0.99029 0.99029
        </DataArray>
        <DataArray type="Float32" Name="X_lTotalC" NumberOfComponents="1" format="ascii">
          7.25167e-05 7.25167e-05 7.25157e-05 7.25157e-05 7.25198e-05 7.25198e-05 7.25249e-05 7.25249e-05 7.2532e-05 7.2532e-05 7.25409e-05 7.25409e-05
          7.25516e-05 7.25516e-05 7.25641e-05 7.25641e-05 7.25784e-05 7.25784e-05 7.26258e-05 7.26258e-05 7.26854e-05 7.26854e-05 7.27563e-05 7.27563e-05
          7.2838e-05 7.2838e-05 7.29301e-05 7.29301e-05 7.30322e-05 7.30322e-05 7.31441e-05 7.31441e-05 7.32654e-05 7.32654e-05 7.36387e-05 7.36386e-05
          7.40879e-05 7.4088e-05 7.4609e-05 7.46089e-05 7.51937e-05 7.51938e-05 7.58501e-05 7.58501e-05 7.6635e-05 7.66349e-05 7.76934e-05 7.76936e-05
          7.93384e-05 7.93382e-05 8.0441e-05 8.04413e-05 8.16938e-05 8.16937e-05 8.29271e-05 8.2927e-05 8.38137e-05 8.38137e-05 8.35757e-05 8.35758e-05
          7.98997e-05 7.99003e-05 6.81269e-05 6.81334e-05 5.81077e-07 5.81077e-07
        </DataArray>
        <DataArray type="Float32" Name="X_lNa" NumberOfComponents="1" format="ascii">
          1.22217e-07 1.22217e-07 1.22214e-07 1.22214e-07 1.22224e-07 1.22224e-07 1.22237e-07 1.22237e-07 1.22254e-07 1.22254e-07 1.22276e-07 1.22276e-07
          1.22303e-07 1.22303e-07 1.22335e-07 1.22335e-07 1.22372e-07 1.22372e-07 1.22502e-07 1.22502e-07 1.22681e-07 1.22681e-07 1.22916e-07 1.22916e-07
          1.23219e-07 1.23219e-07 1.23604e-07 1.23604e-07 1.2409e-07 1.2409e-07 1.24698e-07 1.24698e-07 1.2546e-07 1.2546e-07 1.28457e-07 1.28457e-07
          1.33941e-07 1.33942e-07 1.43954e-07 1.43952e-07 1.62294e-07 1.623e-07 1.96215e-07 1.96211e-07 2.59946e-07 2.59932e-07 3.81879e-07 3.81897e-07
          6.1627e-07 6.16245e-07 7.9513e-07 7.95176e-07 1.02796e-06 1.02796e-06 1.32326e-06 1.32326e-06 1.68964e-06 1.68966e-06 2.12469e-06 2.12465e-06
          2.62378e-06 2.62374e-06 3.17009e-06 3.17011e-06 3.74881e-06 3.74881e-06
        </DataArray>
        <DataArray type="Float32" Name="X_lCl" NumberOfComponents="1" format="ascii">
          0.0306909 0.0306909 0.030691 0.030691 0.0306909 0.0306909 0.0306908 0.0306908 0.0306907 0.0306907 0.0306905 0.0306905
          0.0306904 0.0306904 0.0306901 0.0306901 0.0306899 0.0306899 0.030689 0.030689 0.0306878 0.0306878 0.0306863 0.0306863
          0.0306842 0.0306842 0.0306817 0.0306817 0.0306784 0.0306784 0.0306744 0.0306744 0.0306693 0.0306693 0.0306493 0.0306493
          0.0306128 0.0306128 0.0305461 0.0305461 0.030424 0.030424 0.0301982 0.0301982 0.0297739 0.029774 0.0289622 0.0289621
          0.027402 0.0274021 0.0262113 0.026211 0.0246614 0.0246614 0.0226956 0.0226957 0.0202567 0.0202566 0.0173608 0.0173611
          0.014039 0.0140392 0.0104036 0.0104034 0.00655617 0.00655617
        </DataArray>
        <DataArray type="Float32" Name="X_lCa" NumberOfComponents="1" format="ascii">
          0.000370386 0.000370386 0.000370385 0.000370385 0.000370388 0.000370388 0.000370392 0.000370392 0.000370397 0.000370397 0.000370403 0.000370403
          0.00037041 0.00037041 0.000370419 0.000370419 0.000370429 0.000370429 0.000370461 0.000370461 0.0003705 0.0003705 0.000370545 0.000370545
          0.000370594 0.000370594 0.000370646 0.000370646 0.000370698 0.000370698 0.000370748 0.000370748 0.000370795 0.000370795 0.000370884 0.000370884
          0.000370837 0.000370837 0.000370487 0.000370487 0.000369525 0.000369524 0.000367369 0.000367369 0.000362918 0.000362919 0.000354031 0.00035403
          0.000336763 0.000336765 0.000323819 0.000323816 0.000307107 0.000307107 0.000285982 0.000285983 0.000259411 0.000259409 0.000226037 0.000226041
          0.000181941 0.000181945 0.000121042 0.000121046 0 0
        </DataArray>
        <DataArray type="Float32" Name="X_lUrea" NumberOfComponents="1" format="ascii">
          -1.6426e-12 -1.6426e-12 -1.66212e-12 -1.66211e-12 -1.58536e-12 -1.58536e-12 -1.49346e-12 -1.49347e-12 -1.37149e-12 -1.37149e-12 -1.22523e-12 -1.2252e-12
          -1.06091e-12 -1.06092e-12 -8.85059e-13 -8.8506e-13 -7.04307e-13 -7.04307e-13 -2.34064e-13 -2.34064e-13 1.08408e-13 1.08402e-13 6.64557e-13 6.64528e-13
          2.63041e-12 2.6304e-12 9.32684e-12 9.32692e-12 3.00871e-11 3.00869e-11 8.87377e-11 8.87404e-11 2.40492e-10 2.40539e-10 1.67685e-09 1.67639e-09
          9.36523e-09 9.36784e-09 3.6888e-08 3.68801e-08 1.08308e-07 1.0833e-07 2.57828e-07 2.57814e-07 5.48827e-07 5.48757e-07 1.15631e-06 1.1564e-06
          2.57933e-06 2.57918e-06 4.22884e-06 4.22931e-06 6.83469e-06 6.83481e-06 1.07378e-05 1.07378e-05 1.5919e-05 1.59193e-05 2.10925e-05 2.1092e-05
          2.29247e-05 2.29256e-05 1.64921e-05 1.64931e-05 0 0
        </DataArray>
        <DataArray type="Float32" Name="X_lTotalNH" NumberOfComponents="1" format="ascii">
          0.0144842 0.0144842 0.0144843 0.0144843 0.0144842 0.0144842 0.0144842 0.0144842 0.0144841 0.0144841 0.0144841 0.0144841
          0.014484 0.014484 0.0144839 0.0144839 0.0144838 0.0144838 0.0144834 0.0144834 0.0144828 0.0144828 0.0144821 0.0144821
          0.0144811 0.0144811 0.0144799 0.0144799 0.0144784 0.0144784 0.0144765 0.0144765 0.0144741 0.0144741 0.0144647 0.0144647
          0.0144475 0.0144475 0.0144162 0.0144162 0.0143588 0.0143588 0.0142527 0.0142527 0.0140533 0.0140533 0.0136717 0.0136717
          0.0129381 0.0129382 0.012378 0.0123779 0.0116487 0.0116486 0.0107233 0.0107233 0.00957492 0.00957485 0.00821195 0.0082121
          0.00665083 0.00665094 0.00494712 0.00494704 0.00314947 0.00314947
        </DataArray>
        <DataArray type="Float32" Name="X_lO2" NumberOfComponents="1" format="ascii">
          -3.05999e-11 -3.0646e-11 -2.62036e-11 -2.59871e-11 -3.03391e-11 -3.04876e-11 -4.47742e-11 -4.41531e-11 -6.41705e-12 -6.62439e-12 -6.20785e-11 -6.11812e-11
          -1.2733e-11 -1.37918e-11 -4.23928e-12 -4.22734e-12 -6.81942e-11 -6.83069e-11 -3.46322e-11 -3.4555e-11 -1.97921e-11 -1.97905e-11 -1.23634e-11 -1.23636e-11
          -7.44228e-12 -7.44224e-12 -4.08532e-12 -4.08531e-12 -2.03805e-12 -2.03817e-12 -9.17409e-13 -9.17255e-13 -3.3239e-13 -3.32417e-13 -4.41122e-14 -4.41246e-14
          -5.04971e-15 -5.04746e-15 -5.15404e-16 -5.15659e-16 -4.87547e-17 -4.87382e-17 -4.87687e-18 -4.8737e-18 -6.91199e-19 -6.93675e-19 -1.46173e-19 -1.44566e-19
          -3.58142e-20 -3.67071e-20 -1.69322e-20 -1.65056e-20 -6.21056e-21 -6.49586e-21 -2.61111e-21 -2.66199e-21 -9.81146e-22 -9.74862e-22 -3.61214e-22 -3.6088e-22
          -1.26772e-22 -1.27044e-22 -3.90995e-23 -3.90761e-23 0 0
        </DataArray>
        <DataArray type="Float32" Name="X_lSubstrate" NumberOfComponents="1" format="ascii">
          0.00299609 0.00299609 0.00299609 0.00299609 0.00299608 0.00299608 0.00299607 0.00299607 0.00299606 0.00299606 0.00299604 0.00299604
          0.00299602 0.00299602 0.00299599 0.00299599 0.00299596 0.00299596 0.00299585 0.00299585 0.00299571 0.00299571 0.00299551 0.00299551
          0.00299526 0.00299526 0.00299494 0.00299494 0.00299454 0.00299454 0.00299404 0.00299404 0.00299341 0.00299341 0.00299093 0.00299093
          0.00298639 0.00298639 0.00297812 0.00297812 0.00296296 0.00296296 0.00293493 0.00293493 0.00288226 0.00288228 0.00278151 0.00278149
          0.00258782 0.00258784 0.00244003 0.00243999 0.00224763 0.00224763 0.00200362 0.00200362 0.00170087 0.00170085 0.00134139 0.00134142
          0.000929022 0.000929053 0.000477722 0.000477701 0 0
        </DataArray>
        <DataArray type="Float32" Name="X_lSuspended_Biomass" NumberOfComponents="1" format="ascii">
          -1.44247e-09 -1.26128e-09 -1.86276e-09 -1.69361e-09 9.83913e-11 3.06202e-10 2.46543e-09 2.69588e-09 5.52031e-09 5.76174e-09 9.10913e-09 9.34242e-09
          1.31137e-08 1.33161e-08 1.74336e-08 1.75908e-08 2.20203e-08 2.21126e-08 3.31635e-08 3.32001e-08 4.27257e-08 4.27548e-08 5.07276e-08 5.07536e-08
          5.75051e-08 5.75283e-08 6.3498e-08 6.35184e-08 6.91544e-08 6.91723e-08 7.49028e-08 7.49184e-08 8.11711e-08 8.11843e-08 8.39446e-08 8.39497e-08
          8.4406e-08 8.44058e-08 8.76172e-08 8.76227e-08 9.74471e-08 9.74458e-08 1.17204e-07 1.17208e-07 1.47999e-07 1.47997e-07 1.8063e-07 1.80628e-07
          1.83554e-07 1.83554e-07 1.99927e-07 1.99927e-07 2.1135e-07 2.1135e-07 2.13608e-07 2.13607e-07 2.02652e-07 2.02651e-07 1.75633e-07 1.75638e-07
          1.31278e-07 1.31282e-07 7.14627e-08 7.14605e-08 0 0
        </DataArray>
        <DataArray type="Float32" Name="X_lNH4" NumberOfComponents="1" format="ascii">
          0.0153045 0.0153045 0.0153045 0.0153045 0.0153045 0.0153045 0.0153045 0.0153045 0.0153044 0.0153044 0.0153043 0.0153043
          0.0153042 0.0153042 0.0153041 0.0153041 0.015304 0.015304 0.0153035 0.0153035 0.0153029 0.0153029 0.0153021 0.0153021
          0.015301 0.015301 0.0152997 0.0152997 0.0152981 0.0152981 0.015296 0.015296 0.0152934 0.0152934 0.0152833 0.0152833
          0.0152649 0.0152649 0.0152315 0.0152315 0.0151705 0.0151705 0.0150578 0.0150578 0.0148462 0.0148463 0.0144416 0.0144416
          0.0136639 0.013664 0.0130702 0.0130701 0.0122972 0.0122972 0.0113166 0.0113166 0.0101001 0.0101 0.00865683 0.00865698
          0.00700523 0.00700536 0.00520615 0.00520607 0.00333307 0.00333307
        </DataArray>
        <DataArray type="Float32" Name="X_lHCO3" NumberOfComponents="1" format="ascii">
          7.38317e-05 7.38317e-05 7.38304e-05 7.38304e-05 7.38356e-05 7.38356e-05 7.38421e-05 7.38421e-05 7.3851e-05 7.3851e-05 7.38623e-05 7.38623e-05
          7.38759e-05 7.38759e-05 7.38918e-05 7.38918e-05 7.39099e-05 7.39099e-05 7.397e-05 7.397e-05 7.40456e-05 7.40456e-05 7.41356e-05 7.41356e-05
          7.42394e-05 7.42394e-05 7.43566e-05 7.43566e-05 7.44868e-05 7.44868e-05 7.46296e-05 7.46296e-05 7.47849e-05 7.47849e-05 7.52649e-05 7.52649e-05
          7.58488e-05 7.58489e-05 7.65384e-05 7.65382e-05 7.73354e-05 7.73355e-05 7.82744e-05 7.82743e-05 7.94755e-05 7.94753e-05 8.12246e-05 8.12248e-05
          8.41359e-05 8.41356e-05 8.62026e-05 8.62031e-05 8.87094e-05 8.87093e-05 9.15115e-05 9.15114e-05 9.42769e-05 9.4277e-05 9.60421e-05 9.6042e-05
          9.3774e-05 9.37747e-05 8.11647e-05 8.11735e-05 3.37056e-07 3.37056e-07
        </DataArray>
        <DataArray type="Float32" Name="X_lCO3" NumberOfComponents="1" format="ascii">
          2.55956e-08 2.55956e-08 2.55948e-08 2.55948e-08 2.55979e-08 2.55979e-08 2.56018e-08 2.56018e-08 2.56073e-08 2.56073e-08 2.56141e-08 2.56141e-08
          2.56224e-08 2.56224e-08 2.5632e-08 2.5632e-08 2.5643e-08 2.5643e-08 2.56795e-08 2.56795e-08 2.57255e-08 2.57255e-08 2.57805e-08 2.57805e-08
          2.5844e-08 2.5844e-08 2.59159e-08 2.59159e-08 2.5996e-08 2.5996e-08 2.60842e-08 2.60842e-08 2.61806e-08 2.61806e-08 2.64814e-08 2.64814e-08
          2.68549e-08 2.68549e-08 2.73096e-08 2.73095e-08 2.78608e-08 2.78609e-08 2.8557e-08 2.85569e-08 2.95315e-08 2.95313e-08 3.11037e-08 3.11039e-08
          3.40357e-08 3.40354e-08 3.63637e-08 3.63643e-08 3.95393e-08 3.95393e-08 4.37802e-08 4.378e-08 4.93452e-08 4.93455e-08 5.60543e-08 5.60536e-08
          6.14259e-08 6.1426e-08 5.74771e-08 5.74891e-08 2.55591e-11 2.55591e-11
        </DataArray>
        <DataArray type="Float32" Name="X_lCO2" NumberOfComponents="1" format="ascii">
          1.92582e-05 1.92582e-05 1.92581e-05 1.92581e-05 1.92585e-05 1.92585e-05 1.92589e-05 1.92589e-05 1.92595e-05 1.92595e-05 1.92603e-05 1.92603e-05
          1.92612e-05 1.92612e-05 1.92623e-05 1.92623e-05 1.92635e-05 1.92635e-05 1.92676e-05 1.92676e-05 1.92726e-05 1.92726e-05 1.92785e-05 1.92785e-05
          1.92853e-05 1.92853e-05 1.92928e-05 1.92928e-05 1.9301e-05 1.9301e-05 1.93098e-05 1.93098e-05 1.93191e-05 1.93191e-05 1.9346e-05 1.9346e-05
          1.93739e-05 1.93739e-05 1.93975e-05 1.93975e-05 1.9407e-05 1.9407e-05 1.93858e-05 1.93858e-05 1.93039e-05 1.93039e-05 1.90999e-05 1.90999e-05
          1.86433e-05 1.86434e-05 1.82539e-05 1.82538e-05 1.76968e-05 1.76968e-05 1.69063e-05 1.69063e-05 1.57948e-05 1.57947e-05 1.42789e-05 1.4279e-05
          1.22344e-05 1.22346e-05 9.5571e-06 9.5572e-06 3.38012e-07 3.38012e-07
        </DataArray>
        <DataArray type="Float32" Name="X_lH" NumberOfComponents="1" format="ascii">
          1.90956e-10 1.90956e-10 1.90958e-10 1.90958e-10 1.90948e-10 1.90948e-10 1.90936e-10 1.90936e-10 1.90919e-10 1.90919e-10 1.90898e-10 1.90898e-10
          1.90873e-10 1.90873e-10 1.90843e-10 1.90843e-10 1.90809e-10 1.90809e-10 1.90695e-10 1.90695e-10 1.90553e-10 1.90553e-10 1.90382e-10 1.90382e-10
          1.90186e-10 1.90186e-10 1.89963e-10 1.89963e-10 1.89715e-10 1.89715e-10 1.89441e-10 1.89441e-10 1.89142e-10 1.89142e-10 1.88206e-10 1.88206e-10
          1.87031e-10 1.87031e-10 1.85569e-10 1.85569e-10 1.83726e-10 1.83726e-10 1.81269e-10 1.81269e-10 1.77655e-10 1.77656e-10 1.71752e-10 1.71751e-10
          1.61387e-10 1.61388e-10 1.53891e-10 1.53889e-10 1.44554e-10 1.44554e-10 1.3335e-10 1.3335e-10 1.20293e-10 1.20292e-10 1.05958e-10 1.05959e-10
          9.18973e-11 9.18981e-11 8.12204e-11 8.12126e-11 6.32454e-10 6.32454e-10
        </DataArray>
        <DataArray type="Float32" Name="X_lOH" NumberOfComponents="1" format="ascii">
          8.39085e-07 8.39085e-07 8.39074e-07 8.39074e-07 8.39117e-07 8.39117e-07 8.39171e-07 8.39171e-07 8.39245e-07 8.39245e-07 8.39338e-07 8.39338e-07
          8.39451e-07 8.39451e-07 8.39583e-07 8.39583e-07 8.39734e-07 8.39734e-07 8.40234e-07 8.40234e-07 8.40865e-07 8.40865e-07 8.41619e-07 8.41619e-07
          8.42494e-07 8.42494e-07 8.43486e-07 8.43486e-07 8.44596e-07 8.44596e-07 8.45823e-07 8.45823e-07 8.47171e-07 8.47171e-07 8.51421e-07 8.51421e-07
          8.56839e-07 8.5684e-07 8.6372e-07 8.63718e-07 8.72622e-07 8.72624e-07 8.84899e-07 8.84898e-07 9.03765e-07 9.03761e-07 9.36546e-07 9.36551e-07
          1.00021e-06 1.0002e-06 1.05175e-06 1.05176e-06 1.12358e-06 1.12358e-06 1.22337e-06 1.22337e-06 1.36358e-06 1.36359e-06 1.55811e-06 1.55809e-06
          1.80989e-06 1.80987e-06 2.06455e-06 2.06475e-06 2.67481e-07 2.67481e-07
        </DataArray>
        <DataArray type="Float32" Name="X_gBrine" NumberOfComponents="1" format="ascii">
          0.0111582 0.0111582 0.0111522 0.0111522 0.0111643 0.0111643 0.0111703 0.0111703 0.0111763 0.0111763 0.0111823 0.0111823
          0.0111883 0.0111883 0.0111944 0.0111944 0.0112004 0.0112004 0.0112186 0.0112186 0.0112369 0.0112369 0.0112552 0.0112552
          0.0112735 0.0112735 0.0112919 0.0112919 0.0113104 0.0113104 0.011329 0.011329 0.0113476 0.0113476 0.0113989 0.0113989
          0.0114506 0.0114506 0.011503 0.011503 0.011556 0.011556 0.01161 0.01161 0.0116652 0.0116652 0.0117224 0.0117224
          0.011783 0.011783 0.011813 0.011813 0.0118446 0.0118446 0.0118778 0.0118778 0.011913 0.011913 0.01195 0.01195
          0.0119887 0.0119887 0.0120287 0.0120287 0.0120698 0.0120698
        </DataArray>
        <DataArray type="Float32" Name="X_gTotalC" NumberOfComponents="1" format="ascii">
          0.988842 0.988842 0.988848 0.988848 0.988836 0.988836 0.98883 0.98883 0.988824 0.988824 0.988818 0.988818
          0.988812 0.988812 0.988806 0.988806 0.9888 0.9888 0.988781 0.988781 0.988763 0.988763 0.988745 0.988745
          0.988726 0.988726 0.988708 0.988708 0.98869 0.98869 0.988671 0.988671 0.988652 0.988652 0.988601 0.988601
          0.988549 0.988549 0.988497 0.988497 0.988444 0.988444 0.98839 0.98839 0.988335 0.988335 0.988278 0.988278
          0.988217 0.988217 0.988187 0.988187 0.988155 0.988155 0.988122 0.988122 0.988087 0.988087 0.98805 0.98805
          0.988011 0.988011 0.987971 0.987971 0.98793 0.98793
        </DataArray>
        <DataArray type="Float32" Name="X_gNa" NumberOfComponents="1" format="ascii">
          0 0 0 0 0 0 0 0 0 0 0 0
          0 0 0 0 0 0 0 0 0 0 0 0
          0 0 0 0 0 0 0 0 0 0 0 0
          0 0 0 0 0 0 0 0 0 0 0 0
          0 0 0 0 0 0 0 0 0 0 0 0
          0 0 0 0 0 0
        </DataArray>
        <DataArray type="Float32" Name="X_gCl" NumberOfComponents="1" format="ascii">
          0 0 0 0 0 0 0 0 0 0 0 0
          0 0 0 0 0 0 0 0 0 0 0 0
          0 0 0 0 0 0 0 0 0 0 0 0
          0 0 0 0 0 0 0 0 0 0 0 0
          0 0 0 0 0 0 0 0 0 0 0 0
          0 0 0 0 0 0
        </DataArray>
        <DataArray type="Float32" Name="X_gCa" NumberOfComponents="1" format="ascii">
          0 0 0 0 0 0 0 0 0 0 0 0
          0 0 0 0 0 0 0 0 0 0 0 0
          0 0 0 0 0 0 0 0 0 0 0 0
          0 0 0 0 0 0 0 0 0 0 0 0
          0 0 0 0 0 0 0 0 0 0 0 0
          0 0 0 0 0 0
        </DataArray>
        <DataArray type="Float32" Name="X_gUrea" NumberOfComponents="1" format="ascii">
          0 0 0 0 0 0 0 0 0 0 0 0
          0 0 0 0 0 0 0 0 0 0 0 0
          0 0 0 0 0 0 0 0 0 0 0 0
          0 0 0 0 0 0 0 0 0 0 0 0
          0 0 0 0 0 0 0 0 0 0 0 0
          0 0 0 0 0 0
        </DataArray>
        <DataArray type="Float32" Name="X_gTotalNH" NumberOfComponents="1" format="ascii">
          0 0 0 0 0 0 0 0 0 0 0 0
          0 0 0 0 0 0 0 0 0 0 0 0
          0 0 0 0 0 0 0 0 0 0 0 0
          0 0 0 0 0 0 0 0 0 0 0 0
          0 0 0 0 0 0 0 0 0 0 0 0
          0 0 0 0 0 0
        </DataArray>
        <DataArray type="Float32" Name="X_gO2" NumberOfComponents="1" format="ascii">
          0 0 0 0 0 0 0 0 0 0 0 0
          0 0 0 0 0 0 0 0 0 0 0 0
          0 0 0 0 0 0 0 0 0 0 0 0
          0 0 0 0 0 0 0 0 0 0 0 0
          0 0 0 0 0 0 0 0 0 0 0 0
          0 0 0 0 0 0
        </DataArray>
        <DataArray type="Float32" Name="X_gSubstrate" NumberOfComponents="1" format="ascii">
          0 0 0 0 0 0 0 0 0 0 0 0
          0 0 0 0 0 0 0 0 0 0 0 0
          0 0 0 0 0 0 0 0 0 0 0 0
          0 0 0 0 0 0 0 0 0 0 0 0
          0 0 0 0 0 0 0 0 0 0 0 0
          0 0 0 0 0 0
        </DataArray>
        <DataArray type="Float32" Name="X_gSuspended_Biomass" NumberOfComponents="1" format="ascii">
          0 0 0 0 0 0 0 0 0 0 0 0
          0 0 0 0 0 0 0 0 0 0 0 0
          0 0 0 0 0 0 0 0 0 0 0 0
          0 0 0 0 0 0 0 0 0 0 0 0
          0 0 0 0 0 0 0 0 0 0 0 0
          0 0 0 0 0 0
        </DataArray>
        <DataArray type="Float32" Name="X_gNH4" NumberOfComponents="1" format="ascii">
          0 0 0 0 0 0 0 0 0 0 0 0
          0 0 0 0 0 0 0 0 0 0 0 0
          0 0 0 0 0 0 0 0 0 0 0 0
          0 0 0 0 0 0 0 0 0 0 0 0
          0 0 0 0 0 0 0 0 0 0 0 0
          0 0 0 0 0 0
        </DataArray>
        <DataArray type="Float32" Name="X_gHCO3" NumberOfComponents="1" format="ascii">
          0 0 0 0 0 0 0 0 0 0 0 0
          0 0 0 0 0 0 0 0 0 0 0 0
          0 0 0 0 0 0 0 0 0 0 0 0
          0 0 0 0 0 0 0 0 0 0 0 0
          0 0 0 0 0 0 0 0 0 0 0 0
          0 0 0 0 0 0
        </DataArray>
        <DataArray type="Float32" Name="X_gCO3" NumberOfComponents="1" format="ascii">
          0 0 0 0 0 0 0 0 0 0 0 0
          0 0 0 0 0 0 0 0 0 0 0 0
          0 0 0 0 0 0 0 0 0 0 0 0
          0 0 0 0 0 0 0 0 0 0 0 0
          0 0 0 0 0 0 0 0 0 0 0 0
          0 0 0 0 0 0
        </DataArray>
        <DataArray type="Float32" Name="X_gCO2" NumberOfComponents="1" format="ascii">
          0.988842 0.988842 0.988848 0.988848 0.988836 0.988836 0.98883 0.98883 0.988824 0.988824 0.988818 0.988818
          0.988812 0.988812 0.988806 0.988806 0.9888 0.9888 0.988781 0.988781 0.988763 0.988763 0.988745 0.988745
          0.988726 0.988726 0.988708 0.988708 0.98869 0.98869 0.988671 0.988671 0.988652 0.988652 0.988601 0.988601
          0.988549 0.988549 0.988497 0.988497 0.988444 0.988444 0.98839 0.98839 0.988335 0.988335 0.988278 0.988278
          0.988217 0.988217 0.988187 0.988187 0.988155 0.988155 0.988122 0.988122 0.988087 0.988087 0.98805 0.98805
          0.988011 0.988011 0.987971 0.987971 0.98793 0.98793
        </DataArray>
        <DataArray type="Float32" Name="X_gH" NumberOfComponents="1" format="ascii">
          0 0 0 0 0 0 0 0 0 0 0 0
          0 0 0 0 0 0 0 0 0 0 0 0
          0 0 0 0 0 0 0 0 0 0 0 0
          0 0 0 0 0 0 0 0 0 0 0 0
          0 0 0 0 0 0 0 0 0 0 0 0
          0 0 0 0 0 0
        </DataArray>
        <DataArray type="Float32" Name="X_gOH" NumberOfComponents="1" format="ascii">
          0 0 0 0 0 0 0 0 0 0 0 0
          0 0 0 0 0 0 0 0 0 0 0 0
          0 0 0 0 0 0 0 0 0 0 0 0
          0 0 0 0 0 0 0 0 0 0 0 0
          0 0 0 0 0 0 0 0 0 0 0 0
          0 0 0 0 0 0
        </DataArray>
        <DataArray type="Float32" Name="Molarity_Brine" NumberOfComponents="1" format="ascii">
          53769.4 53769.4 53769.4 53769.4 53769.4 53769.4 53769.4 53769.4 53769.4 53769.4 53769.4 53769.4
          53769.4 53769.4 53769.4 53769.4 53769.5 53769.5 53769.5 53769.5 53769.6 53769.6 53769.6 53769.6
          53769.7 53769.7 53769.9 53769.9 53770 53770 53770.2 53770.2 53770.5 53770.5 53771.5 53771.5
          53773.4 53773.4 53777 53777 53783.5 53783.5 53795.6 53795.6 53818.4 53818.4 53861.9 53861.9
          53945.4 53945.4 54009 54009.1 54091.7 54091.7 54196.1 54196.1 54325.4 54325.4 54478.3 54478.3
          54653.2 54653.2 54844.3 54844.4 55049.2 55049.2
        </DataArray>
        <DataArray type="Float32" Name="Molarity_TotalC" NumberOfComponents="1" format="ascii">
          1.67804 1.67804 1.67802 1.67802 1.67811 1.67811 1.67823 1.67823 1.67839 1.67839 1.6786 1.6786
          1.67885 1.67885 1.67914 1.67914 1.67947 1.67947 1.68056 1.68056 1.68194 1.68194 1.68358 1.68358
          1.68547 1.68547 1.6876 1.6876 1.68996 1.68996 1.69254 1.69254 1.69534 1.69534 1.70395 1.70395
          1.71431 1.71431 1.72629 1.72628 1.73967 1.73967 1.75459 1.75458 1.77223 1.77222 1.7957 1.79571
          1.83176 1.83176 1.85571 1.85572 1.88261 1.88261 1.90847 1.90847 1.92566 1.92566 1.9164 1.9164
          1.82796 1.82797 1.55474 1.55489 0.0132254 0.0132254
        </DataArray>
        <DataArray type="Float32" Name="Molarity_Na" NumberOfComponents="1" format="ascii">
          0.00541269 0.00541269 0.00541258 0.00541258 0.00541302 0.00541302 0.00541356 0.00541356 0.00541432 0.00541432 0.0054153 0.0054153
          0.00541649 0.00541649 0.00541791 0.00541791 0.00541957 0.00541957 0.00542532 0.00542532 0.00543322 0.00543322 0.00544363 0.00544363
          0.00545705 0.00545705 0.0054741 0.0054741 0.00549558 0.00549558 0.00552253 0.00552253 0.00555622 0.00555622 0.00568889 0.00568887
          0.0059316 0.00593165 0.00637476 0.00637466 0.00718631 0.00718655 0.00868694 0.00868679 0.0115052 0.0115045 0.0168925 0.0168933
          0.0272317 0.0272306 0.0351066 0.0351086 0.0453385 0.0453385 0.0582842 0.0582841 0.074298 0.074299 0.0932438 0.0932418
          0.114886 0.114884 0.138461 0.138462 0.1633 0.1633
        </DataArray>
        <DataArray type="Float32" Name="Molarity_Cl" NumberOfComponents="1" format="ascii">
          881.403 881.403 881.403 881.403 881.401 881.401 881.399 881.399 881.396 881.396 881.391 881.391
          881.386 881.386 881.38 881.38 881.372 881.372 881.347 881.347 881.312 881.312 881.266 881.266
          881.206 881.206 881.131 881.131 881.036 881.036 880.917 880.917 880.768 880.768 880.183 880.183
          879.112 879.112 877.157 877.157 873.577 873.576 866.959 866.96 854.531 854.533 830.773 830.769
          785.177 785.182 750.449 750.44 705.325 705.325 648.233 648.233 577.61 577.605 494.056 494.065
          398.617 398.624 294.661 294.656 185.193 185.193
        </DataArray>
        <DataArray type="Float32" Name="Molarity_Ca" NumberOfComponents="1" format="ascii">
          9.40948 9.40948 9.40946 9.40946 9.40954 9.40954 9.40963 9.40963 9.40975 9.40975 9.40991 9.40991
          9.4101 9.4101 9.41032 9.41032 9.41057 9.41057 9.41138 9.41138 9.41237 9.41237 9.4135 9.4135
          9.41473 9.41473 9.41602 9.41602 9.41732 9.41732 9.41858 9.41858 9.41973 9.41973 9.42186 9.42186
          9.42043 9.42043 9.41112 9.41113 9.38589 9.38588 9.3297 9.3297 9.21397 9.214 8.98336 8.98332
          8.53606 8.5361 8.20129 8.2012 7.76977 7.76977 7.22562 7.22562 6.54335 6.54331 5.69027 5.69036
          4.56981 4.56992 3.03265 3.03276 0 0
        </DataArray>
        <DataArray type="Float32" Name="Molarity_Urea" NumberOfComponents="1" format="ascii">
          -2.7598e-08 -2.7598e-08 -2.79258e-08 -2.79258e-08 -2.66363e-08 -2.66363e-08 -2.50922e-08 -2.50923e-08 -2.30429e-08 -2.3043e-08 -2.05855e-08 -2.05851e-08
          -1.78248e-08 -1.78249e-08 -1.48702e-08 -1.48702e-08 -1.18333e-08 -1.18333e-08 -3.93258e-09 -3.93259e-09 1.8214e-09 1.8213e-09 1.11654e-08 1.11649e-08
          4.41943e-08 4.41941e-08 1.56703e-07 1.56704e-07 5.055e-07 5.05496e-07 1.4909e-06 1.49094e-06 4.04053e-06 4.04132e-06 2.81726e-05 2.81649e-05
          0.00015734 0.000157384 0.000619707 0.000619575 0.00181939 0.00181976 0.00433041 0.00433017 0.00921526 0.00921408 0.0194046 0.0194062
          0.0432388 0.0432362 0.0708328 0.0708406 0.114359 0.114361 0.179426 0.179426 0.265559 0.265563 0.351168 0.35116
          0.380806 0.380821 0.273273 0.273288 0 0
        </DataArray>
        <DataArray type="Float32" Name="Molarity_TotalNH" NumberOfComponents="1" format="ascii">
          865.911 865.911 865.911 865.911 865.909 865.909 865.907 865.907 865.904 865.904 865.899 865.899
          865.894 865.894 865.888 865.888 865.881 865.881 865.856 865.856 865.822 865.822 865.777 865.777
          865.719 865.719 865.645 865.645 865.552 865.552 865.436 865.436 865.29 865.29 864.718 864.718
          863.67 863.67 861.758 861.758 858.256 858.255 851.78 851.78 839.618 839.621 816.368 816.365
          771.74 771.744 737.729 737.72 693.522 693.522 637.57 637.571 568.346 568.342 486.481 486.489
          393.105 393.113 291.678 291.673 185.193 185.193
        </DataArray>
        <DataArray type="Float32" Name="Molarity_O2" NumberOfComponents="1" format="ascii">
          -9.73615e-07 -9.75081e-07 -8.33735e-07 -8.26847e-07 -9.65316e-07 -9.70043e-07 -1.42461e-06 -1.40484e-06 -2.04175e-07 -2.10772e-07 -1.97519e-06 -1.94664e-06
          -4.05133e-07 -4.38821e-07 -1.34884e-07 -1.34504e-07 -2.16977e-06 -2.17336e-06 -1.10191e-06 -1.09946e-06 -6.29735e-07 -6.29685e-07 -3.93372e-07 -3.93377e-07
          -2.36794e-07 -2.36793e-07 -1.29984e-07 -1.29984e-07 -6.48452e-08 -6.48491e-08 -2.91894e-08 -2.91845e-08 -1.05757e-08 -1.05765e-08 -1.4035e-09 -1.4039e-09
          -1.60661e-10 -1.60589e-10 -1.63973e-11 -1.64054e-11 -1.55098e-12 -1.55045e-12 -1.55118e-13 -1.55017e-13 -2.19785e-14 -2.20572e-14 -4.64538e-15 -4.59429e-15
          -1.13696e-15 -1.16531e-15 -5.37092e-16 -5.23561e-16 -1.96791e-16 -2.05831e-16 -8.2626e-17 -8.4236e-17 -3.09957e-17 -3.07972e-17 -1.13887e-17 -1.13782e-17
          -3.98792e-18 -3.99649e-18 -1.22691e-18 -1.22618e-18 0 0
        </DataArray>
        <DataArray type="Float32" Name="Molarity_Substrate" NumberOfComponents="1" format="ascii">
          16.9322 16.9322 16.9322 16.9322 16.9322 16.9322 16.9321 16.9321 16.932 16.932 16.9319 16.9319
          16.9318 16.9318 16.9317 16.9317 16.9315 16.9315 16.9309 16.9309 16.93 16.93 16.9289 16.9289
          16.9274 16.9274 16.9256 16.9256 16.9233 16.9233 16.9204 16.9204 16.9168 16.9168 16.9026 16.9026
          16.8765 16.8765 16.829 16.829 16.7419 16.7419 16.581 16.581 16.2787 16.2788 15.7009 15.7008
          14.592 14.5921 13.7474 13.7472 12.65 12.65 11.2615 11.2616 9.544 9.54389 7.51199 7.5122
          5.19088 5.19106 2.66262 2.6625 0 0
        </DataArray>
        <DataArray type="Float32" Name="Molarity_Suspended_Biomass" NumberOfComponents="1" format="ascii">
          -1.46867e-06 -1.28419e-06 -1.8966e-06 -1.72437e-06 1.00178e-07 3.11763e-07 2.51021e-06 2.74485e-06 5.62057e-06 5.86639e-06 9.27457e-06 9.5121e-06
          1.33518e-05 1.3558e-05 1.77503e-05 1.79103e-05 2.24203e-05 2.25142e-05 3.37658e-05 3.3803e-05 4.35016e-05 4.35313e-05 5.16488e-05 5.16752e-05
          5.85493e-05 5.85729e-05 6.46509e-05 6.46717e-05 7.04099e-05 7.0428e-05 7.62624e-05 7.62782e-05 8.26441e-05 8.26576e-05 8.54668e-05 8.5472e-05
          8.59345e-05 8.59343e-05 8.91997e-05 8.92054e-05 9.91989e-05 9.91976e-05 0.000119292 0.000119297 0.000150592 0.000150591 0.000183693 0.000183691
          0.000186468 0.000186467 0.000202935 0.000202935 0.000214303 0.000214302 0.000216302 0.0002163 0.000204866 0.000204864 0.000177201 0.000177206
          0.000132149 0.000132154 7.17581e-05 7.1756e-05 0 0
        </DataArray>
        <DataArray type="Float32" Name="Molarity_NH4" NumberOfComponents="1" format="ascii">
          863.823 863.823 863.823 863.823 863.821 863.821 863.819 863.819 863.815 863.815 863.811 863.811
          863.805 863.805 863.799 863.799 863.791 863.791 863.765 863.765 863.729 863.729 863.682 863.682
          863.622 863.622 863.546 863.546 863.451 863.451 863.332 863.332 863.183 863.183 862.601 862.601
          861.543 861.543 859.617 859.618 856.101 856.1 849.609 849.609 837.428 837.431 814.154 814.151
          769.49 769.494 735.456 735.447 691.225 691.225 635.252 635.252 566.02 566.016 484.179 484.187
          390.916 390.923 289.799 289.794 185.037 185.037
        </DataArray>
        <DataArray type="Float32" Name="Molarity_HCO3" NumberOfComponents="1" format="ascii">
          1.23199 1.23199 1.23197 1.23197 1.23206 1.23206 1.23217 1.23217 1.23232 1.23232 1.2325 1.2325
          1.23273 1.23273 1.23299 1.233 1.2333 1.2333 1.2343 1.2343 1.23556 1.23556 1.23706 1.23706
          1.23879 1.23879 1.24074 1.24074 1.24291 1.24291 1.24529 1.24529 1.24788 1.24788 1.25587 1.25587
          1.26558 1.26559 1.27703 1.27703 1.29022 1.29022 1.30569 1.30568 1.32534 1.32533 1.35375 1.35375
          1.40077 1.40077 1.43402 1.43402 1.47415 1.47415 1.51868 1.51867 1.56197 1.56197 1.58807 1.58807
          1.54705 1.54706 1.33569 1.33584 0.00553194 0.00553194
        </DataArray>
        <DataArray type="Float32" Name="Molarity_CO3" NumberOfComponents="1" format="ascii">
          0.000434274 0.000434274 0.000434261 0.000434261 0.000434315 0.000434315 0.000434381 0.000434381 0.000434473 0.000434473 0.000434589 0.000434589
          0.000434729 0.000434729 0.000434892 0.000434892 0.000435079 0.000435079 0.000435698 0.000435698 0.000436479 0.000436479 0.00043741 0.00043741
          0.000438487 0.000438487 0.000439706 0.000439706 0.000441064 0.000441064 0.00044256 0.00044256 0.000444194 0.000444194 0.000449291 0.000449291
          0.000455616 0.000455617 0.00046331 0.000463309 0.000472622 0.000472624 0.000484357 0.000484356 0.00050074 0.000500737 0.000527105 0.000527109
          0.000576177 0.000576172 0.000615086 0.000615096 0.000668092 0.000668092 0.000738756 0.000738754 0.000831276 0.000831281 0.000942433 0.000942422
          0.0010304 0.00103041 0.000961765 0.000961965 4.26535e-07 4.26535e-07
        </DataArray>
        <DataArray type="Float32" Name="Molarity_CO2" NumberOfComponents="1" format="ascii">
          0.445636 0.445636 0.445634 0.445634 0.445642 0.445642 0.445653 0.445653 0.445667 0.445667 0.445684 0.445684
          0.445706 0.445706 0.44573 0.44573 0.445759 0.445759 0.445852 0.445852 0.445968 0.445968 0.446105 0.446105
          0.446261 0.446261 0.446435 0.446435 0.446623 0.446623 0.446825 0.446825 0.447039 0.447039 0.447656 0.447656
          0.44829 0.44829 0.448815 0.448815 0.448998 0.448998 0.448438 0.448438 0.446413 0.446413 0.44145 0.441449
          0.430438 0.430439 0.421104 0.421101 0.407818 0.407818 0.389079 0.389079 0.362893 0.362892 0.327416 0.32742
          0.279901 0.279905 0.218105 0.218107 0.00769319 0.00769319
        </DataArray>
        <DataArray type="Float32" Name="Molarity_H" NumberOfComponents="1" format="ascii">
          0.000192893 0.000192893 0.000192895 0.000192895 0.000192885 0.000192885 0.000192873 0.000192873 0.000192856 0.000192856 0.000192834 0.000192834
          0.000192808 0.000192808 0.000192778 0.000192778 0.000192744 0.000192744 0.000192629 0.000192629 0.000192485 0.000192485 0.000192313 0.000192313
          0.000192114 0.000192114 0.000191888 0.000191888 0.000191637 0.000191637 0.00019136 0.00019136 0.000191057 0.000191057 0.000190109 0.000190109
          0.000188918 0.000188918 0.000187432 0.000187433 0.000185556 0.000185555 0.000183046 0.000183046 0.000179345 0.000179345 0.000173288 0.000173287
          0.000162657 0.000162658 0.000154975 0.000154973 0.000145419 0.000145419 0.000133968 0.000133968 0.000120649 0.000120648 0.000106061 0.000106063
          9.17787e-05 9.17794e-05 8.09137e-05 8.0906e-05 0.000628379 0.000628379
        </DataArray>
        <DataArray type="Float32" Name="Molarity_OH" NumberOfComponents="1" format="ascii">
          5.02562e-05 5.02562e-05 5.02555e-05 5.02555e-05 5.02581e-05 5.02581e-05 5.02613e-05 5.02613e-05 5.02657e-05 5.02657e-05 5.02714e-05 5.02714e-05
          5.02781e-05 5.02781e-05 5.0286e-05 5.0286e-05 5.0295e-05 5.0295e-05 5.03249e-05 5.03249e-05 5.03627e-05 5.03627e-05 5.04078e-05 5.04078e-05
          5.04601e-05 5.04601e-05 5.05195e-05 5.05195e-05 5.05858e-05 5.05858e-05 5.06592e-05 5.06592e-05 5.07397e-05 5.07397e-05 5.09936e-05 5.09936e-05
          5.13168e-05 5.13168e-05 5.17265e-05 5.17265e-05 5.22553e-05 5.22554e-05 5.29823e-05 5.29823e-05 5.40961e-05 5.40959e-05 5.60272e-05 5.60274e-05
          5.97717e-05 5.97713e-05 6.28004e-05 6.28012e-05 6.70187e-05 6.70187e-05 7.28728e-05 7.28727e-05 8.10898e-05 8.10903e-05 9.24751e-05 9.24738e-05
          0.000107174 0.000107173 0.000121951 0.000121962 1.57575e-05 1.57575e-05
        </DataArray>
        <DataArray type="Float32" Name="Sum_charges" NumberOfComponents="1" format="ascii">
          0.0113633 0.0113633 0.0113633 0.0113633 0.0113632 0.0113632 0.0113632 0.0113632 0.0113632 0.0113632 0.0113631 0.0113631
          0.011363 0.011363 0.0113629 0.0113629 0.0113628 0.0113628 0.0113625 0.0113625 0.011362 0.011362 0.0113614 0.0113614
          0.0113606 0.0113606 0.0113596 0.0113596 0.0113583 0.0113583 0.0113567 0.0113567 0.0113548 0.0113548 0.0113471 0.0113471
          0.0113333 0.0113333 0.0113081 0.0113081 0.0112624 0.0112624 0.011178 0.011178 0.0110198 0.0110198 0.0107173 0.0107173
          0.0101363 0.0101363 0.00969286 0.00969275 0.00911581 0.0091158 0.00838426 0.00838426 0.00747743 0.00747737 0.00640273 0.00640284
          0.00517498 0.00517508 0.00384122 0.00384115 0.00246913 0.00246913
        </DataArray>
        <DataArray type="Float32" Name="Vx" NumberOfComponents="1" format="ascii">
          -2.38834e-15 -2.38833e-15 -3.20318e-15 -3.20314e-15 -2.72476e-15 -2.72476e-15 -4.66648e-15 -4.66648e-15 -3.33704e-15 -3.33704e-15 2.86175e-15 2.86176e-15
          3.19046e-15 3.19047e-15 -3.77864e-16 -3.77864e-16 3.22836e-16 3.22836e-16 6.5093e-16 6.5093e-16 1.74336e-16 1.74336e-16 5.01739e-17 5.0174e-17
          8.854e-16 8.85401e-16 -3.19522e-15 -3.19522e-15 -2.0744e-14 -2.0744e-14 6.39658e-14 6.39658e-14 7.90771e-14 7.90771e-14 -2.73232e-13 -2.73232e-13
          5.6727e-13 5.6727e-13 -1.86662e-12 -1.86662e-12 1.54989e-12 1.54989e-12 7.43844e-12 7.43844e-12 -7.22709e-12 -7.22709e-12 5.70633e-13 5.70635e-13
          -1.94539e-11 -1.94539e-11 -1.32815e-11 -1.32934e-11 2.43018e-11 2.42899e-11 6.32542e-12 6.32543e-12 4.30582e-11 4.30581e-11 4.01722e-11 4.01594e-11
          -4.82341e-11 -4.82468e-11 -4.69683e-11 -4.69683e-11 -1.88843e-11 -1.88843e-11
        </DataArray>
        <DataArray type="Float32" Name="Vy" NumberOfComponents="1" format="ascii">
          -4.80133e-12 -4.79872e-12 -8.78188e-12 -8.78226e-12 -7.44953e-12 -7.44357e-12 -9.98808e-12 -9.98101e-12 -1.24259e-11 -1.24171e-11 -1.48131e-11 -1.48061e-11
          -1.71015e-11 -1.70996e-11 -1.93581e-11 -1.93562e-11 -1.61268e-10 -1.61265e-10 -6.95129e-11 -6.95114e-11 -8.23887e-11 -8.23877e-11 -9.76995e-11 -9.76987e-11
          -1.1554e-10 -1.1554e-10 -1.36696e-10 -1.36696e-10 -1.62113e-10 -1.62094e-10 -1.93162e-10 -1.93148e-10 -5.2445e-09 -5.24468e-09 -3.80011e-09 -3.7998e-09
          -6.89383e-09 -6.8941e-09 -1.2662e-08 -1.26605e-08 -2.36323e-08 -2.36293e-08 -4.51923e-08 -4.52033e-08 -8.82378e-08 -8.82483e-08 -1.70423e-07 -1.70425e-07
          2.81641e-07 2.81657e-07 -5.92921e-08 -5.92215e-08 -6.88074e-08 -6.8752e-08 -7.85115e-08 -7.84862e-08 -7.61394e-08 -7.61553e-08 -7.19957e-08 -7.21063e-08
          -5.45461e-08 -5.46486e-08 -4.72782e-08 -4.72763e-08 1.40564e-06 1.40569e-06
        </DataArray>
      </PointData>
      <CellData Scalars="process rank">
        <DataArray type="Float32" Name="process rank" NumberOfComponents="1" format="ascii">
          0 0 0 0 0 0 0 0 0 0 0 0
          0 0 0 0 0 0 0 0 0 0 0 0
          0 0 0 0 0 0 0 0
        </DataArray>
      </CellData>
      <Points>
        <DataArray type="Float32" Name="Coordinates" NumberOfComponents="3" format="ascii">
          0.0254 0.00625 0 0 0.00625 0 0.0254 0 0 0 0 0
          0.0254 0.0125 0 0 0.0125 0 0.0254 0.01875 0 0 0.01875 0
          0.0254 0.025 0 0 0.025 0 0.0254 0.03125 0 0 0.03125 0
          0.0254 0.0375 0 0 0.0375 0 0.0254 0.04375 0 0 0.04375 0
          0.0254 0.05 0 0 0.05 0 0.0254 0.06875 0 0 0.06875 0
          0.0254 0.0875 0 0 0.0875 0 0.0254 0.10625 0 0 0.10625 0
          0.0254 0.125 0 0 0.125 0 0.0254 0.14375 0 0 0.14375 0
          0.0254 0.1625 0 0 0.1625 0 0.0254 0.18125 0 0 0.18125 0
          0.0254 0.2 0 0 0.2 0 0.0254 0.25125 0 0 0.25125 0
          0.0254 0.3025 0 0 0.3025 0 0.0254 0.35375 0 0 0.35375 0
          0.0254 0.405 0 0 0.405 0 0.0254 0.45625 0 0 0.45625 0
          0.0254 0.5075 0 0 0.5075 0 0.0254 0.55875 0 0 0.55875 0
          0.0254 0.61 0 0 0.61 0 0.0254 0.63375 0 0 0.63375 0
          0.0254 0.6575 0 0 0.6575 0 0.0254 0.68125 0 0 0.68125 0
          0.0254 0.705 0 0 0.705 0 0.0254 0.72875 0 0 0.72875 0
          0.0254 0.7525 0 0 0.7525 0 0.0254 0.77625 0 0 0.77625 0
          0.0254 0.8 0 0 0.8 0
        </DataArray>
      </Points>
      <Cells>
        <DataArray type="Int32" Name="connectivity" NumberOfComponents="1" format="ascii">
          0 1 3 2 4 5 1 0 6 7 5 4
          8 9 7 6 10 11 9 8 12 13 11 10
          14 15 13 12 16 17 15 14 18 19 17 16
          20 21 19 18 22 23 21 20 24 25 23 22
          26 27 25 24 28 29 27 26 30 31 29 28
          32 33 31 30 34 35 33 32 36 37 35 34
          38 39 37 36 40 41 39 38 42 43 41 40
          44 45 43 42 46 47 45 44 48 49 47 46
          50 51 49 48 52 53 51 50 54 55 53 52
          56 57 55 54 58 59 57 56 60 61 59 58
          62 63 61 60 64 65 63 62
        </DataArray>
        <DataArray type="Int32" Name="offsets" NumberOfComponents="1" format="ascii">
          4 8 12 16 20 24 28 32 36 40 44 48
          52 56 60 64 68 72 76 80 84 88 92 96
          100 104 108 112 116 120 124 128
        </DataArray>
        <DataArray type="UInt8" Name="types" NumberOfComponents="1" format="ascii">
          9 9 9 9 9 9 9 9 9 9 9 9
          9 9 9 9 9 9 9 9 9 9 9 9
          9 9 9 9 9 9 9 9
        </DataArray>
      </Cells>
    </Piece>
  </UnstructuredGrid>
</VTKFile>
