<?xml version="1.0"?>
<VTKFile type="UnstructuredGrid" version="0.1" byte_order="LittleEndian">
  <UnstructuredGrid>
    <Piece NumberOfCells="32" NumberOfPoints="66">
      <PointData Scalars="Sg">
        <DataArray type="Float32" Name="Sg" NumberOfComponents="1" format="ascii">
          0 0 0 0 0 0 0 0 0 0 0 0
          0 0 0 0 0 0 0 0 0 0 0 0
          0 0 0 0 0 0 0 0 0 0 0 0
          0 0 0 0 0 0 0 0 0 0 0 0
          0 0 0 0 0 0 0 0 0 0 0 0
          0 0 0 0 0 0
        </DataArray>
        <DataArray type="Float32" Name="Sl" NumberOfComponents="1" format="ascii">
          1 1 1 1 1 1 1 1 1 1 1 1
          1 1 1 1 1 1 1 1 1 1 1 1
          1 1 1 1 1 1 1 1 1 1 1 1
          1 1 1 1 1 1 1 1 1 1 1 1
          1 1 1 1 1 1 1 1 1 1 1 1
          1 1 1 1 1 1
        </DataArray>
        <DataArray type="Float32" Name="pg" NumberOfComponents="1" format="ascii">
          117578 117578 117640 117640 117515 117515 117453 117453 117391 117391 117328 117328
          117266 117266 117203 117203 117141 117141 116954 116954 116766 116766 116579 116579
          116392 116392 116204 116204 116017 116017 115830 115830 115643 115643 115131 115131
          114619 114619 114107 114107 113595 113595 113083 113083 112572 112572 112060 112060
          111549 111549 111313 111313 111076 111076 110840 110840 110605 110605 110369 110369
          110135 110135 109900 109900 109667 109667
        </DataArray>
        <DataArray type="Float32" Name="pl" NumberOfComponents="1" format="ascii">
          107911 107911 107974 107974 107849 107849 107786 107786 107724 107724 107661 107661
          107599 107599 107537 107537 107474 107474 107287 107287 107100 107100 106912 106912
          106725 106725 106538 106538 106351 106351 106163 106163 105976 105976 105464 105464
          104952 104952 104440 104440 103929 103929 103417 103417 102905 102905 102394 102394
          101883 101883 101646 101646 101410 101410 101174 101174 100938 100938 100703 100703
          100468 100468 100234 100234 100000 100000
        </DataArray>
        <DataArray type="Float32" Name="pc" NumberOfComponents="1" format="ascii">
          9666.67 9666.67 9666.67 9666.67 9666.67 9666.67 9666.67 9666.67 9666.67 9666.67 9666.67 9666.67
          9666.67 9666.67 9666.67 9666.67 9666.67 9666.67 9666.67 9666.67 9666.67 9666.67 9666.67 9666.67
          9666.67 9666.67 9666.67 9666.67 9666.67 9666.67 9666.67 9666.67 9666.67 9666.67 9666.67 9666.67
          9666.67 9666.67 9666.67 9666.67 9666.67 9666.67 9666.67 9666.67 9666.67 9666.67 9666.67 9666.67
          9666.67 9666.67 9666.67 9666.67 9666.67 9666.67 9666.67 9666.67 9666.67 9666.67 9666.67 9666.67
          9666.67 9666.67 9666.67 9666.67 9666.67 9666.67
        </DataArray>
        <DataArray type="Float32" Name="rhoL" NumberOfComponents="1" format="ascii">
          1018.16 1018.16 1018.16 1018.16 1018.16 1018.16 1018.16 1018.16 1018.16 1018.16 1018.16 1018.16
          1018.16 1018.16 1018.16 1018.16 1018.16 1018.16 1018.16 1018.16 1018.16 1018.16 1018.16 1018.16
          1018.16 1018.16 1018.16 1018.16 1018.15 1018.15 1018.15 1018.15 1018.15 1018.15 1018.13 1018.13
          1018.11 1018.11 1018.06 1018.06 1017.98 1017.98 1017.82 1017.82 1017.52 1017.52 1016.95 1016.95
          1015.85 1015.85 1015.02 1015.02 1013.94 1013.94 1012.57 1012.57 1010.89 1010.89 1008.89 1008.89
          1006.61 1006.61 1004.12 1004.12 1001.45 1001.45
        </DataArray>
        <DataArray type="Float32" Name="rhoG" NumberOfComponents="1" format="ascii">
          2.06848 2.06848 2.06961 2.06961 2.06735 2.06735 2.06622 2.06622 2.06508 2.06508 2.06395 2.06395
          2.06282 2.06282 2.06169 2.06169 2.06056 2.06056 2.05717 2.05717 2.05378 2.05378 2.05038 2.05038
          2.04699 2.04699 2.0436 2.0436 2.04021 2.04021 2.03681 2.03681 2.03342 2.03342 2.02415 2.02415
          2.01487 2.01487 2.0056 2.0056 1.99633 1.99633 1.98705 1.98705 1.97778 1.97778 1.96851 1.96851
          1.95923 1.95923 1.95493 1.95493 1.95064 1.95064 1.94634 1.94634 1.94204 1.94204 1.93775 1.93775
          1.93346 1.93346 1.92917 1.92917 1.9249 1.9249
        </DataArray>
        <DataArray type="Float32" Name="mobL" NumberOfComponents="1" format="ascii">
          1032.21 1032.21 1032.21 1032.21 1032.21 1032.21 1032.21 1032.21 1032.21 1032.21 1032.21 1032.21
          1032.21 1032.21 1032.21 1032.21 1032.21 1032.21 1032.21 1032.21 1032.22 1032.22 1032.22 1032.22
          1032.22 1032.22 1032.23 1032.23 1032.24 1032.24 1032.25 1032.25 1032.26 1032.26 1032.3 1032.3
          1032.38 1032.38 1032.54 1032.54 1032.82 1032.82 1033.33 1033.33 1034.31 1034.31 1036.21 1036.21
          1039.92 1039.92 1042.81 1042.81 1046.66 1046.66 1051.73 1051.73 1058.21 1058.21 1066.36 1066.36
          1076.41 1076.41 1088.48 1088.48 1103.12 1103.12
        </DataArray>
        <DataArray type="Float32" Name="mobG" NumberOfComponents="1" format="ascii">
          0 0 0 0 0 0 0 0 0 0 0 0
          0 0 0 0 0 0 0 0 0 0 0 0
          0 0 0 0 0 0 0 0 0 0 0 0
          0 0 0 0 0 0 0 0 0 0 0 0
          0 0 0 0 0 0 0 0 0 0 0 0
          0 0 0 0 0 0
        </DataArray>
        <DataArray type="Float32" Name="porosity" NumberOfComponents="1" format="ascii">
          0.395182 0.395186 0.395788 0.395783 0.397641 0.397639 0.390961 0.390983 0.395997 0.396003 0.391324 0.391297
          0.395793 0.395764 0.391625 0.391591 0.391758 0.391793 0.399927 0.399929 0.393446 0.393523 0.393882 0.393811
          0.394246 0.394334 0.392917 0.393063 0.394834 0.394934 0.395271 0.395351 0.39533 0.395379 0.394316 0.39429
          0.395505 0.395506 0.39415 0.394142 0.394107 0.39412 0.395749 0.395749 0.393762 0.393761 0.395742 0.395742
          0.394215 0.394217 0.396905 0.396905 0.394051 0.394051 0.39507 0.395061 0.397355 0.397355 0.397138 0.397137
          0.397108 0.397108 0.398789 0.398789 0.399917 0.399917
        </DataArray>
        <DataArray type="Float32" Name="temperature" NumberOfComponents="1" format="ascii">
          298.15 298.15 298.15 298.15 298.15 298.15 298.15 298.15 298.15 298.15 298.15 298.15
          298.15 298.15 298.15 298.15 298.15 298.15 298.15 298.15 298.15 298.15 298.15 298.15
          298.15 298.15 298.15 298.15 298.15 298.15 298.15 298.15 298.15 298.15 298.15 298.15
          298.15 298.15 298.15 298.15 298.15 298.15 298.15 298.15 298.15 298.15 298.15 298.15
          298.15 298.15 298.15 298.15 298.15 298.15 298.15 298.15 298.15 298.15 298.15 298.15
          298.15 298.15 298.15 298.15 298.15 298.15
        </DataArray>
        <DataArray type="Float32" Name="phase presence" NumberOfComponents="1" format="ascii">
          1 1 1 1 1 1 1 1 1 1 1 1
          1 1 1 1 1 1 1 1 1 1 1 1
          1 1 1 1 1 1 1 1 1 1 1 1
          1 1 1 1 1 1 1 1 1 1 1 1
          1 1 1 1 1 1 1 1 1 1 1 1
          1 1 1 1 1 1
        </DataArray>
        <DataArray type="Float32" Name="potential" NumberOfComponents="1" format="ascii">
          -0.00169694 -0.00169694 -0.00169697 -0.00169697 -0.00169689 -0.00169689 -0.00169683 -0.00169683 -0.00169675 -0.00169675 -0.00169665 -0.00169665
          -0.00169653 -0.00169653 -0.00169639 -0.00169639 -0.00169624 -0.00169624 -0.0016957 -0.0016957 -0.00169499 -0.00169499 -0.00169409 -0.00169409
          -0.00169302 -0.00169302 -0.00169177 -0.00169177 -0.0016903 -0.0016903 -0.00168858 -0.00168858 -0.0016865 -0.0016865 -0.00167888 -0.00167888
          -0.0016658 -0.0016658 -0.00164393 -0.00164393 -0.00160859 -0.00160859 -0.00155162 -0.00155162 -0.00145872 -0.00145873 -0.00130985 -0.00130981
          -0.00107898 -0.00107907 -0.000933877 -0.000933929 -0.000770379 -0.000770247 -0.000593864 -0.000593887 -0.000417274 -0.000417303 -0.000253816 -0.000253806
          -0.000119661 -0.000119666 -3.15973e-05 -3.15956e-05 0 0
        </DataArray>
        <DataArray type="Float32" Name="boxVolume" NumberOfComponents="1" format="ascii">
          7.9375e-05 7.9375e-05 3.96875e-05 3.96875e-05 7.9375e-05 7.9375e-05 7.9375e-05 7.9375e-05 7.9375e-05 7.9375e-05 7.9375e-05 7.9375e-05
          7.9375e-05 7.9375e-05 7.9375e-05 7.9375e-05 0.00015875 0.00015875 0.000238125 0.000238125 0.000238125 0.000238125 0.000238125 0.000238125
          0.000238125 0.000238125 0.000238125 0.000238125 0.000238125 0.000238125 0.000238125 0.000238125 0.0004445 0.0004445 0.000650875 0.000650875
          0.000650875 0.000650875 0.000650875 0.000650875 0.000650875 0.000650875 0.000650875 0.000650875 0.000650875 0.000650875 0.000650875 0.000650875
          0.00047625 0.00047625 0.000301625 0.000301625 0.000301625 0.000301625 0.000301625 0.000301625 0.000301625 0.000301625 0.000301625 0.000301625
          0.000301625 0.000301625 0.000301625 0.000301625 0.000150812 0.000150812
        </DataArray>
        <DataArray type="Float32" Name="pH" NumberOfComponents="1" format="ascii">
          6.71632 6.71632 6.71631 6.71631 6.71638 6.71638 6.71646 6.71646 6.71656 6.71656 6.71668 6.71668
          6.71679 6.71679 6.7169 6.71689 6.71697 6.71697 6.7169 6.7169 6.71666 6.71666 6.71598 6.71598
          6.71511 6.71511 6.71428 6.71428 6.71366 6.71366 6.71333 6.71333 6.7133 6.7133 6.71446 6.71446
          6.71611 6.71611 6.71695 6.71695 6.72002 6.72002 6.7253 6.7253 6.73087 6.73087 6.7428 6.7428
          6.76366 6.76365 6.78108 6.78107 6.80528 6.8053 6.83814 6.83813 6.88083 6.88083 6.93559 6.9356
          7.00697 7.00697 7.10745 7.10746 6.19963 6.19963
        </DataArray>
        <DataArray type="Float32" Name="Omega" NumberOfComponents="1" format="ascii">
          0 0 0 0 0 0 0 0 0 0 0 0
          0 0 0 0 0 0 0 0 0 0 0 0
          0 0 0 0 0 0 0 0 0 0 0 0
          0 0 0 0 0 0 0 0 0 0 0 0
          0 0 0 0 0 0 0 0 0 0 0 0
          0 0 0 0 0 0
        </DataArray>
        <DataArray type="Float32" Name="Attachment_rate" NumberOfComponents="1" format="ascii">
          0 0 0 0 0 0 0 0 0 0 0 0
          0 0 0 0 0 0 0 0 0 0 0 0
          0 0 0 0 0 0 0 0 0 0 0 0
          0 0 0 0 0 0 0 0 0 0 0 0
          0 0 0 0 0 0 0 0 0 0 0 0
          0 0 0 0 0 0
        </DataArray>
        <DataArray type="Float32" Name="Detachment_rate" NumberOfComponents="1" format="ascii">
          -6.12441e-14 -6.21134e-14 -7.50109e-15 -7.2965e-15 -1.59687e-14 -1.54993e-14 -6.98497e-15 -6.78735e-15 -5.85784e-14 -4.55099e-14 -1.65537e-13 -2.29028e-13
          -9.06063e-14 -9.21228e-14 1.87304e-14 1.88517e-14 -8.19056e-14 -7.34515e-14 0 1.35798e-34 2.0612e-13 2.03173e-13 2.80889e-13 2.8082e-13
          3.01146e-13 3.011e-13 4.10456e-13 4.10395e-13 3.00531e-13 3.00498e-13 2.9036e-13 2.90338e-13 3.10626e-13 3.10578e-13 1.53124e-12 1.53112e-12
          1.21e-12 1.21002e-12 4.59483e-12 4.59474e-12 5.70036e-12 5.69991e-12 2.91467e-12 2.91482e-12 1.25946e-11 1.25947e-11 5.97444e-12 5.97467e-12
          1.97821e-11 1.97815e-11 4.63014e-12 4.62836e-12 1.73086e-11 1.73134e-11 1.42817e-11 1.4285e-11 5.76308e-12 5.76245e-12 7.51729e-12 7.51726e-12
          1.25919e-11 1.2593e-11 8.87984e-12 8.88056e-12 0 0
        </DataArray>
        <DataArray type="Float32" Name="Growth_rate" NumberOfComponents="1" format="ascii">
          -8.33395e-11 -8.4306e-11 -9.9604e-12 -9.70835e-12 -5.40827e-11 -5.30003e-11 -2.38925e-11 -2.37822e-11 -9.53492e-11 -7.91344e-11 -1.13323e-10 -1.47259e-10
          -1.35068e-10 -1.36549e-10 -1.93568e-11 -1.92841e-11 -8.15978e-11 -7.68681e-11 0 -2.1134e-32 -9.13678e-12 -8.96111e-12 -3.49828e-12 -3.51489e-12
          -1.17682e-12 -1.1738e-12 -5.31374e-13 -5.26623e-13 -1.40238e-13 -1.36134e-13 -5.41019e-14 -5.38195e-14 -2.90525e-14 -2.92191e-14 -2.85204e-14 -2.85085e-14
          -1.77593e-14 -1.77605e-14 -5.17476e-14 -5.17491e-14 -3.34605e-14 -3.3455e-14 -9.00586e-15 -9.00777e-15 -3.36833e-14 -3.36812e-14 -1.39658e-14 -1.39618e-14
          -2.28715e-14 -2.2904e-14 -7.274e-15 -7.25496e-15 -1.57843e-14 -1.58084e-14 -6.79216e-15 -6.7958e-15 -1.32675e-15 -1.32371e-15 -8.00853e-16 -8.00824e-16
          -5.89093e-16 -5.88692e-16 -1.53256e-16 -1.53299e-16 0 0
        </DataArray>
        <DataArray type="Float32" Name="Decay_rate" NumberOfComponents="1" format="ascii">
          7.61721e-10 7.62e-10 6.55128e-10 6.53795e-10 3.77903e-10 3.77854e-10 1.60032e-09 1.60116e-09 7.03602e-10 7.04156e-10 1.6189e-09 1.61656e-09
          7.36697e-10 7.38757e-10 1.46104e-09 1.45986e-09 1.44467e-09 1.43476e-09 0 8.30646e-31 1.11215e-09 1.09533e-09 1.2568e-09 1.25636e-09
          1.1845e-09 1.18454e-09 1.44882e-09 1.44911e-09 9.49638e-10 9.49774e-10 8.16856e-10 8.16971e-10 7.7073e-10 7.70779e-10 9.55403e-10 9.5528e-10
          5.21674e-10 5.21665e-10 1.38663e-09 1.38657e-09 1.21758e-09 1.21756e-09 4.36498e-10 4.36521e-10 1.30604e-09 1.30607e-09 4.24316e-10 4.24305e-10
          9.65096e-10 9.65151e-10 4.11943e-10 4.1195e-10 1.32895e-09 1.32896e-09 9.51977e-10 9.51944e-10 3.40958e-10 3.40959e-10 4.02729e-10 4.02747e-10
          6.23568e-10 6.2362e-10 4.17177e-10 4.1721e-10 1.82913e-10 1.82913e-10
        </DataArray>
        <DataArray type="Float32" Name="Volume_Fraction_Biofilm" NumberOfComponents="1" format="ascii">
          0.000346823 0.00034695 0.000298289 0.000297682 0.000172065 0.000172042 0.000728651 0.000729033 0.00032036 0.000320612 0.000737109 0.000736042
          0.000335429 0.000336367 0.000665232 0.000664693 0.000657778 0.000653268 0 3.78205e-25 0.000506376 0.000498717 0.000572242 0.000572037
          0.000539319 0.00053934 0.000659667 0.0006598 0.000432385 0.000432446 0.000371927 0.000371979 0.000350925 0.000350947 0.000435009 0.000434953
          0.000237526 0.000237522 0.000631352 0.000631324 0.00055438 0.000554373 0.000198744 0.000198754 0.00059466 0.000594671 0.000193197 0.000193192
          0.000439422 0.000439447 0.000187563 0.000187567 0.000605089 0.000605094 0.000433449 0.000433434 0.000155243 0.000155244 0.000183369 0.000183378
          0.000283922 0.000283945 0.000189948 0.000189963 8.32836e-05 8.32833e-05
        </DataArray>
        <DataArray type="Float32" Name="Volume_Fraction_Calcite" NumberOfComponents="1" format="ascii">
          0.00447165 0.00446726 0.00391385 0.00391903 0.00218697 0.00218853 0.00831001 0.00828787 0.00368281 0.00367689 0.00793925 0.00796731
          0.00387136 0.00389922 0.00770989 0.0077442 0.00758398 0.00755357 7.27563e-05 7.10229e-05 0.0060478 0.00597783 0.00554561 0.00561716
          0.00521421 0.00512716 0.00642302 0.00627769 0.00473343 0.0046333 0.00435703 0.00427675 0.00431919 0.00427051 0.00524856 0.00527541
          0.00425715 0.0042561 0.00521817 0.00522633 0.00533837 0.00532552 0.00405215 0.00405209 0.00564359 0.00564426 0.00406434 0.00406443
          0.00534544 0.005344 0.00290741 0.00290768 0.00534435 0.00534369 0.0044968 0.00450542 0.00248966 0.00248935 0.00267903 0.00267923
          0.0026082 0.00260829 0.00102106 0.00102116 0 0
        </DataArray>
        <DataArray type="Float32" Name="Kxx" NumberOfComponents="1" format="ascii">
          1.92859e-10 1.92865e-10 1.93748e-10 1.93741e-10 1.96482e-10 1.9648e-10 1.86746e-10 1.86777e-10 1.94055e-10 1.94063e-10 1.87266e-10 1.87227e-10
          1.93756e-10 1.93714e-10 1.87699e-10 1.8765e-10 1.8789e-10 1.87941e-10 1.99891e-10 1.99893e-10 1.90329e-10 1.90442e-10 1.90963e-10 1.90859e-10
          1.91493e-10 1.9162e-10 1.89563e-10 1.89773e-10 1.92351e-10 1.92497e-10 1.9299e-10 1.93108e-10 1.93076e-10 1.93148e-10 1.91595e-10 1.91556e-10
          1.93333e-10 1.93335e-10 1.91353e-10 1.91342e-10 1.9129e-10 1.91309e-10 1.93691e-10 1.93691e-10 1.90788e-10 1.90787e-10 1.93681e-10 1.93681e-10
          1.91448e-10 1.9145e-10 1.95393e-10 1.95393e-10 1.91208e-10 1.91209e-10 1.92695e-10 1.92683e-10 1.96059e-10 1.96059e-10 1.95737e-10 1.95737e-10
          1.95693e-10 1.95693e-10 1.98189e-10 1.98189e-10 1.99875e-10 1.99875e-10
        </DataArray>
        <DataArray type="Float32" Name="X_lBrine" NumberOfComponents="1" format="ascii">
          0.951384 0.951384 0.951384 0.951384 0.951384 0.951384 0.951384 0.951384 0.951384 0.951384 0.951384 0.951384
          0.951385 0.951385 0.951385 0.951385 0.951385 0.951385 0.951387 0.951387 0.951389 0.951389 0.951392 0.951392
          0.951395 0.951395 0.9514 0.9514 0.951405 0.951405 0.951411 0.951411 0.951419 0.951419 0.951449 0.951449
          0.951507 0.951507 0.951616 0.951616 0.951812 0.951812 0.952174 0.952174 0.95286 0.95286 0.954173 0.954173
          0.956694 0.956693 0.958613 0.958612 0.961109 0.961112 0.964296 0.964295 0.968193 0.968193 0.972833 0.972834
          0.978166 0.978166 0.984003 0.984003 0.99029 0.99029
        </DataArray>
        <DataArray type="Float32" Name="X_lTotalC" NumberOfComponents="1" format="ascii">
          7.41335e-05 7.41335e-05 7.41301e-05 7.41301e-05 7.41434e-05 7.41434e-05 7.41593e-05 7.41593e-05 7.41791e-05 7.41791e-05 7.42014e-05 7.42014e-05
          7.42232e-05 7.42232e-05 7.42427e-05 7.42427e-05 7.42562e-05 7.42562e-05 7.4241e-05 7.4241e-05 7.41919e-05 7.41918e-05 7.40552e-05 7.40551e-05
          7.38814e-05 7.38814e-05 7.37154e-05 7.37154e-05 7.3589e-05 7.3589e-05 7.35165e-05 7.35165e-05 7.34983e-05 7.34983e-05 7.36805e-05 7.36805e-05
          7.39178e-05 7.39178e-05 7.39296e-05 7.39296e-05 7.42484e-05 7.42484e-05 7.47627e-05 7.47627e-05 7.48598e-05 7.48598e-05 7.5253e-05 7.5253e-05
          7.54262e-05 7.5426e-05 7.56919e-05 7.56917e-05 7.60988e-05 7.60992e-05 7.65468e-05 7.65467e-05 7.67435e-05 7.67435e-05 7.6206e-05 7.62061e-05
          7.44198e-05 7.442e-05 7.15524e-05 7.15535e-05 5.81077e-07 5.81077e-07
        </DataArray>
        <DataArray type="Float32" Name="X_lNa" NumberOfComponents="1" format="ascii">
          1.22316e-07 1.22316e-07 1.22313e-07 1.22313e-07 1.22324e-07 1.22324e-07 1.22339e-07 1.22339e-07 1.22359e-07 1.22359e-07 1.22385e-07 1.22385e-07
          1.22417e-07 1.22417e-07 1.22454e-07 1.22454e-07 1.22497e-07 1.22497e-07 1.22638e-07 1.22638e-07 1.22825e-07 1.22825e-07 1.23063e-07 1.23063e-07
          1.23359e-07 1.23359e-07 1.23725e-07 1.23725e-07 1.24182e-07 1.24182e-07 1.24755e-07 1.24755e-07 1.2548e-07 1.2548e-07 1.28376e-07 1.28376e-07
          1.33854e-07 1.33855e-07 1.43984e-07 1.43983e-07 1.6245e-07 1.62449e-07 1.96397e-07 1.96398e-07 2.60585e-07 2.6058e-07 3.83381e-07 3.83421e-07
          6.19206e-07 6.191e-07 7.98775e-07 7.98712e-07 1.03234e-06 1.03254e-06 1.33044e-06 1.33039e-06 1.69502e-06 1.69496e-06 2.12891e-06 2.12895e-06
          2.62741e-06 2.62738e-06 3.1728e-06 3.17282e-06 3.74881e-06 3.74881e-06
        </DataArray>
        <DataArray type="Float32" Name="X_lCl" NumberOfComponents="1" format="ascii">
          0.0306902 0.0306902 0.0306902 0.0306902 0.0306901 0.0306901 0.03069 0.03069 0.0306899 0.0306899 0.0306897 0.0306897
          0.0306895 0.0306895 0.0306892 0.0306892 0.030689 0.030689 0.030688 0.030688 0.0306868 0.0306868 0.0306852 0.0306852
          0.0306833 0.0306833 0.0306808 0.0306808 0.0306778 0.0306778 0.030674 0.030674 0.0306692 0.0306692 0.0306499 0.0306499
          0.0306134 0.0306134 0.030546 0.030546 0.030423 0.030423 0.030197 0.030197 0.0297698 0.0297698 0.0289524 0.0289522
          0.0273827 0.0273834 0.0261875 0.0261879 0.0246328 0.0246315 0.0226486 0.0226489 0.0202219 0.0202223 0.0173339 0.0173337
          0.014016 0.0140161 0.0103859 0.0103858 0.00655617 0.00655617
        </DataArray>
        <DataArray type="Float32" Name="X_lCa" NumberOfComponents="1" format="ascii">
          0.000371852 0.000371852 0.000371849 0.000371849 0.000371861 0.000371861 0.000371874 0.000371874 0.000371891 0.000371891 0.00037191 0.00037191
          0.00037193 0.00037193 0.000371948 0.000371948 0.000371961 0.000371961 0.000371966 0.000371966 0.000371877 0.000371877 0.000371721 0.000371721
          0.000371534 0.000371534 0.000371351 0.000371351 0.000371197 0.000371197 0.000371083 0.000371083 0.000371005 0.000371005 0.000370928 0.000370928
          0.000370688 0.000370688 0.000369843 0.000369843 0.000368584 0.000368584 0.000366239 0.000366239 0.000360893 0.000360894 0.000350974 0.000350971
          0.000331259 0.000331268 0.000316402 0.000316407 0.000297132 0.000297115 0.000272481 0.000272485 0.000242023 0.000242028 0.000205055 0.000205052
          0.000161509 0.000161511 0.000113039 0.000113038 0 0
        </DataArray>
        <DataArray type="Float32" Name="X_lUrea" NumberOfComponents="1" format="ascii">
          4.03569e-09 4.0376e-09 3.95396e-09 3.95221e-09 4.38169e-09 4.38154e-09 4.64835e-09 4.64823e-09 6.10747e-09 6.10942e-09 7.88858e-09 7.89568e-09
          1.16453e-08 1.16568e-08 1.59706e-08 1.60076e-08 2.35402e-08 2.36306e-08 6.88165e-08 6.88584e-08 2.62774e-08 2.65218e-08 8.79882e-09 8.81339e-09
          2.96542e-09 2.96609e-09 8.73496e-10 8.73567e-10 3.95834e-10 3.95866e-10 2.826e-10 2.82619e-10 3.41312e-10 3.4131e-10 1.20022e-09 1.20007e-09
          7.85247e-09 7.85244e-09 1.03427e-09 1.03443e-09 6.06148e-09 6.06061e-09 6.8689e-08 6.86886e-08 1.17446e-08 1.17431e-08 8.28353e-08 8.28319e-08
          1.37213e-08 1.3729e-08 1.09261e-08 1.09283e-08 5.15377e-09 5.14955e-09 1.22306e-08 1.22278e-08 3.46143e-08 3.46121e-08 3.53897e-08 3.53911e-08
          2.1148e-08 2.11474e-08 1.26896e-08 1.26894e-08 0 0
        </DataArray>
        <DataArray type="Float32" Name="X_lTotalNH" NumberOfComponents="1" format="ascii">
          0.0144839 0.0144839 0.0144839 0.0144839 0.0144839 0.0144839 0.0144838 0.0144838 0.0144838 0.0144838 0.0144837 0.0144837
          0.0144836 0.0144836 0.0144834 0.0144834 0.0144833 0.0144833 0.0144828 0.0144828 0.0144823 0.0144823 0.0144816 0.0144816
          0.0144806 0.0144806 0.0144795 0.0144795 0.0144781 0.0144781 0.0144763 0.0144763 0.014474 0.014474 0.014465 0.014465
          0.0144478 0.0144478 0.0144162 0.0144162 0.0143584 0.0143584 0.0142523 0.0142522 0.0140516 0.0140516 0.0136677 0.0136676
          0.0129306 0.0129309 0.0123692 0.0123694 0.0116391 0.0116384 0.0107072 0.0107073 0.00956748 0.00956768 0.00821115 0.00821104
          0.0066529 0.00665297 0.00494806 0.004948 0.00314947 0.00314947
        </DataArray>
        <DataArray type="Float32" Name="X_lO2" NumberOfComponents="1" format="ascii">
          -3.27893e-11 -3.31568e-11 -4.56302e-12 -4.45665e-12 -4.28679e-11 -4.20173e-11 -4.48082e-12 -4.4578e-12 -4.05971e-11 -3.36786e-11 -2.09911e-11 -2.73081e-11
          -5.48847e-11 -5.53307e-11 -3.97637e-12 -3.96466e-12 -1.6941e-11 -1.607e-11 -7.62101e-12 -7.63486e-12 -2.46593e-12 -2.45566e-12 -8.35551e-13 -8.39818e-13
          -2.98247e-13 -2.9747e-13 -1.10101e-13 -1.09095e-13 -4.43315e-14 -4.30281e-14 -1.98827e-14 -1.97761e-14 -1.13159e-14 -1.13801e-14 -8.96157e-15 -8.95901e-15
          -1.022e-14 -1.02209e-14 -1.12041e-14 -1.12049e-14 -8.25127e-15 -8.25003e-15 -6.19579e-15 -6.19678e-15 -7.74713e-15 -7.74649e-15 -9.89253e-15 -9.88997e-15
          -7.13069e-15 -7.14043e-15 -5.31751e-15 -5.30349e-15 -3.58066e-15 -3.58612e-15 -2.15395e-15 -2.15518e-15 -1.17678e-15 -1.17408e-15 -6.02638e-16 -6.0259e-16
          -2.87022e-16 -2.86803e-16 -1.11981e-16 -1.12004e-16 0 0
        </DataArray>
        <DataArray type="Float32" Name="X_lSubstrate" NumberOfComponents="1" format="ascii">
          0.002996 0.002996 0.002996 0.002996 0.00299599 0.00299599 0.00299598 0.00299598 0.00299596 0.00299596 0.00299594 0.00299594
          0.00299591 0.00299591 0.00299588 0.00299588 0.00299585 0.00299585 0.00299573 0.00299573 0.00299558 0.00299558 0.00299538 0.00299538
          0.00299514 0.00299514 0.00299484 0.00299484 0.00299446 0.00299446 0.00299399 0.00299399 0.00299339 0.00299339 0.00299099 0.00299099
          0.00298647 0.00298647 0.0029781 0.0029781 0.00296284 0.00296284 0.00293478 0.00293478 0.00288175 0.00288175 0.00278028 0.00278025
          0.00258543 0.00258552 0.00243706 0.00243711 0.00224407 0.0022439 0.00199776 0.0019978 0.00169652 0.00169657 0.00133801 0.00133799
          0.000926138 0.000926156 0.000475513 0.000475497 0 0
        </DataArray>
        <DataArray type="Float32" Name="X_lSuspended_Biomass" NumberOfComponents="1" format="ascii">
          1.05551e-07 1.05574e-07 1.0556e-07 1.05566e-07 1.05597e-07 1.05619e-07 1.05651e-07 1.05685e-07 1.05884e-07 1.0592e-07 1.06187e-07 1.06229e-07
          1.06581e-07 1.06614e-07 1.06961e-07 1.06989e-07 1.0733e-07 1.07349e-07 1.06807e-07 1.06809e-07 1.04382e-07 1.04388e-07 1.00675e-07 1.00684e-07
          9.67032e-08 9.6711e-08 9.36727e-08 9.36826e-08 9.24561e-08 9.24639e-08 9.43167e-08 9.43244e-08 9.99338e-08 9.99399e-08 1.19084e-07 1.19087e-07
          1.40576e-07 1.40578e-07 1.96697e-07 1.96714e-07 2.38231e-07 2.38227e-07 2.51749e-07 2.51752e-07 3.39103e-07 3.391e-07 2.92935e-07 2.92932e-07
          3.16504e-07 3.16503e-07 3.51592e-07 3.51563e-07 4.13793e-07 4.13836e-07 4.09676e-07 4.09681e-07 3.60663e-07 3.6067e-07 3.21511e-07 3.21507e-07
          2.69436e-07 2.69445e-07 1.58583e-07 1.58578e-07 0 0
        </DataArray>
        <DataArray type="Float32" Name="X_lNH4" NumberOfComponents="1" format="ascii">
          0.0153034 0.0153034 0.0153034 0.0153034 0.0153034 0.0153034 0.0153033 0.0153033 0.0153033 0.0153033 0.0153032 0.0153032
          0.015303 0.015303 0.0153029 0.0153029 0.0153027 0.0153027 0.0153023 0.0153023 0.0153017 0.0153017 0.015301 0.015301
          0.0153001 0.0153001 0.015299 0.015299 0.0152975 0.0152975 0.0152956 0.0152956 0.0152932 0.0152932 0.0152836 0.0152836
          0.0152653 0.0152653 0.0152318 0.0152318 0.0151705 0.0151705 0.0150578 0.0150578 0.0148453 0.0148453 0.0144385 0.0144383
          0.0136576 0.013658 0.013063 0.0130632 0.0122895 0.0122888 0.0113024 0.0113025 0.0100953 0.0100955 0.00865911 0.00865899
          0.00700974 0.00700981 0.00520568 0.00520562 0.00333307 0.00333307
        </DataArray>
        <DataArray type="Float32" Name="X_lHCO3" NumberOfComponents="1" format="ascii">
          7.58704e-05 7.58704e-05 7.5866e-05 7.5866e-05 7.58829e-05 7.58829e-05 7.59029e-05 7.59029e-05 7.59281e-05 7.59281e-05 7.59563e-05 7.59563e-05
          7.59839e-05 7.59839e-05 7.60088e-05 7.60087e-05 7.60259e-05 7.60259e-05 7.60073e-05 7.60073e-05 7.59458e-05 7.59457e-05 7.57738e-05 7.57738e-05
          7.55554e-05 7.55554e-05 7.53471e-05 7.53471e-05 7.51891e-05 7.51891e-05 7.50994e-05 7.50994e-05 7.50787e-05 7.50787e-05 7.53174e-05 7.53174e-05
          7.56338e-05 7.56339e-05 7.56801e-05 7.56801e-05 7.61403e-05 7.61403e-05 7.68972e-05 7.68972e-05 7.72236e-05 7.72236e-05 7.81197e-05 7.81199e-05
          7.91303e-05 7.91298e-05 8.00975e-05 8.00971e-05 8.14722e-05 8.14734e-05 8.32022e-05 8.3202e-05 8.49729e-05 8.49726e-05 8.62391e-05 8.62394e-05
          8.63962e-05 8.63964e-05 8.56985e-05 8.57001e-05 3.37056e-07 3.37056e-07
        </DataArray>
        <DataArray type="Float32" Name="X_lCO3" NumberOfComponents="1" format="ascii">
          2.68353e-08 2.68353e-08 2.68326e-08 2.68326e-08 2.68431e-08 2.68431e-08 2.68554e-08 2.68554e-08 2.68709e-08 2.68709e-08 2.68884e-08 2.68884e-08
          2.69055e-08 2.69055e-08 2.69209e-08 2.69209e-08 2.69317e-08 2.69316e-08 2.6921e-08 2.6921e-08 2.68833e-08 2.68832e-08 2.67781e-08 2.67781e-08
          2.6645e-08 2.6645e-08 2.65185e-08 2.65185e-08 2.64232e-08 2.64233e-08 2.63701e-08 2.63701e-08 2.63595e-08 2.63595e-08 2.65133e-08 2.65133e-08
          2.67225e-08 2.67225e-08 2.67794e-08 2.67794e-08 2.71159e-08 2.71159e-08 2.7687e-08 2.7687e-08 2.80861e-08 2.8086e-08 2.90528e-08 2.90531e-08
          3.05545e-08 3.05537e-08 3.19331e-08 3.19325e-08 3.39724e-08 3.39742e-08 3.68847e-08 3.68842e-08 4.07873e-08 4.07866e-08 4.5819e-08 4.58196e-08
          5.23945e-08 5.23944e-08 6.28405e-08 6.28431e-08 2.55591e-11 2.55591e-11
        </DataArray>
        <DataArray type="Float32" Name="X_lCO2" NumberOfComponents="1" format="ascii">
          1.9404e-05 1.9404e-05 1.94037e-05 1.94037e-05 1.94049e-05 1.94049e-05 1.94062e-05 1.94062e-05 1.9408e-05 1.9408e-05 1.94099e-05 1.94099e-05
          1.94117e-05 1.94117e-05 1.94134e-05 1.94134e-05 1.94145e-05 1.94145e-05 1.94127e-05 1.94127e-05 1.9408e-05 1.9408e-05 1.93953e-05 1.93953e-05
          1.93792e-05 1.93792e-05 1.93635e-05 1.93635e-05 1.93511e-05 1.93511e-05 1.93433e-05 1.93433e-05 1.93401e-05 1.93401e-05 1.935e-05 1.935e-05
          1.9359e-05 1.93589e-05 1.93373e-05 1.93373e-05 1.93241e-05 1.93241e-05 1.92921e-05 1.92921e-05 1.91536e-05 1.91536e-05 1.88999e-05 1.88998e-05
          1.83432e-05 1.83434e-05 1.79105e-05 1.79106e-05 1.73246e-05 1.73241e-05 1.65228e-05 1.6523e-05 1.54399e-05 1.54401e-05 1.39856e-05 1.39855e-05
          1.20813e-05 1.20814e-05 9.70932e-06 9.70927e-06 3.38012e-07 3.38012e-07
        </DataArray>
        <DataArray type="Float32" Name="X_lH" NumberOfComponents="1" format="ascii">
          1.87301e-10 1.87301e-10 1.87308e-10 1.87308e-10 1.87278e-10 1.87278e-10 1.87243e-10 1.87243e-10 1.87198e-10 1.87198e-10 1.87148e-10 1.87148e-10
          1.87099e-10 1.87099e-10 1.87055e-10 1.87055e-10 1.87024e-10 1.87024e-10 1.87052e-10 1.87052e-10 1.87155e-10 1.87155e-10 1.8745e-10 1.8745e-10
          1.87827e-10 1.87827e-10 1.88186e-10 1.88186e-10 1.88454e-10 1.88454e-10 1.88599e-10 1.88598e-10 1.88616e-10 1.88616e-10 1.88115e-10 1.88115e-10
          1.87411e-10 1.87411e-10 1.87061e-10 1.87061e-10 1.85769e-10 1.85769e-10 1.83571e-10 1.83571e-10 1.8132e-10 1.8132e-10 1.7657e-10 1.76569e-10
          1.68589e-10 1.68593e-10 1.6218e-10 1.62182e-10 1.53658e-10 1.53651e-10 1.4278e-10 1.42782e-10 1.29764e-10 1.29767e-10 1.14763e-10 1.14762e-10
          9.7731e-11 9.77315e-11 7.78581e-11 7.78562e-11 6.32454e-10 6.32454e-10
        </DataArray>
        <DataArray type="Float32" Name="X_lOH" NumberOfComponents="1" format="ascii">
          8.55455e-07 8.55455e-07 8.5542e-07 8.5542e-07 8.55557e-07 8.55557e-07 8.55719e-07 8.55719e-07 8.55923e-07 8.55923e-07 8.56152e-07 8.56152e-07
          8.56378e-07 8.56378e-07 8.56581e-07 8.56581e-07 8.56724e-07 8.56724e-07 8.56594e-07 8.56594e-07 8.56127e-07 8.56126e-07 8.54782e-07 8.54782e-07
          8.53072e-07 8.53072e-07 8.51451e-07 8.51451e-07 8.50245e-07 8.50245e-07 8.49601e-07 8.49601e-07 8.49532e-07 8.49532e-07 8.51832e-07 8.51832e-07
          8.55102e-07 8.55103e-07 8.56833e-07 8.56833e-07 8.63033e-07 8.63032e-07 8.73808e-07 8.73809e-07 8.85515e-07 8.85514e-07 9.11019e-07 9.11026e-07
          9.57542e-07 9.57519e-07 9.98073e-07 9.98058e-07 1.05712e-06 1.05718e-06 1.14275e-06 1.14274e-06 1.26424e-06 1.26422e-06 1.43877e-06 1.43879e-06
          1.70208e-06 1.70207e-06 2.15386e-06 2.15392e-06 2.67481e-07 2.67481e-07
        </DataArray>
        <DataArray type="Float32" Name="X_gBrine" NumberOfComponents="1" format="ascii">
          0.0111582 0.0111582 0.0111522 0.0111522 0.0111643 0.0111643 0.0111703 0.0111703 0.0111763 0.0111763 0.0111823 0.0111823
          0.0111883 0.0111883 0.0111944 0.0111944 0.0112004 0.0112004 0.0112186 0.0112186 0.0112369 0.0112369 0.0112552 0.0112552
          0.0112735 0.0112735 0.011292 0.011292 0.0113104 0.0113104 0.011329 0.011329 0.0113476 0.0113476 0.0113989 0.0113989
          0.0114506 0.0114506 0.011503 0.011503 0.0115561 0.0115561 0.01161 0.01161 0.0116652 0.0116652 0.0117224 0.0117224
          0.0117831 0.0117831 0.0118131 0.0118131 0.0118447 0.0118447 0.011878 0.011878 0.0119132 0.0119132 0.0119501 0.0119501
          0.0119888 0.0119888 0.0120288 0.0120288 0.0120698 0.0120698
        </DataArray>
        <DataArray type="Float32" Name="X_gTotalC" NumberOfComponents="1" format="ascii">
          0.988842 0.988842 0.988848 0.988848 0.988836 0.988836 0.98883 0.98883 0.988824 0.988824 0.988818 0.988818
          0.988812 0.988812 0.988806 0.988806 0.9888 0.9888 0.988781 0.988781 0.988763 0.988763 0.988745 0.988745
          0.988726 0.988726 0.988708 0.988708 0.98869 0.98869 0.988671 0.988671 0.988652 0.988652 0.988601 0.988601
          0.988549 0.988549 0.988497 0.988497 0.988444 0.988444 0.98839 0.98839 0.988335 0.988335 0.988278 0.988278
          0.988217 0.988217 0.988187 0.988187 0.988155 0.988155 0.988122 0.988122 0.988087 0.988087 0.98805 0.98805
          0.988011 0.988011 0.987971 0.987971 0.98793 0.98793
        </DataArray>
        <DataArray type="Float32" Name="X_gNa" NumberOfComponents="1" format="ascii">
          0 0 0 0 0 0 0 0 0 0 0 0
          0 0 0 0 0 0 0 0 0 0 0 0
          0 0 0 0 0 0 0 0 0 0 0 0
          0 0 0 0 0 0 0 0 0 0 0 0
          0 0 0 0 0 0 0 0 0 0 0 0
          0 0 0 0 0 0
        </DataArray>
        <DataArray type="Float32" Name="X_gCl" NumberOfComponents="1" format="ascii">
          0 0 0 0 0 0 0 0 0 0 0 0
          0 0 0 0 0 0 0 0 0 0 0 0
          0 0 0 0 0 0 0 0 0 0 0 0
          0 0 0 0 0 0 0 0 0 0 0 0
          0 0 0 0 0 0 0 0 0 0 0 0
          0 0 0 0 0 0
        </DataArray>
        <DataArray type="Float32" Name="X_gCa" NumberOfComponents="1" format="ascii">
          0 0 0 0 0 0 0 0 0 0 0 0
          0 0 0 0 0 0 0 0 0 0 0 0
          0 0 0 0 0 0 0 0 0 0 0 0
          0 0 0 0 0 0 0 0 0 0 0 0
          0 0 0 0 0 0 0 0 0 0 0 0
          0 0 0 0 0 0
        </DataArray>
        <DataArray type="Float32" Name="X_gUrea" NumberOfComponents="1" format="ascii">
          0 0 0 0 0 0 0 0 0 0 0 0
          0 0 0 0 0 0 0 0 0 0 0 0
          0 0 0 0 0 0 0 0 0 0 0 0
          0 0 0 0 0 0 0 0 0 0 0 0
          0 0 0 0 0 0 0 0 0 0 0 0
          0 0 0 0 0 0
        </DataArray>
        <DataArray type="Float32" Name="X_gTotalNH" NumberOfComponents="1" format="ascii">
          0 0 0 0 0 0 0 0 0 0 0 0
          0 0 0 0 0 0 0 0 0 0 0 0
          0 0 0 0 0 0 0 0 0 0 0 0
          0 0 0 0 0 0 0 0 0 0 0 0
          0 0 0 0 0 0 0 0 0 0 0 0
          0 0 0 0 0 0
        </DataArray>
        <DataArray type="Float32" Name="X_gO2" NumberOfComponents="1" format="ascii">
          0 0 0 0 0 0 0 0 0 0 0 0
          0 0 0 0 0 0 0 0 0 0 0 0
          0 0 0 0 0 0 0 0 0 0 0 0
          0 0 0 0 0 0 0 0 0 0 0 0
          0 0 0 0 0 0 0 0 0 0 0 0
          0 0 0 0 0 0
        </DataArray>
        <DataArray type="Float32" Name="X_gSubstrate" NumberOfComponents="1" format="ascii">
          0 0 0 0 0 0 0 0 0 0 0 0
          0 0 0 0 0 0 0 0 0 0 0 0
          0 0 0 0 0 0 0 0 0 0 0 0
          0 0 0 0 0 0 0 0 0 0 0 0
          0 0 0 0 0 0 0 0 0 0 0 0
          0 0 0 0 0 0
        </DataArray>
        <DataArray type="Float32" Name="X_gSuspended_Biomass" NumberOfComponents="1" format="ascii">
          0 0 0 0 0 0 0 0 0 0 0 0
          0 0 0 0 0 0 0 0 0 0 0 0
          0 0 0 0 0 0 0 0 0 0 0 0
          0 0 0 0 0 0 0 0 0 0 0 0
          0 0 0 0 0 0 0 0 0 0 0 0
          0 0 0 0 0 0
        </DataArray>
        <DataArray type="Float32" Name="X_gNH4" NumberOfComponents="1" format="ascii">
          0 0 0 0 0 0 0 0 0 0 0 0
          0 0 0 0 0 0 0 0 0 0 0 0
          0 0 0 0 0 0 0 0 0 0 0 0
          0 0 0 0 0 0 0 0 0 0 0 0
          0 0 0 0 0 0 0 0 0 0 0 0
          0 0 0 0 0 0
        </DataArray>
        <DataArray type="Float32" Name="X_gHCO3" NumberOfComponents="1" format="ascii">
          0 0 0 0 0 0 0 0 0 0 0 0
          0 0 0 0 0 0 0 0 0 0 0 0
          0 0 0 0 0 0 0 0 0 0 0 0
          0 0 0 0 0 0 0 0 0 0 0 0
          0 0 0 0 0 0 0 0 0 0 0 0
          0 0 0 0 0 0
        </DataArray>
        <DataArray type="Float32" Name="X_gCO3" NumberOfComponents="1" format="ascii">
          0 0 0 0 0 0 0 0 0 0 0 0
          0 0 0 0 0 0 0 0 0 0 0 0
          0 0 0 0 0 0 0 0 0 0 0 0
          0 0 0 0 0 0 0 0 0 0 0 0
          0 0 0 0 0 0 0 0 0 0 0 0
          0 0 0 0 0 0
        </DataArray>
        <DataArray type="Float32" Name="X_gCO2" NumberOfComponents="1" format="ascii">
          0.988842 0.988842 0.988848 0.988848 0.988836 0.988836 0.98883 0.98883 0.988824 0.988824 0.988818 0.988818
          0.988812 0.988812 0.988806 0.988806 0.9888 0.9888 0.988781 0.988781 0.988763 0.988763 0.988745 0.988745
          0.988726 0.988726 0.988708 0.988708 0.98869 0.98869 0.988671 0.988671 0.988652 0.988652 0.988601 0.988601
          0.988549 0.988549 0.988497 0.988497 0.988444 0.988444 0.98839 0.98839 0.988335 0.988335 0.988278 0.988278
          0.988217 0.988217 0.988187 0.988187 0.988155 0.988155 0.988122 0.988122 0.988087 0.988087 0.98805 0.98805
          0.988011 0.988011 0.987971 0.987971 0.98793 0.98793
        </DataArray>
        <DataArray type="Float32" Name="X_gH" NumberOfComponents="1" format="ascii">
          0 0 0 0 0 0 0 0 0 0 0 0
          0 0 0 0 0 0 0 0 0 0 0 0
          0 0 0 0 0 0 0 0 0 0 0 0
          0 0 0 0 0 0 0 0 0 0 0 0
          0 0 0 0 0 0 0 0 0 0 0 0
          0 0 0 0 0 0
        </DataArray>
        <DataArray type="Float32" Name="X_gOH" NumberOfComponents="1" format="ascii">
          0 0 0 0 0 0 0 0 0 0 0 0
          0 0 0 0 0 0 0 0 0 0 0 0
          0 0 0 0 0 0 0 0 0 0 0 0
          0 0 0 0 0 0 0 0 0 0 0 0
          0 0 0 0 0 0 0 0 0 0 0 0
          0 0 0 0 0 0
        </DataArray>
        <DataArray type="Float32" Name="Molarity_Brine" NumberOfComponents="1" format="ascii">
          53769.3 53769.3 53769.3 53769.3 53769.3 53769.3 53769.4 53769.4 53769.4 53769.4 53769.4 53769.4
          53769.4 53769.4 53769.4 53769.4 53769.4 53769.4 53769.4 53769.4 53769.5 53769.5 53769.6 53769.6
          53769.7 53769.7 53769.8 53769.8 53770 53770 53770.2 53770.2 53770.5 53770.5 53771.5 53771.5
          53773.4 53773.4 53777 53777 53783.6 53783.6 53795.7 53795.7 53818.7 53818.7 53862.6 53862.6
          53946.8 53946.8 54010.8 54010.8 54093.8 54093.9 54199.4 54199.4 54328.2 54328.2 54480.9 54480.9
          54655.6 54655.6 54845.7 54845.7 55049.2 55049.2
        </DataArray>
        <DataArray type="Float32" Name="Molarity_TotalC" NumberOfComponents="1" format="ascii">
          1.71546 1.71546 1.71538 1.71538 1.71569 1.71569 1.71605 1.71605 1.71651 1.71651 1.71703 1.71703
          1.71753 1.71753 1.71798 1.71798 1.71829 1.71829 1.71794 1.71794 1.7168 1.7168 1.71364 1.71364
          1.70961 1.70961 1.70577 1.70577 1.70284 1.70284 1.70116 1.70116 1.70073 1.70073 1.70492 1.70492
          1.71037 1.71037 1.71057 1.71057 1.7178 1.7178 1.72943 1.72943 1.73117 1.73117 1.73928 1.73928
          1.74141 1.74141 1.74611 1.74611 1.75363 1.75364 1.76156 1.76156 1.76316 1.76316 1.74736 1.74736
          1.70253 1.70254 1.63289 1.63291 0.0132254 0.0132254
        </DataArray>
        <DataArray type="Float32" Name="Molarity_Na" NumberOfComponents="1" format="ascii">
          0.00541707 0.00541707 0.00541694 0.00541694 0.00541746 0.00541746 0.0054181 0.0054181 0.005419 0.005419 0.00542016 0.00542016
          0.00542156 0.00542156 0.00542321 0.00542321 0.0054251 0.0054251 0.00543135 0.00543135 0.00543961 0.00543961 0.00545016 0.00545016
          0.00546324 0.00546324 0.00547946 0.00547946 0.00549966 0.00549966 0.00552502 0.00552502 0.00555714 0.00555714 0.0056853 0.00568529
          0.00592777 0.00592781 0.00637607 0.00637603 0.00719318 0.00719314 0.008695 0.00869506 0.0115334 0.0115332 0.0169588 0.0169605
          0.027361 0.0273563 0.0352667 0.0352639 0.0455302 0.0455392 0.0585982 0.058596 0.0745319 0.0745291 0.0934259 0.0934274
          0.115041 0.11504 0.138578 0.138578 0.1633 0.1633
        </DataArray>
        <DataArray type="Float32" Name="Molarity_Cl" NumberOfComponents="1" format="ascii">
          881.382 881.382 881.382 881.382 881.38 881.38 881.377 881.377 881.373 881.373 881.368 881.368
          881.362 881.362 881.354 881.354 881.346 881.346 881.318 881.318 881.282 881.282 881.236 881.236
          881.178 881.178 881.107 881.107 881.018 881.018 880.906 880.906 880.764 880.764 880.199 880.199
          879.129 879.129 877.152 877.152 873.548 873.548 866.925 866.924 854.408 854.409 830.483 830.476
          784.612 784.633 749.75 749.762 704.49 704.45 646.861 646.871 576.595 576.607 493.273 493.267
          397.951 397.955 294.154 294.15 185.193 185.193
        </DataArray>
        <DataArray type="Float32" Name="Molarity_Ca" NumberOfComponents="1" format="ascii">
          9.44673 9.44673 9.44666 9.44666 9.44695 9.44695 9.44729 9.44729 9.44773 9.44773 9.44822 9.44822
          9.44871 9.44871 9.44916 9.44916 9.4495 9.4495 9.4496 9.4496 9.44735 9.44735 9.44337 9.44337
          9.43861 9.43861 9.43393 9.43393 9.43001 9.43001 9.42708 9.42708 9.42508 9.42508 9.42299 9.42299
          9.41665 9.41665 9.39474 9.39474 9.36197 9.36197 9.30098 9.30097 9.16253 9.16254 8.9057 8.90561
          8.3964 8.39663 8.01325 8.01338 7.5172 7.51677 6.8842 6.8843 6.10454 6.10467 5.16189 5.16182
          4.05649 4.05654 2.83208 2.83207 0 0
        </DataArray>
        <DataArray type="Float32" Name="Molarity_Urea" NumberOfComponents="1" format="ascii">
          6.78051e-05 6.78373e-05 6.6432e-05 6.64027e-05 7.36184e-05 7.36159e-05 7.80987e-05 7.80967e-05 0.000102614 0.000102647 0.000132539 0.000132658
          0.000195657 0.00019585 0.000268328 0.00026895 0.000395507 0.000397026 0.00115621 0.00115691 0.000441496 0.000445601 0.000147832 0.000148076
          4.98229e-05 4.98341e-05 1.46758e-05 1.4677e-05 6.6505e-06 6.65103e-06 4.74802e-06 4.74833e-06 5.73443e-06 5.73439e-06 2.01649e-05 2.01622e-05
          0.000131925 0.000131925 1.73754e-05 1.73781e-05 0.000101822 0.000101808 0.00115368 0.00115367 0.000197201 0.000197175 0.00139009 0.00139003
          0.000230014 0.000230144 0.000183007 0.000183043 8.62314e-05 8.61607e-05 0.000204361 0.000204315 0.000577411 0.000577375 0.000589181 0.000589204
          0.000351282 0.000351274 0.000210262 0.000210259 0 0
        </DataArray>
        <DataArray type="Float32" Name="Molarity_TotalNH" NumberOfComponents="1" format="ascii">
          865.89 865.89 865.891 865.891 865.888 865.888 865.885 865.885 865.881 865.881 865.876 865.876
          865.87 865.87 865.863 865.863 865.854 865.854 865.826 865.826 865.792 865.792 865.747 865.747
          865.691 865.691 865.621 865.621 865.534 865.534 865.425 865.425 865.286 865.286 864.733 864.733
          863.687 863.687 861.754 861.754 858.23 858.231 851.752 851.752 839.516 839.517 816.121 816.114
          771.274 771.294 737.187 737.199 692.934 692.895 636.588 636.597 567.884 567.896 486.417 486.41
          393.216 393.22 291.729 291.725 185.193 185.193
        </DataArray>
        <DataArray type="Float32" Name="Molarity_O2" NumberOfComponents="1" format="ascii">
          -1.04328e-06 -1.05497e-06 -1.45185e-07 -1.418e-07 -1.36395e-06 -1.33689e-06 -1.42569e-07 -1.41836e-07 -1.2917e-06 -1.07157e-06 -6.67887e-07 -8.68878e-07
          -1.7463e-06 -1.76049e-06 -1.26519e-07 -1.26146e-07 -5.39022e-07 -5.11307e-07 -2.42482e-07 -2.42923e-07 -7.84599e-08 -7.81331e-08 -2.65851e-08 -2.67209e-08
          -9.48944e-09 -9.46472e-09 -3.50312e-09 -3.4711e-09 -1.41051e-09 -1.36904e-09 -6.32612e-10 -6.29221e-10 -3.6004e-10 -3.62083e-10 -2.85127e-10 -2.85046e-10
          -3.2516e-10 -3.25187e-10 -3.56453e-10 -3.56478e-10 -2.62487e-10 -2.62448e-10 -1.97068e-10 -1.971e-10 -2.46339e-10 -2.46319e-10 -3.14381e-10 -3.143e-10
          -2.26367e-10 -2.26676e-10 -1.68668e-10 -1.68224e-10 -1.13456e-10 -1.13628e-10 -6.81569e-11 -6.81958e-11 -3.71746e-11 -3.70895e-11 -1.89999e-11 -1.89984e-11
          -9.02872e-12 -9.02183e-12 -3.5138e-12 -3.51452e-12 0 0
        </DataArray>
        <DataArray type="Float32" Name="Molarity_Substrate" NumberOfComponents="1" format="ascii">
          16.9317 16.9317 16.9317 16.9317 16.9317 16.9317 16.9316 16.9316 16.9315 16.9315 16.9314 16.9314
          16.9312 16.9312 16.9311 16.9311 16.9308 16.9308 16.9302 16.9302 16.9293 16.9293 16.9282 16.9282
          16.9268 16.9268 16.925 16.925 16.9229 16.9229 16.9201 16.9201 16.9167 16.9167 16.9029 16.9029
          16.8769 16.8769 16.8288 16.8288 16.7412 16.7412 16.5801 16.5801 16.2757 16.2757 15.6939 15.6937
          14.5783 14.5788 13.7304 13.7307 12.6297 12.6287 11.2281 11.2284 9.51924 9.51954 7.49285 7.49269
          5.17461 5.17471 2.65026 2.65017 0 0
        </DataArray>
        <DataArray type="Float32" Name="Molarity_Suspended_Biomass" NumberOfComponents="1" format="ascii">
          0.000107468 0.000107491 0.000107478 0.000107484 0.000107515 0.000107537 0.000107571 0.000107604 0.000107807 0.000107844 0.000108116 0.000108158
          0.000108517 0.00010855 0.000108904 0.000108933 0.000109279 0.000109299 0.000108747 0.000108749 0.000106278 0.000106284 0.000102503 0.000102512
          9.84591e-05 9.84671e-05 9.53734e-05 9.53836e-05 9.41346e-05 9.41425e-05 9.60287e-05 9.60365e-05 0.000101747 0.000101754 0.000121243 0.000121246
          0.000143121 0.000143123 0.000200249 0.000200267 0.000242513 0.000242509 0.000256235 0.000256238 0.000345044 0.00034504 0.0002979 0.000297897
          0.000321522 0.000321522 0.000356873 0.000356845 0.000419562 0.000419605 0.000414824 0.000414829 0.000364589 0.000364596 0.00032437 0.000324365
          0.000271216 0.000271226 0.000159236 0.000159231 0 0
        </DataArray>
        <DataArray type="Float32" Name="Molarity_NH4" NumberOfComponents="1" format="ascii">
          863.761 863.761 863.762 863.762 863.759 863.759 863.756 863.756 863.751 863.751 863.746 863.746
          863.739 863.739 863.731 863.731 863.722 863.722 863.694 863.694 863.661 863.661 863.62 863.62
          863.568 863.568 863.503 863.503 863.419 863.419 863.311 863.311 863.173 863.173 862.616 862.616
          861.564 861.564 859.631 859.631 856.099 856.099 849.609 849.609 837.371 837.372 813.969 813.961
          769.121 769.141 735.031 735.043 690.774 690.735 634.424 634.434 565.728 565.74 484.29 484.284
          391.156 391.16 289.768 289.764 185.037 185.037
        </DataArray>
        <DataArray type="Float32" Name="Molarity_HCO3" NumberOfComponents="1" format="ascii">
          1.26601 1.26601 1.26594 1.26594 1.26622 1.26622 1.26656 1.26656 1.26698 1.26698 1.26745 1.26745
          1.26791 1.26791 1.26832 1.26832 1.26861 1.26861 1.2683 1.2683 1.26727 1.26727 1.2644 1.2644
          1.26075 1.26075 1.25727 1.25727 1.25463 1.25463 1.25313 1.25313 1.25278 1.25278 1.25675 1.25675
          1.262 1.262 1.26271 1.26271 1.27028 1.27028 1.28271 1.28271 1.28778 1.28778 1.30199 1.30199
          1.31742 1.31741 1.33242 1.33242 1.35385 1.35387 1.38072 1.38072 1.40777 1.40776 1.42593 1.42593
          1.42529 1.42529 1.41028 1.41031 0.00553194 0.00553194
        </DataArray>
        <DataArray type="Float32" Name="Molarity_CO3" NumberOfComponents="1" format="ascii">
          0.000455309 0.000455309 0.000455264 0.000455264 0.000455441 0.000455441 0.00045565 0.00045565 0.000455914 0.000455914 0.00045621 0.000456209
          0.0004565 0.0004565 0.000456761 0.000456761 0.000456944 0.000456943 0.000456763 0.000456762 0.000456122 0.000456121 0.000454337 0.000454337
          0.000452077 0.000452077 0.00044993 0.00044993 0.000448313 0.000448314 0.00044741 0.000447411 0.000447229 0.000447229 0.000449832 0.000449832
          0.00045337 0.000453371 0.000454314 0.000454314 0.000459984 0.000459984 0.0004696 0.0004696 0.000476229 0.000476228 0.000492345 0.000492349
          0.000517236 0.000517223 0.000540131 0.000540122 0.000574012 0.000574043 0.000622375 0.000622366 0.000687084 0.000687072 0.000770322 0.000770332
          0.000878877 0.000878876 0.00105149 0.00105154 4.26535e-07 4.26535e-07
        </DataArray>
        <DataArray type="Float32" Name="Molarity_CO2" NumberOfComponents="1" format="ascii">
          0.44901 0.44901 0.449003 0.449003 0.44903 0.44903 0.449062 0.449062 0.449102 0.449102 0.449146 0.449146
          0.449189 0.449189 0.449227 0.449227 0.449252 0.449252 0.44921 0.44921 0.449102 0.449102 0.448808 0.448808
          0.448433 0.448433 0.448069 0.448069 0.447782 0.447782 0.4476 0.4476 0.447524 0.447524 0.447747 0.447747
          0.447944 0.447944 0.447423 0.447423 0.447078 0.447078 0.446269 0.446269 0.442935 0.442936 0.436823 0.436821
          0.423499 0.423505 0.413171 0.413174 0.399231 0.399219 0.380238 0.380241 0.354727 0.354732 0.320681 0.320679
          0.276389 0.276391 0.221575 0.221574 0.00769319 0.00769319
        </DataArray>
        <DataArray type="Float32" Name="Molarity_H" NumberOfComponents="1" format="ascii">
          0.0001892 0.0001892 0.000189208 0.000189208 0.000189178 0.000189178 0.000189142 0.000189142 0.000189097 0.000189097 0.000189046 0.000189046
          0.000188997 0.000188997 0.000188952 0.000188952 0.00018892 0.000188921 0.000188949 0.000188949 0.000189053 0.000189053 0.000189351 0.000189351
          0.000189731 0.000189731 0.000190093 0.000190093 0.000190364 0.000190364 0.000190509 0.000190509 0.000190526 0.000190526 0.000190017 0.000190017
          0.000189301 0.000189301 0.000188939 0.000188939 0.000187618 0.000187618 0.00018537 0.00018537 0.000183043 0.000183043 0.000178148 0.000178147
          0.000169913 0.000169917 0.000163319 0.000163322 0.000154573 0.000154565 0.000143435 0.000143437 0.000130144 0.000130146 0.000114872 0.00011487
          9.76018e-05 9.76024e-05 7.75628e-05 7.7561e-05 0.000628379 0.000628379
        </DataArray>
        <DataArray type="Float32" Name="Molarity_OH" NumberOfComponents="1" format="ascii">
          5.12367e-05 5.12367e-05 5.12346e-05 5.12346e-05 5.12428e-05 5.12428e-05 5.12525e-05 5.12525e-05 5.12647e-05 5.12647e-05 5.12785e-05 5.12785e-05
          5.1292e-05 5.12919e-05 5.13041e-05 5.13041e-05 5.13127e-05 5.13127e-05 5.13048e-05 5.13048e-05 5.12768e-05 5.12767e-05 5.11962e-05 5.11962e-05
          5.10937e-05 5.10937e-05 5.09965e-05 5.09965e-05 5.09242e-05 5.09242e-05 5.08855e-05 5.08855e-05 5.08811e-05 5.08811e-05 5.10182e-05 5.10182e-05
          5.12128e-05 5.12128e-05 5.13141e-05 5.13141e-05 5.1681e-05 5.1681e-05 5.23182e-05 5.23182e-05 5.30036e-05 5.30035e-05 5.44995e-05 5.45e-05
          5.7221e-05 5.72197e-05 5.95943e-05 5.95934e-05 6.3053e-05 6.30562e-05 6.80679e-05 6.8067e-05 7.51796e-05 7.51782e-05 8.53894e-05 8.53905e-05
          0.000100788 0.000100787 0.000127224 0.000127227 1.57575e-05 1.57575e-05
        </DataArray>
        <DataArray type="Float32" Name="Sum_charges" NumberOfComponents="1" format="ascii">
          0.011362 0.011362 0.011362 0.011362 0.011362 0.011362 0.0113619 0.0113619 0.0113619 0.0113619 0.0113618 0.0113618
          0.0113617 0.0113617 0.0113616 0.0113616 0.0113615 0.0113615 0.0113611 0.0113611 0.0113607 0.0113607 0.0113602 0.0113602
          0.0113596 0.0113596 0.0113588 0.0113588 0.0113577 0.0113577 0.0113563 0.0113563 0.0113546 0.0113546 0.0113473 0.0113473
          0.0113336 0.0113336 0.0113085 0.0113085 0.0112626 0.0112626 0.0111783 0.0111783 0.0110195 0.0110196 0.0107156 0.0107155
          0.0101326 0.0101329 0.00968877 0.00968893 0.00911164 0.00911113 0.00837542 0.00837555 0.00747583 0.00747598 0.00640653 0.00640645
          0.00517991 0.00517996 0.00383986 0.00383981 0.00246913 0.00246913
        </DataArray>
        <DataArray type="Float32" Name="Vx" NumberOfComponents="1" format="ascii">
          1.47284e-15 1.47285e-15 1.09707e-15 1.09707e-15 2.16803e-15 2.16812e-15 1.59961e-15 1.59971e-15 -1.43465e-15 -1.4345e-15 -6.03952e-15 -6.03869e-15
          -8.57426e-15 -8.57274e-15 -6.5088e-15 -6.508e-15 2.11495e-15 2.1154e-15 1.79682e-14 1.79708e-14 9.10444e-15 9.10648e-15 -3.09836e-14 -3.09843e-14
          -1.30802e-14 -1.30787e-14 1.25259e-14 1.253e-14 1.81121e-14 1.81232e-14 1.41269e-13 1.41314e-13 8.84965e-14 8.85187e-14 -4.5284e-13 -4.52839e-13
          4.14937e-13 4.14936e-13 7.24702e-13 7.24696e-13 -2.17812e-13 -2.17793e-13 -1.11094e-12 -1.11091e-12 -1.12856e-11 -1.12856e-11 5.00338e-11 5.00756e-11
          8.75706e-12 8.72739e-12 -2.15875e-10 -2.15797e-10 -1.90298e-11 -1.90368e-11 1.76097e-10 1.76086e-10 -9.15592e-12 -8.97831e-12 -4.82343e-11 -4.82343e-11
          -4.29668e-12 -4.29667e-12 -1.32321e-11 -1.32321e-11 -1.03107e-11 -1.03107e-11
        </DataArray>
        <DataArray type="Float32" Name="Vy" NumberOfComponents="1" format="ascii">
          -2.73576e-12 -2.73651e-12 -7.82092e-12 -7.82062e-12 -3.41249e-12 -3.41474e-12 -4.19174e-12 -4.19602e-12 -5.4799e-12 -5.48393e-12 -6.52337e-12 -6.52366e-12
          -7.92703e-12 -7.92087e-12 -8.83056e-12 -8.81775e-12 -1.64239e-10 -1.64222e-10 -6.90086e-11 -6.90063e-11 -7.18123e-11 -7.18261e-11 -7.36145e-11 -7.35936e-11
          -8.42183e-11 -8.41523e-11 -9.97918e-11 -9.97308e-11 -1.27983e-10 -1.27943e-10 -1.65395e-10 -1.65471e-10 -5.12671e-09 -5.12701e-09 -3.91813e-09 -3.91776e-09
          -7.18023e-09 -7.17967e-09 -1.25294e-08 -1.25307e-08 -2.33218e-08 -2.33232e-08 -4.63039e-08 -4.63057e-08 -8.8069e-08 -8.80494e-08 -1.72355e-07 -1.72385e-07
          2.81854e-07 2.81684e-07 -6.0202e-08 -6.0221e-08 -7.01335e-08 -6.98761e-08 -7.30771e-08 -7.30191e-08 -7.73684e-08 -7.74895e-08 -7.17749e-08 -7.18103e-08
          -5.1666e-08 -5.16563e-08 -4.63906e-08 -4.63669e-08 1.39604e-06 1.39608e-06
        </DataArray>
      </PointData>
      <CellData Scalars="process rank">
        <DataArray type="Float32" Name="process rank" NumberOfComponents="1" format="ascii">
          0 0 0 0 0 0 0 0 0 0 0 0
          0 0 0 0 0 0 0 0 0 0 0 0
          0 0 0 0 0 0 0 0
        </DataArray>
      </CellData>
      <Points>
        <DataArray type="Float32" Name="Coordinates" NumberOfComponents="3" format="ascii">
          0.0254 0.00625 0 0 0.00625 0 0.0254 0 0 0 0 0
          0.0254 0.0125 0 0 0.0125 0 0.0254 0.01875 0 0 0.01875 0
          0.0254 0.025 0 0 0.025 0 0.0254 0.03125 0 0 0.03125 0
          0.0254 0.0375 0 0 0.0375 0 0.0254 0.04375 0 0 0.04375 0
          0.0254 0.05 0 0 0.05 0 0.0254 0.06875 0 0 0.06875 0
          0.0254 0.0875 0 0 0.0875 0 0.0254 0.10625 0 0 0.10625 0
          0.0254 0.125 0 0 0.125 0 0.0254 0.14375 0 0 0.14375 0
          0.0254 0.1625 0 0 0.1625 0 0.0254 0.18125 0 0 0.18125 0
          0.0254 0.2 0 0 0.2 0 0.0254 0.25125 0 0 0.25125 0
          0.0254 0.3025 0 0 0.3025 0 0.0254 0.35375 0 0 0.35375 0
          0.0254 0.405 0 0 0.405 0 0.0254 0.45625 0 0 0.45625 0
          0.0254 0.5075 0 0 0.5075 0 0.0254 0.55875 0 0 0.55875 0
          0.0254 0.61 0 0 0.61 0 0.0254 0.63375 0 0 0.63375 0
          0.0254 0.6575 0 0 0.6575 0 0.0254 0.68125 0 0 0.68125 0
          0.0254 0.705 0 0 0.705 0 0.0254 0.72875 0 0 0.72875 0
          0.0254 0.7525 0 0 0.7525 0 0.0254 0.77625 0 0 0.77625 0
          0.0254 0.8 0 0 0.8 0
        </DataArray>
      </Points>
      <Cells>
        <DataArray type="Int32" Name="connectivity" NumberOfComponents="1" format="ascii">
          0 1 3 2 4 5 1 0 6 7 5 4
          8 9 7 6 10 11 9 8 12 13 11 10
          14 15 13 12 16 17 15 14 18 19 17 16
          20 21 19 18 22 23 21 20 24 25 23 22
          26 27 25 24 28 29 27 26 30 31 29 28
          32 33 31 30 34 35 33 32 36 37 35 34
          38 39 37 36 40 41 39 38 42 43 41 40
          44 45 43 42 46 47 45 44 48 49 47 46
          50 51 49 48 52 53 51 50 54 55 53 52
          56 57 55 54 58 59 57 56 60 61 59 58
          62 63 61 60 64 65 63 62
        </DataArray>
        <DataArray type="Int32" Name="offsets" NumberOfComponents="1" format="ascii">
          4 8 12 16 20 24 28 32 36 40 44 48
          52 56 60 64 68 72 76 80 84 88 92 96
          100 104 108 112 116 120 124 128
        </DataArray>
        <DataArray type="UInt8" Name="types" NumberOfComponents="1" format="ascii">
          9 9 9 9 9 9 9 9 9 9 9 9
          9 9 9 9 9 9 9 9 9 9 9 9
          9 9 9 9 9 9 9 9
        </DataArray>
      </Cells>
    </Piece>
  </UnstructuredGrid>
</VTKFile>
