<?xml version="1.0"?>
<VTKFile type="UnstructuredGrid" version="0.1" byte_order="LittleEndian">
  <UnstructuredGrid>
    <Piece NumberOfCells="32" NumberOfPoints="66">
      <PointData Scalars="Sg">
        <DataArray type="Float32" Name="Sg" NumberOfComponents="1" format="ascii">
          0 0 0 0 0 0 0 0 0 0 0 0
          0 0 0 0 0 0 0 0 0 0 0 0
          0 0 0 0 0 0 0 0 0 0 0 0
          0 0 0 0 0 0 0 0 0 0 0 0
          0 0 0 0 0 0 0 0 0 0 0 0
          0 0 0 0 0 0
        </DataArray>
        <DataArray type="Float32" Name="Sl" NumberOfComponents="1" format="ascii">
          1 1 1 1 1 1 1 1 1 1 1 1
          1 1 1 1 1 1 1 1 1 1 1 1
          1 1 1 1 1 1 1 1 1 1 1 1
          1 1 1 1 1 1 1 1 1 1 1 1
          1 1 1 1 1 1 1 1 1 1 1 1
          1 1 1 1 1 1
        </DataArray>
        <DataArray type="Float32" Name="pg" NumberOfComponents="1" format="ascii">
          117572 117572 117635 117635 117510 117510 117447 117447 117385 117385 117322 117322
          117260 117260 117198 117198 117135 117135 116948 116948 116761 116761 116573 116573
          116386 116386 116199 116199 116012 116012 115824 115824 115637 115637 115125 115125
          114613 114613 114102 114102 113590 113590 113078 113078 112567 112567 112056 112056
          111546 111546 111310 111310 111074 111074 110838 110838 110603 110603 110368 110368
          110134 110134 109900 109900 109667 109667
        </DataArray>
        <DataArray type="Float32" Name="pl" NumberOfComponents="1" format="ascii">
          107905 107905 107968 107968 107843 107843 107781 107781 107718 107718 107656 107656
          107593 107593 107531 107531 107468 107468 107281 107281 107094 107094 106907 106907
          106719 106719 106532 106532 106345 106345 106158 106158 105970 105970 105459 105459
          104947 104947 104435 104435 103923 103923 103412 103412 102900 102900 102389 102389
          101879 101879 101643 101643 101407 101407 101172 101172 100937 100937 100702 100702
          100467 100467 100234 100234 100000 100000
        </DataArray>
        <DataArray type="Float32" Name="pc" NumberOfComponents="1" format="ascii">
          9666.67 9666.67 9666.67 9666.67 9666.67 9666.67 9666.67 9666.67 9666.67 9666.67 9666.67 9666.67
          9666.67 9666.67 9666.67 9666.67 9666.67 9666.67 9666.67 9666.67 9666.67 9666.67 9666.67 9666.67
          9666.67 9666.67 9666.67 9666.67 9666.67 9666.67 9666.67 9666.67 9666.67 9666.67 9666.67 9666.67
          9666.67 9666.67 9666.67 9666.67 9666.67 9666.67 9666.67 9666.67 9666.67 9666.67 9666.67 9666.67
          9666.67 9666.67 9666.67 9666.67 9666.67 9666.67 9666.67 9666.67 9666.67 9666.67 9666.67 9666.67
          9666.67 9666.67 9666.67 9666.67 9666.67 9666.67
        </DataArray>
        <DataArray type="Float32" Name="rhoL" NumberOfComponents="1" format="ascii">
          1018.14 1018.14 1018.14 1018.14 1018.14 1018.14 1018.14 1018.14 1018.14 1018.14 1018.14 1018.14
          1018.14 1018.14 1018.14 1018.14 1018.13 1018.13 1018.13 1018.13 1018.13 1018.13 1018.12 1018.12
          1018.12 1018.12 1018.11 1018.11 1018.1 1018.1 1018.09 1018.09 1018.08 1018.08 1018.04 1018.04
          1017.97 1017.97 1017.86 1017.86 1017.66 1017.66 1017.32 1017.32 1016.73 1016.73 1015.73 1015.73
          1014.07 1014.07 1012.94 1012.94 1011.62 1011.62 1010.11 1010.11 1008.44 1008.44 1006.67 1006.67
          1004.89 1004.89 1003.15 1003.15 1001.45 1001.45
        </DataArray>
        <DataArray type="Float32" Name="rhoG" NumberOfComponents="1" format="ascii">
          2.06837 2.06837 2.0695 2.0695 2.06724 2.06724 2.06611 2.06611 2.06498 2.06498 2.06385 2.06385
          2.06272 2.06272 2.06159 2.06159 2.06046 2.06046 2.05706 2.05706 2.05367 2.05367 2.05028 2.05028
          2.04689 2.04689 2.04349 2.04349 2.0401 2.0401 2.03671 2.03671 2.03332 2.03332 2.02404 2.02404
          2.01477 2.01477 2.0055 2.0055 1.99623 1.99623 1.98695 1.98695 1.97768 1.97768 1.96841 1.96841
          1.95914 1.95914 1.95485 1.95485 1.95055 1.95055 1.94626 1.94626 1.94198 1.94198 1.9377 1.9377
          1.93342 1.93342 1.92916 1.92916 1.9249 1.9249
        </DataArray>
        <DataArray type="Float32" Name="mobL" NumberOfComponents="1" format="ascii">
          1032.29 1032.29 1032.29 1032.29 1032.29 1032.29 1032.29 1032.29 1032.29 1032.29 1032.29 1032.29
          1032.3 1032.3 1032.3 1032.3 1032.3 1032.3 1032.31 1032.31 1032.32 1032.32 1032.34 1032.34
          1032.35 1032.35 1032.38 1032.38 1032.4 1032.4 1032.43 1032.43 1032.47 1032.47 1032.6 1032.6
          1032.82 1032.82 1033.2 1033.2 1033.85 1033.85 1034.97 1034.97 1036.93 1036.93 1040.36 1040.36
          1046.19 1046.19 1050.33 1050.33 1055.35 1055.35 1061.32 1061.32 1068.27 1068.27 1076.11 1076.11
          1084.61 1084.61 1093.57 1093.57 1103.12 1103.12
        </DataArray>
        <DataArray type="Float32" Name="mobG" NumberOfComponents="1" format="ascii">
          0 0 0 0 0 0 0 0 0 0 0 0
          0 0 0 0 0 0 0 0 0 0 0 0
          0 0 0 0 0 0 0 0 0 0 0 0
          0 0 0 0 0 0 0 0 0 0 0 0
          0 0 0 0 0 0 0 0 0 0 0 0
          0 0 0 0 0 0
        </DataArray>
        <DataArray type="Float32" Name="porosity" NumberOfComponents="1" format="ascii">
          0.097974 0.0979733 0.110099 0.110098 0.0978252 0.0978246 0.100237 0.100236 0.103381 0.103381 0.106777 0.106777
          0.110335 0.110335 0.114011 0.114011 0.117641 0.117643 0.129071 0.129075 0.140811 0.140816 0.152982 0.152991
          0.165739 0.165751 0.178357 0.178375 0.190627 0.190648 0.202943 0.202966 0.215892 0.215912 0.24252 0.242526
          0.266343 0.266344 0.286952 0.286949 0.301177 0.301172 0.311092 0.311085 0.318626 0.318612 0.324956 0.324933
          0.330147 0.330135 0.333757 0.333735 0.337755 0.337726 0.342597 0.342558 0.349401 0.349348 0.360516 0.360453
          0.382578 0.38252 0.397275 0.397259 0.398945 0.398945
        </DataArray>
        <DataArray type="Float32" Name="temperature" NumberOfComponents="1" format="ascii">
          298.15 298.15 298.15 298.15 298.15 298.15 298.15 298.15 298.15 298.15 298.15 298.15
          298.15 298.15 298.15 298.15 298.15 298.15 298.15 298.15 298.15 298.15 298.15 298.15
          298.15 298.15 298.15 298.15 298.15 298.15 298.15 298.15 298.15 298.15 298.15 298.15
          298.15 298.15 298.15 298.15 298.15 298.15 298.15 298.15 298.15 298.15 298.15 298.15
          298.15 298.15 298.15 298.15 298.15 298.15 298.15 298.15 298.15 298.15 298.15 298.15
          298.15 298.15 298.15 298.15 298.15 298.15
        </DataArray>
        <DataArray type="Float32" Name="phase presence" NumberOfComponents="1" format="ascii">
          1 1 1 1 1 1 1 1 1 1 1 1
          1 1 1 1 1 1 1 1 1 1 1 1
          1 1 1 1 1 1 1 1 1 1 1 1
          1 1 1 1 1 1 1 1 1 1 1 1
          1 1 1 1 1 1 1 1 1 1 1 1
          1 1 1 1 1 1
        </DataArray>
        <DataArray type="Float32" Name="potential" NumberOfComponents="1" format="ascii">
          -0.0022486 -0.0022486 -0.0022487 -0.0022487 -0.00224838 -0.00224838 -0.00224805 -0.00224805 -0.00224765 -0.00224765 -0.00224717 -0.00224717
          -0.00224664 -0.00224664 -0.00224604 -0.00224604 -0.0022454 -0.0022454 -0.00224318 -0.00224318 -0.0022405 -0.0022405 -0.00223733 -0.00223733
          -0.00223361 -0.00223361 -0.00222927 -0.00222927 -0.0022242 -0.0022242 -0.0022183 -0.0022183 -0.00221143 -0.00221143 -0.0021885 -0.0021885
          -0.00215337 -0.00215337 -0.00210006 -0.00210006 -0.00201903 -0.00201903 -0.00189628 -0.00189628 -0.00171328 -0.00171328 -0.00145063 -0.00145063
          -0.00110073 -0.00110073 -0.000903369 -0.000903369 -0.000702429 -0.000702429 -0.000508211 -0.000508211 -0.000332504 -0.000332504 -0.000187084 -0.000187084
          -8.18074e-05 -8.18074e-05 -2.01875e-05 -2.01875e-05 0 0
        </DataArray>
        <DataArray type="Float32" Name="boxVolume" NumberOfComponents="1" format="ascii">
          7.9375e-05 7.9375e-05 3.96875e-05 3.96875e-05 7.9375e-05 7.9375e-05 7.9375e-05 7.9375e-05 7.9375e-05 7.9375e-05 7.9375e-05 7.9375e-05
          7.9375e-05 7.9375e-05 7.9375e-05 7.9375e-05 0.00015875 0.00015875 0.000238125 0.000238125 0.000238125 0.000238125 0.000238125 0.000238125
          0.000238125 0.000238125 0.000238125 0.000238125 0.000238125 0.000238125 0.000238125 0.000238125 0.0004445 0.0004445 0.000650875 0.000650875
          0.000650875 0.000650875 0.000650875 0.000650875 0.000650875 0.000650875 0.000650875 0.000650875 0.000650875 0.000650875 0.000650875 0.000650875
          0.00047625 0.00047625 0.000301625 0.000301625 0.000301625 0.000301625 0.000301625 0.000301625 0.000301625 0.000301625 0.000301625 0.000301625
          0.000301625 0.000301625 0.000301625 0.000301625 0.000150812 0.000150812
        </DataArray>
        <DataArray type="Float32" Name="pH" NumberOfComponents="1" format="ascii">
          6.69967 6.69967 6.69966 6.69966 6.69972 6.69972 6.69978 6.69978 6.69987 6.69987 6.69997 6.69997
          6.70008 6.70008 6.7002 6.7002 6.70032 6.70032 6.70073 6.70073 6.70117 6.70117 6.70164 6.70164
          6.70211 6.70211 6.70259 6.70259 6.70308 6.70308 6.70358 6.70358 6.7041 6.7041 6.70556 6.70556
          6.70741 6.70741 6.71005 6.71005 6.71417 6.71417 6.72104 6.72104 6.73291 6.73291 6.75362 6.75362
          6.78936 6.78936 6.81505 6.81505 6.8472 6.8472 6.88726 6.88726 6.93716 6.93716 6.99943 6.99943
          7.07681 7.07681 7.15025 7.15029 6.19963 6.19963
        </DataArray>
        <DataArray type="Float32" Name="Omega" NumberOfComponents="1" format="ascii">
          0 0 0 0 0 0 0 0 0 0 0 0
          0 0 0 0 0 0 0 0 0 0 0 0
          0 0 0 0 0 0 0 0 0 0 0 0
          0 0 0 0 0 0 0 0 0 0 0 0
          0 0 0 0 0 0 0 0 0 0 0 0
          0 0 0 0 0 0
        </DataArray>
        <DataArray type="Float32" Name="Attachment_rate" NumberOfComponents="1" format="ascii">
          0 0 0 0 0 0 0 0 0 0 0 0
          0 0 0 0 0 0 0 0 0 0 0 0
          0 0 0 0 0 0 0 0 0 0 0 0
          0 0 0 0 0 0 0 0 0 0 0 0
          0 0 0 0 0 0 0 0 0 0 0 0
          0 0 0 0 0 0
        </DataArray>
        <DataArray type="Float32" Name="Detachment_rate" NumberOfComponents="1" format="ascii">
          -3.95128e-10 -3.95071e-10 -4.30504e-10 -4.30397e-10 -3.49026e-10 -3.4897e-10 -3.03773e-10 -3.03719e-10 -2.57348e-10 -2.57298e-10 -2.11962e-10 -2.11915e-10
          -1.69696e-10 -1.69655e-10 -1.32018e-10 -1.31982e-10 -1.0091e-10 -1.00785e-10 -3.28627e-11 -3.28201e-11 -2.55128e-12 -2.5377e-12 9.20555e-12 9.20131e-12
          1.26161e-11 1.26007e-11 1.25327e-11 1.25106e-11 1.09041e-11 1.08808e-11 8.20352e-12 8.18443e-12 3.67359e-12 3.6644e-12 4.64636e-11 4.64026e-11
          6.10893e-11 6.10332e-11 7.57893e-11 7.57403e-11 9.27826e-11 9.27416e-11 1.14064e-10 1.14034e-10 1.41112e-10 1.4111e-10 1.74449e-10 1.74505e-10
          2.23663e-10 2.23687e-10 1.07861e-10 1.07903e-10 1.13438e-10 1.13512e-10 1.17144e-10 1.17274e-10 1.17253e-10 1.17485e-10 1.14108e-10 1.14408e-10
          1.06117e-10 1.06549e-10 8.25908e-11 8.30964e-11 0 0
        </DataArray>
        <DataArray type="Float32" Name="Growth_rate" NumberOfComponents="1" format="ascii">
          -3.2458e-09 -3.2455e-09 -3.60965e-09 -3.60912e-09 -2.95536e-09 -2.95506e-09 -2.65587e-09 -2.65557e-09 -2.32857e-09 -2.32829e-09 -1.99103e-09 -1.99077e-09
          -1.66293e-09 -1.66269e-09 -1.35922e-09 -1.359e-09 -1.09542e-09 -1.09471e-09 -5.05892e-10 -5.05596e-10 -2.10209e-10 -2.10049e-10 -7.9988e-11 -7.99083e-11
          -2.82945e-11 -2.82568e-11 -9.39849e-12 -9.38137e-12 -2.94603e-12 -2.93991e-12 -8.591e-13 -8.57156e-13 -1.84307e-13 -1.8381e-13 -1.03749e-14 -1.0362e-14
          -5.49247e-16 -5.48715e-16 -2.73596e-17 -2.73442e-17 -1.3122e-18 -1.31137e-18 -6.06376e-20 -6.06404e-20 -2.69756e-21 -2.69533e-21 -1.15165e-22 -1.15417e-22
          -6.30759e-24 -6.25827e-24 -9.24508e-25 -9.30681e-25 -1.35161e-25 -1.34499e-25 -1.88933e-26 -1.90072e-26 -2.55108e-27 -2.54304e-27 -3.27342e-28 -3.29843e-28
          -4.00927e-29 -4.00188e-29 -4.08673e-30 -4.13775e-30 0 0
        </DataArray>
        <DataArray type="Float32" Name="Decay_rate" NumberOfComponents="1" format="ascii">
          3.0125e-08 3.0123e-08 3.27443e-08 3.27403e-08 2.9367e-08 2.93649e-08 2.9305e-08 2.93026e-08 2.94055e-08 2.9403e-08 2.95385e-08 2.95357e-08
          2.96663e-08 2.96632e-08 2.97732e-08 2.97697e-08 3.00186e-08 3.00011e-08 2.99955e-08 2.99801e-08 2.9944e-08 2.99236e-08 2.96942e-08 2.96672e-08
          2.92478e-08 2.9212e-08 2.86096e-08 2.85628e-08 2.77988e-08 2.77443e-08 2.68341e-08 2.67751e-08 2.57004e-08 2.56313e-08 2.27049e-08 2.26758e-08
          1.97197e-08 1.97018e-08 1.68602e-08 1.68491e-08 1.45278e-08 1.45211e-08 1.26859e-08 1.26823e-08 1.12169e-08 1.12162e-08 1.00232e-08 1.00256e-08
          9.52375e-09 9.5244e-09 8.91886e-09 8.92173e-09 8.48826e-09 8.49289e-09 8.05406e-09 8.06197e-09 7.52672e-09 7.54026e-09 6.94698e-09 6.96384e-09
          6.20114e-09 6.22531e-09 4.79673e-09 4.82587e-09 2.31715e-09 2.31715e-09
        </DataArray>
        <DataArray type="Float32" Name="Volume_Fraction_Biofilm" NumberOfComponents="1" format="ascii">
          0.0137164 0.0137155 0.014909 0.0149072 0.0133713 0.0133703 0.013343 0.013342 0.0133888 0.0133877 0.0134494 0.0134481
          0.0135076 0.0135062 0.0135562 0.0135546 0.013668 0.01366 0.0136575 0.0136504 0.013634 0.0136247 0.0135202 0.013508
          0.013317 0.0133007 0.0130264 0.0130051 0.0126572 0.0126324 0.012218 0.0121911 0.0117018 0.0116704 0.0103379 0.0103247
          0.00897871 0.00897054 0.00767671 0.00767168 0.00661476 0.0066117 0.00577612 0.00577444 0.00510725 0.00510691 0.00456373 0.00456482
          0.00433632 0.00433662 0.00406091 0.00406221 0.00386485 0.00386696 0.00366715 0.00367075 0.00342705 0.00343321 0.00316308 0.00317076
          0.00282349 0.00283449 0.00218404 0.0021973 0.00105504 0.00105504
        </DataArray>
        <DataArray type="Float32" Name="Volume_Fraction_Calcite" NumberOfComponents="1" format="ascii">
          0.28831 0.288311 0.274992 0.274995 0.288804 0.288805 0.28642 0.286422 0.28323 0.283231 0.279774 0.279775
          0.276158 0.276159 0.272432 0.272434 0.268691 0.268697 0.257271 0.257275 0.245555 0.245559 0.233497 0.233501
          0.220944 0.220948 0.208616 0.20862 0.196716 0.19672 0.184839 0.184842 0.172406 0.172418 0.147142 0.147149
          0.124679 0.124685 0.105372 0.105379 0.0922084 0.0922167 0.0831314 0.083141 0.0762668 0.0762814 0.0704807 0.0705026
          0.0655171 0.0655282 0.0621824 0.0622031 0.0583798 0.0584071 0.053736 0.053771 0.0471715 0.0472185 0.0363214 0.0363762
          0.0145981 0.0146456 0.000540945 0.000544044 0 0
        </DataArray>
        <DataArray type="Float32" Name="Kxx" NumberOfComponents="1" format="ascii">
          2.93888e-12 2.93882e-12 4.17061e-12 4.1705e-12 2.92551e-12 2.92546e-12 3.14722e-12 3.14719e-12 3.45281e-12 3.4528e-12 3.80435e-12 3.80434e-12
          4.19748e-12 4.19747e-12 4.63121e-12 4.63117e-12 5.08775e-12 5.08805e-12 6.71955e-12 6.72004e-12 8.72487e-12 8.72587e-12 1.11886e-11 1.11904e-11
          1.42272e-11 1.42305e-11 1.77306e-11 1.77358e-11 2.16472e-11 2.16544e-11 2.612e-11 2.6129e-11 3.14457e-11 3.14541e-11 4.45754e-11 4.45786e-11
          5.90435e-11 5.90446e-11 7.38374e-11 7.38356e-11 8.53719e-11 8.53674e-11 9.40846e-11 9.40774e-11 1.01087e-10 1.01073e-10 1.07231e-10 1.07209e-10
          1.12453e-10 1.12441e-10 1.16182e-10 1.16159e-10 1.20408e-10 1.20377e-10 1.25661e-10 1.25618e-10 1.33298e-10 1.33237e-10 1.46427e-10 1.46351e-10
          1.74989e-10 1.74909e-10 1.9594e-10 1.95916e-10 1.98422e-10 1.98422e-10
        </DataArray>
        <DataArray type="Float32" Name="X_lBrine" NumberOfComponents="1" format="ascii">
          0.951438 0.951438 0.951437 0.951437 0.951438 0.951438 0.951439 0.951439 0.95144 0.95144 0.951441 0.951441
          0.951443 0.951443 0.951445 0.951445 0.951446 0.951446 0.951453 0.951453 0.951461 0.951461 0.951472 0.951472
          0.951484 0.951484 0.951499 0.951499 0.951517 0.951517 0.951539 0.951539 0.951565 0.951565 0.951657 0.951657
          0.951814 0.951814 0.952079 0.952079 0.95253 0.95253 0.953311 0.953311 0.954664 0.954664 0.956981 0.956981
          0.960806 0.960806 0.963419 0.963419 0.966489 0.966489 0.969998 0.969998 0.973878 0.973878 0.978007 0.978007
          0.982193 0.982193 0.986276 0.986276 0.99029 0.99029
        </DataArray>
        <DataArray type="Float32" Name="X_lTotalC" NumberOfComponents="1" format="ascii">
          7.08853e-05 7.08853e-05 7.08833e-05 7.08833e-05 7.08925e-05 7.08925e-05 7.09038e-05 7.09038e-05 7.09181e-05 7.09181e-05 7.09348e-05 7.09348e-05
          7.09533e-05 7.09533e-05 7.09733e-05 7.09733e-05 7.09944e-05 7.09944e-05 7.1062e-05 7.1062e-05 7.11332e-05 7.11332e-05 7.12056e-05 7.12056e-05
          7.12774e-05 7.12774e-05 7.13475e-05 7.13475e-05 7.14151e-05 7.14151e-05 7.148e-05 7.148e-05 7.15417e-05 7.15418e-05 7.16884e-05 7.16884e-05
          7.18225e-05 7.18225e-05 7.19556e-05 7.19556e-05 7.21045e-05 7.21045e-05 7.23002e-05 7.23002e-05 7.25847e-05 7.25847e-05 7.29937e-05 7.29937e-05
          7.34927e-05 7.34927e-05 7.36815e-05 7.36815e-05 7.37912e-05 7.37912e-05 7.37834e-05 7.37834e-05 7.36537e-05 7.36537e-05 7.34561e-05 7.34562e-05
          7.33025e-05 7.33024e-05 6.89038e-05 6.891e-05 5.81077e-07 5.81077e-07
        </DataArray>
        <DataArray type="Float32" Name="X_lNa" NumberOfComponents="1" format="ascii">
          1.27214e-07 1.27214e-07 1.27194e-07 1.27194e-07 1.27269e-07 1.27269e-07 1.27352e-07 1.27352e-07 1.27457e-07 1.27457e-07 1.27583e-07 1.27583e-07
          1.27727e-07 1.27727e-07 1.27889e-07 1.27889e-07 1.28069e-07 1.28069e-07 1.28695e-07 1.28695e-07 1.2948e-07 1.2948e-07 1.30441e-07 1.30441e-07
          1.31605e-07 1.31605e-07 1.33009e-07 1.33009e-07 1.34701e-07 1.34701e-07 1.36738e-07 1.36738e-07 1.39188e-07 1.39188e-07 1.47885e-07 1.47885e-07
          1.62574e-07 1.62574e-07 1.87341e-07 1.87341e-07 2.29644e-07 2.29644e-07 3.02716e-07 3.02715e-07 4.29346e-07 4.29346e-07 6.46187e-07 6.46187e-07
          1.004e-06 1.004e-06 1.24842e-06 1.24842e-06 1.53561e-06 1.53561e-06 1.86371e-06 1.86371e-06 2.22654e-06 2.22654e-06 2.61266e-06 2.61266e-06
          3.00404e-06 3.00404e-06 3.38515e-06 3.38515e-06 3.74881e-06 3.74881e-06
        </DataArray>
        <DataArray type="Float32" Name="X_lCl" NumberOfComponents="1" format="ascii">
          0.0306576 0.0306576 0.0306578 0.0306578 0.0306573 0.0306573 0.0306567 0.0306567 0.030656 0.030656 0.0306552 0.0306552
          0.0306542 0.0306542 0.0306531 0.0306531 0.0306519 0.0306519 0.0306478 0.0306478 0.0306425 0.0306425 0.0306361 0.0306361
          0.0306284 0.0306284 0.030619 0.030619 0.0306078 0.0306078 0.0305942 0.0305942 0.0305779 0.0305779 0.03052 0.03052
          0.0304222 0.0304222 0.0302574 0.0302574 0.0299758 0.0299758 0.0294894 0.0294894 0.0286465 0.0286465 0.0272031 0.0272031
          0.0248214 0.0248214 0.0231945 0.0231945 0.0212829 0.0212829 0.0190991 0.0190991 0.0166841 0.0166841 0.0141141 0.0141141
          0.011509 0.011509 0.00897261 0.0089726 0.00655617 0.00655617
        </DataArray>
        <DataArray type="Float32" Name="X_lCa" NumberOfComponents="1" format="ascii">
          0.000368479 0.000368479 0.000368479 0.000368479 0.000368481 0.000368481 0.000368485 0.000368485 0.000368489 0.000368489 0.000368493 0.000368493
          0.000368498 0.000368498 0.000368503 0.000368503 0.000368507 0.000368507 0.000368516 0.000368516 0.000368515 0.000368515 0.0003685 0.0003685
          0.000368467 0.000368467 0.000368413 0.000368413 0.000368332 0.000368332 0.00036822 0.00036822 0.00036807 0.00036807 0.000367473 0.000367473
          0.00036636 0.00036636 0.000364398 0.000364398 0.000360977 0.000360977 0.000355012 0.000355012 0.000344624 0.000344624 0.000326765 0.000326765
          0.000297137 0.000297137 0.000276759 0.000276759 0.000252713 0.000252713 0.000225121 0.000225121 0.000194499 0.000194499 0.000161856 0.000161856
          0.000128811 0.000128811 9.27662e-05 9.27718e-05 0 0
        </DataArray>
        <DataArray type="Float32" Name="X_lUrea" NumberOfComponents="1" format="ascii">
          0 0 0 0 0 0 0 0 0 0 0 0
          0 0 0 0 0 0 0 0 0 0 0 0
          0 0 0 0 0 0 0 0 0 0 0 0
          0 0 0 0 0 0 0 0 0 0 0 0
          0 0 0 0 0 0 0 0 0 0 0 0
          0 0 0 0 0 0
        </DataArray>
        <DataArray type="Float32" Name="X_lTotalNH" NumberOfComponents="1" format="ascii">
          0.0144686 0.0144686 0.0144687 0.0144687 0.0144684 0.0144684 0.0144682 0.0144682 0.0144678 0.0144678 0.0144674 0.0144674
          0.014467 0.014467 0.0144665 0.0144665 0.0144659 0.0144659 0.014464 0.014464 0.0144615 0.0144615 0.0144585 0.0144585
          0.0144549 0.0144549 0.0144505 0.0144505 0.0144452 0.0144452 0.0144388 0.0144388 0.0144312 0.0144312 0.014404 0.014404
          0.014358 0.014358 0.0142806 0.0142806 0.0141484 0.0141484 0.0139199 0.0139199 0.0135241 0.0135241 0.0128462 0.0128462
          0.0117277 0.0117277 0.0109636 0.0109636 0.0100658 0.0100658 0.00904018 0.00904018 0.00790599 0.00790599 0.00669899 0.00669899
          0.00547553 0.00547553 0.00428433 0.00428433 0.00314947 0.00314947
        </DataArray>
        <DataArray type="Float32" Name="X_lO2" NumberOfComponents="1" format="ascii">
          -3.22919e-11 -3.2291e-11 -3.30377e-11 -3.30369e-11 -3.01645e-11 -3.01636e-11 -2.71692e-11 -2.71683e-11 -2.37437e-11 -2.37429e-11 -2.02141e-11 -2.02134e-11
          -1.68132e-11 -1.68126e-11 -1.36954e-11 -1.36948e-11 -1.09486e-11 -1.0948e-11 -5.06179e-12 -5.06144e-12 -2.10723e-12 -2.10706e-12 -8.0864e-13 -8.08568e-13
          -2.90419e-13 -2.90386e-13 -9.86206e-14 -9.86024e-14 -3.18154e-14 -3.18118e-14 -9.61144e-15 -9.61082e-15 -2.15298e-15 -2.15296e-15 -1.37188e-16 -1.37194e-16
          -8.36278e-18 -8.3623e-18 -4.87283e-19 -4.87329e-19 -2.71281e-20 -2.71235e-20 -1.4361e-21 -1.43659e-21 -7.22969e-23 -7.22419e-23 -3.45759e-24 -3.46433e-24
          -1.99638e-25 -1.98063e-25 -3.12815e-26 -3.14802e-26 -4.81182e-27 -4.78562e-27 -7.09986e-28 -7.13567e-28 -1.02765e-28 -1.02257e-28 -1.43149e-29 -1.43893e-29
          -1.96853e-30 -1.95727e-30 -2.60208e-31 -2.61866e-31 0 0
        </DataArray>
        <DataArray type="Float32" Name="X_lSubstrate" NumberOfComponents="1" format="ascii">
          0.00299196 0.00299196 0.00299197 0.00299197 0.00299191 0.00299191 0.00299184 0.00299184 0.00299176 0.00299176 0.00299165 0.00299165
          0.00299153 0.00299153 0.0029914 0.0029914 0.00299125 0.00299125 0.00299073 0.00299073 0.00299008 0.00299008 0.00298929 0.00298929
          0.00298833 0.00298833 0.00298717 0.00298717 0.00298577 0.00298577 0.00298409 0.00298408 0.00298206 0.00298206 0.00297487 0.00297487
          0.00296274 0.00296274 0.00294227 0.00294227 0.00290732 0.00290732 0.00284694 0.00284694 0.0027423 0.0027423 0.00256313 0.00256313
          0.00226748 0.00226748 0.00206553 0.00206553 0.00182823 0.00182823 0.00155714 0.00155714 0.00125735 0.00125735 0.000938317 0.000938317
          0.000614936 0.000614936 0.000300073 0.000300072 0 0
        </DataArray>
        <DataArray type="Float32" Name="X_lSuspended_Biomass" NumberOfComponents="1" format="ascii">
          4.67876e-06 4.68783e-06 4.66484e-06 4.67431e-06 4.70899e-06 4.71863e-06 4.74176e-06 4.7526e-06 4.77058e-06 4.78326e-06 4.79221e-06 4.80779e-06
          4.80489e-06 4.82515e-06 4.80748e-06 4.83552e-06 4.79883e-06 4.84013e-06 4.74298e-06 4.78838e-06 4.63263e-06 4.68561e-06 4.49252e-06 4.55542e-06
          4.35075e-06 4.42592e-06 4.24939e-06 4.32505e-06 4.21498e-06 4.27405e-06 4.24708e-06 4.29079e-06 4.35776e-06 4.38664e-06 4.36083e-06 4.36711e-06
          4.45432e-06 4.45782e-06 4.65877e-06 4.66013e-06 4.99654e-06 4.99713e-06 5.44864e-06 5.44888e-06 5.90935e-06 5.90945e-06 6.1124e-06 6.11245e-06
          5.54627e-06 5.54629e-06 5.56288e-06 5.56294e-06 5.45569e-06 5.45573e-06 5.16339e-06 5.16343e-06 4.63412e-06 4.63416e-06 3.8395e-06 3.83954e-06
          2.78383e-06 2.78387e-06 1.49072e-06 1.49077e-06 0 0
        </DataArray>
        <DataArray type="Float32" Name="X_lNH4" NumberOfComponents="1" format="ascii">
          0.0152887 0.0152887 0.0152887 0.0152887 0.0152885 0.0152885 0.0152882 0.0152882 0.0152879 0.0152879 0.0152874 0.0152874
          0.0152869 0.0152869 0.0152864 0.0152864 0.0152858 0.0152858 0.0152837 0.0152837 0.0152811 0.0152811 0.0152778 0.0152778
          0.015274 0.015274 0.0152693 0.0152693 0.0152636 0.0152636 0.0152569 0.0152569 0.0152487 0.0152487 0.0152199 0.0152199
          0.0151712 0.0151712 0.0150891 0.0150891 0.014949 0.014949 0.0147069 0.0147069 0.0142875 0.0142875 0.0135694 0.0135694
          0.0123845 0.0123845 0.0115752 0.0115752 0.0106243 0.0106243 0.00953812 0.00953812 0.00833705 0.00833705 0.00705895 0.00705895
          0.00576347 0.00576347 0.00450401 0.004504 0.00333307 0.00333307
        </DataArray>
        <DataArray type="Float32" Name="X_lHCO3" NumberOfComponents="1" format="ascii">
          7.17957e-05 7.17957e-05 7.1793e-05 7.1793e-05 7.18049e-05 7.18049e-05 7.18193e-05 7.18193e-05 7.18376e-05 7.18376e-05 7.18589e-05 7.18589e-05
          7.18826e-05 7.18826e-05 7.19082e-05 7.19082e-05 7.19352e-05 7.19352e-05 7.2022e-05 7.20221e-05 7.21139e-05 7.21139e-05 7.22077e-05 7.22077e-05
          7.23015e-05 7.23015e-05 7.23938e-05 7.23938e-05 7.2484e-05 7.2484e-05 7.25717e-05 7.25718e-05 7.26569e-05 7.26569e-05 7.28679e-05 7.28679e-05
          7.30815e-05 7.30815e-05 7.33252e-05 7.33252e-05 7.3644e-05 7.3644e-05 7.412e-05 7.412e-05 7.4885e-05 7.4885e-05 7.61231e-05 7.61231e-05
          7.802e-05 7.802e-05 7.91794e-05 7.91794e-05 8.0462e-05 8.0462e-05 8.18473e-05 8.18473e-05 8.33489e-05 8.33489e-05 8.50385e-05 8.50385e-05
          8.70257e-05 8.70256e-05 8.3481e-05 8.34894e-05 3.37056e-07 3.37056e-07
        </DataArray>
        <DataArray type="Float32" Name="X_lCO3" NumberOfComponents="1" format="ascii">
          2.43974e-08 2.43974e-08 2.43958e-08 2.43958e-08 2.4403e-08 2.4403e-08 2.44116e-08 2.44116e-08 2.44227e-08 2.44227e-08 2.44356e-08 2.44356e-08
          2.44499e-08 2.44499e-08 2.44654e-08 2.44654e-08 2.44818e-08 2.44818e-08 2.45346e-08 2.45346e-08 2.45908e-08 2.45908e-08 2.46487e-08 2.46487e-08
          2.47072e-08 2.47072e-08 2.47655e-08 2.47656e-08 2.48234e-08 2.48234e-08 2.48808e-08 2.48808e-08 2.49378e-08 2.49378e-08 2.50864e-08 2.50864e-08
          2.52531e-08 2.52531e-08 2.54662e-08 2.54662e-08 2.57753e-08 2.57753e-08 2.62742e-08 2.62742e-08 2.71326e-08 2.71326e-08 2.86524e-08 2.86524e-08
          3.13624e-08 3.13624e-08 3.33695e-08 3.33695e-08 3.59855e-08 3.59855e-08 3.94378e-08 3.94378e-08 4.41148e-08 4.41148e-08 5.06976e-08 5.06976e-08
          6.03249e-08 6.03248e-08 6.62174e-08 6.62296e-08 2.55591e-11 2.55591e-11
        </DataArray>
        <DataArray type="Float32" Name="X_lCO2" NumberOfComponents="1" format="ascii">
          1.90959e-05 1.90959e-05 1.90957e-05 1.90957e-05 1.90964e-05 1.90964e-05 1.90973e-05 1.90973e-05 1.90984e-05 1.90984e-05 1.90997e-05 1.90997e-05
          1.91011e-05 1.91011e-05 1.91027e-05 1.91027e-05 1.91042e-05 1.91042e-05 1.91092e-05 1.91092e-05 1.91142e-05 1.91142e-05 1.91188e-05 1.91188e-05
          1.9123e-05 1.9123e-05 1.91264e-05 1.91264e-05 1.9129e-05 1.9129e-05 1.91306e-05 1.91306e-05 1.91309e-05 1.91309e-05 1.91253e-05 1.91253e-05
          1.91052e-05 1.91052e-05 1.90624e-05 1.90624e-05 1.89812e-05 1.89812e-05 1.88333e-05 1.88333e-05 1.85655e-05 1.85655e-05 1.80806e-05 1.80806e-05
          1.72098e-05 1.72098e-05 1.6561e-05 1.6561e-05 1.5744e-05 1.5744e-05 1.47347e-05 1.47347e-05 1.35186e-05 1.35186e-05 1.20979e-05 1.20979e-05
          1.05043e-05 1.05043e-05 8.65729e-06 8.65746e-06 3.38012e-07 3.38012e-07
        </DataArray>
        <DataArray type="Float32" Name="X_lH" NumberOfComponents="1" format="ascii">
          1.94629e-10 1.94629e-10 1.94634e-10 1.94634e-10 1.94609e-10 1.94609e-10 1.9458e-10 1.9458e-10 1.94542e-10 1.94542e-10 1.94498e-10 1.94498e-10
          1.94448e-10 1.94448e-10 1.94395e-10 1.94395e-10 1.94339e-10 1.94339e-10 1.94156e-10 1.94156e-10 1.9396e-10 1.9396e-10 1.93756e-10 1.93756e-10
          1.93547e-10 1.93547e-10 1.93334e-10 1.93334e-10 1.93118e-10 1.93118e-10 1.92897e-10 1.92897e-10 1.92671e-10 1.92671e-10 1.9204e-10 1.9204e-10
          1.91243e-10 1.91243e-10 1.9012e-10 1.9012e-10 1.88384e-10 1.88384e-10 1.85528e-10 1.85528e-10 1.80698e-10 1.80698e-10 1.72564e-10 1.72564e-10
          1.5936e-10 1.5936e-10 1.50482e-10 1.50482e-10 1.40046e-10 1.40046e-10 1.2802e-10 1.2802e-10 1.14432e-10 1.14432e-10 9.94307e-11 9.94307e-11
          8.34459e-11 8.3446e-11 7.06617e-11 7.06561e-11 6.32454e-10 6.32454e-10
        </DataArray>
        <DataArray type="Float32" Name="X_lOH" NumberOfComponents="1" format="ascii">
          8.2331e-07 8.2331e-07 8.23286e-07 8.23286e-07 8.23392e-07 8.23392e-07 8.23519e-07 8.23519e-07 8.2368e-07 8.2368e-07 8.23869e-07 8.23869e-07
          8.24079e-07 8.24079e-07 8.24307e-07 8.24307e-07 8.24548e-07 8.24548e-07 8.25331e-07 8.25331e-07 8.26175e-07 8.26175e-07 8.27058e-07 8.27058e-07
          8.27966e-07 8.27966e-07 8.28894e-07 8.28895e-07 8.29843e-07 8.29843e-07 8.30817e-07 8.30817e-07 8.31824e-07 8.31824e-07 8.34666e-07 8.34666e-07
          8.38328e-07 8.38328e-07 8.43599e-07 8.43599e-07 8.51913e-07 8.51913e-07 8.65978e-07 8.65978e-07 8.90825e-07 8.90825e-07 9.35861e-07 9.35861e-07
          1.01886e-06 1.01886e-06 1.08293e-06 1.08293e-06 1.16864e-06 1.16864e-06 1.2847e-06 1.2847e-06 1.44504e-06 1.44504e-06 1.67262e-06 1.67262e-06
          2.00461e-06 2.0046e-06 2.38068e-06 2.38087e-06 2.67481e-07 2.67481e-07
        </DataArray>
        <DataArray type="Float32" Name="X_gBrine" NumberOfComponents="1" format="ascii">
          0.0111589 0.0111589 0.0111529 0.0111529 0.0111649 0.0111649 0.011171 0.011171 0.011177 0.011177 0.011183 0.011183
          0.011189 0.011189 0.0111951 0.0111951 0.0112011 0.0112011 0.0112193 0.0112193 0.0112376 0.0112376 0.0112559 0.0112559
          0.0112743 0.0112743 0.0112927 0.0112927 0.0113113 0.0113113 0.0113299 0.0113299 0.0113485 0.0113485 0.0113999 0.0113999
          0.0114519 0.0114519 0.0115047 0.0115047 0.0115583 0.0115583 0.0116133 0.0116133 0.0116701 0.0116701 0.0117296 0.0117297
          0.0117934 0.0117934 0.0118251 0.0118251 0.0118579 0.0118579 0.011892 0.011892 0.011927 0.011927 0.0119626 0.0119626
          0.0119985 0.0119985 0.0120342 0.0120342 0.0120698 0.0120698
        </DataArray>
        <DataArray type="Float32" Name="X_gTotalC" NumberOfComponents="1" format="ascii">
          0.988841 0.988841 0.988847 0.988847 0.988835 0.988835 0.988829 0.988829 0.988823 0.988823 0.988817 0.988817
          0.988811 0.988811 0.988805 0.988805 0.988799 0.988799 0.988781 0.988781 0.988762 0.988762 0.988744 0.988744
          0.988726 0.988726 0.988707 0.988707 0.988689 0.988689 0.98867 0.98867 0.988651 0.988651 0.9886 0.9886
          0.988548 0.988548 0.988495 0.988495 0.988442 0.988442 0.988387 0.988387 0.98833 0.98833 0.98827 0.98827
          0.988207 0.988207 0.988175 0.988175 0.988142 0.988142 0.988108 0.988108 0.988073 0.988073 0.988037 0.988037
          0.988001 0.988001 0.987966 0.987966 0.98793 0.98793
        </DataArray>
        <DataArray type="Float32" Name="X_gNa" NumberOfComponents="1" format="ascii">
          0 0 0 0 0 0 0 0 0 0 0 0
          0 0 0 0 0 0 0 0 0 0 0 0
          0 0 0 0 0 0 0 0 0 0 0 0
          0 0 0 0 0 0 0 0 0 0 0 0
          0 0 0 0 0 0 0 0 0 0 0 0
          0 0 0 0 0 0
        </DataArray>
        <DataArray type="Float32" Name="X_gCl" NumberOfComponents="1" format="ascii">
          0 0 0 0 0 0 0 0 0 0 0 0
          0 0 0 0 0 0 0 0 0 0 0 0
          0 0 0 0 0 0 0 0 0 0 0 0
          0 0 0 0 0 0 0 0 0 0 0 0
          0 0 0 0 0 0 0 0 0 0 0 0
          0 0 0 0 0 0
        </DataArray>
        <DataArray type="Float32" Name="X_gCa" NumberOfComponents="1" format="ascii">
          0 0 0 0 0 0 0 0 0 0 0 0
          0 0 0 0 0 0 0 0 0 0 0 0
          0 0 0 0 0 0 0 0 0 0 0 0
          0 0 0 0 0 0 0 0 0 0 0 0
          0 0 0 0 0 0 0 0 0 0 0 0
          0 0 0 0 0 0
        </DataArray>
        <DataArray type="Float32" Name="X_gUrea" NumberOfComponents="1" format="ascii">
          0 0 0 0 0 0 0 0 0 0 0 0
          0 0 0 0 0 0 0 0 0 0 0 0
          0 0 0 0 0 0 0 0 0 0 0 0
          0 0 0 0 0 0 0 0 0 0 0 0
          0 0 0 0 0 0 0 0 0 0 0 0
          0 0 0 0 0 0
        </DataArray>
        <DataArray type="Float32" Name="X_gTotalNH" NumberOfComponents="1" format="ascii">
          0 0 0 0 0 0 0 0 0 0 0 0
          0 0 0 0 0 0 0 0 0 0 0 0
          0 0 0 0 0 0 0 0 0 0 0 0
          0 0 0 0 0 0 0 0 0 0 0 0
          0 0 0 0 0 0 0 0 0 0 0 0
          0 0 0 0 0 0
        </DataArray>
        <DataArray type="Float32" Name="X_gO2" NumberOfComponents="1" format="ascii">
          0 0 0 0 0 0 0 0 0 0 0 0
          0 0 0 0 0 0 0 0 0 0 0 0
          0 0 0 0 0 0 0 0 0 0 0 0
          0 0 0 0 0 0 0 0 0 0 0 0
          0 0 0 0 0 0 0 0 0 0 0 0
          0 0 0 0 0 0
        </DataArray>
        <DataArray type="Float32" Name="X_gSubstrate" NumberOfComponents="1" format="ascii">
          0 0 0 0 0 0 0 0 0 0 0 0
          0 0 0 0 0 0 0 0 0 0 0 0
          0 0 0 0 0 0 0 0 0 0 0 0
          0 0 0 0 0 0 0 0 0 0 0 0
          0 0 0 0 0 0 0 0 0 0 0 0
          0 0 0 0 0 0
        </DataArray>
        <DataArray type="Float32" Name="X_gSuspended_Biomass" NumberOfComponents="1" format="ascii">
          0 0 0 0 0 0 0 0 0 0 0 0
          0 0 0 0 0 0 0 0 0 0 0 0
          0 0 0 0 0 0 0 0 0 0 0 0
          0 0 0 0 0 0 0 0 0 0 0 0
          0 0 0 0 0 0 0 0 0 0 0 0
          0 0 0 0 0 0
        </DataArray>
        <DataArray type="Float32" Name="X_gNH4" NumberOfComponents="1" format="ascii">
          0 0 0 0 0 0 0 0 0 0 0 0
          0 0 0 0 0 0 0 0 0 0 0 0
          0 0 0 0 0 0 0 0 0 0 0 0
          0 0 0 0 0 0 0 0 0 0 0 0
          0 0 0 0 0 0 0 0 0 0 0 0
          0 0 0 0 0 0
        </DataArray>
        <DataArray type="Float32" Name="X_gHCO3" NumberOfComponents="1" format="ascii">
          0 0 0 0 0 0 0 0 0 0 0 0
          0 0 0 0 0 0 0 0 0 0 0 0
          0 0 0 0 0 0 0 0 0 0 0 0
          0 0 0 0 0 0 0 0 0 0 0 0
          0 0 0 0 0 0 0 0 0 0 0 0
          0 0 0 0 0 0
        </DataArray>
        <DataArray type="Float32" Name="X_gCO3" NumberOfComponents="1" format="ascii">
          0 0 0 0 0 0 0 0 0 0 0 0
          0 0 0 0 0 0 0 0 0 0 0 0
          0 0 0 0 0 0 0 0 0 0 0 0
          0 0 0 0 0 0 0 0 0 0 0 0
          0 0 0 0 0 0 0 0 0 0 0 0
          0 0 0 0 0 0
        </DataArray>
        <DataArray type="Float32" Name="X_gCO2" NumberOfComponents="1" format="ascii">
          0.988841 0.988841 0.988847 0.988847 0.988835 0.988835 0.988829 0.988829 0.988823 0.988823 0.988817 0.988817
          0.988811 0.988811 0.988805 0.988805 0.988799 0.988799 0.988781 0.988781 0.988762 0.988762 0.988744 0.988744
          0.988726 0.988726 0.988707 0.988707 0.988689 0.988689 0.98867 0.98867 0.988651 0.988651 0.9886 0.9886
          0.988548 0.988548 0.988495 0.988495 0.988442 0.988442 0.988387 0.988387 0.98833 0.98833 0.98827 0.98827
          0.988207 0.988207 0.988175 0.988175 0.988142 0.988142 0.988108 0.988108 0.988073 0.988073 0.988037 0.988037
          0.988001 0.988001 0.987966 0.987966 0.98793 0.98793
        </DataArray>
        <DataArray type="Float32" Name="X_gH" NumberOfComponents="1" format="ascii">
          0 0 0 0 0 0 0 0 0 0 0 0
          0 0 0 0 0 0 0 0 0 0 0 0
          0 0 0 0 0 0 0 0 0 0 0 0
          0 0 0 0 0 0 0 0 0 0 0 0
          0 0 0 0 0 0 0 0 0 0 0 0
          0 0 0 0 0 0
        </DataArray>
        <DataArray type="Float32" Name="X_gOH" NumberOfComponents="1" format="ascii">
          0 0 0 0 0 0 0 0 0 0 0 0
          0 0 0 0 0 0 0 0 0 0 0 0
          0 0 0 0 0 0 0 0 0 0 0 0
          0 0 0 0 0 0 0 0 0 0 0 0
          0 0 0 0 0 0 0 0 0 0 0 0
          0 0 0 0 0 0
        </DataArray>
        <DataArray type="Float32" Name="Molarity_Brine" NumberOfComponents="1" format="ascii">
          53771.1 53771.1 53771 53771 53771.1 53771.1 53771.1 53771.1 53771.1 53771.1 53771.2 53771.2
          53771.2 53771.2 53771.3 53771.3 53771.3 53771.3 53771.6 53771.6 53771.8 53771.8 53772.2 53772.2
          53772.6 53772.6 53773.1 53773.1 53773.7 53773.7 53774.4 53774.4 53775.3 53775.3 53778.4 53778.4
          53783.6 53783.6 53792.5 53792.5 53807.6 53807.6 53833.7 53833.7 53878.9 53878.9 53956.3 53956.3
          54083.6 54083.6 54170.3 54170.3 54271.9 54271.9 54387.6 54387.6 54515.1 54515.1 54650.3 54650.3
          54786.8 54786.8 54919.4 54919.4 55049.2 55049.2
        </DataArray>
        <DataArray type="Float32" Name="Molarity_TotalC" NumberOfComponents="1" format="ascii">
          1.64025 1.64025 1.6402 1.6402 1.64042 1.64042 1.64068 1.64068 1.64101 1.64101 1.64139 1.64139
          1.64182 1.64182 1.64228 1.64228 1.64277 1.64277 1.64433 1.64433 1.64597 1.64597 1.64764 1.64764
          1.64929 1.64929 1.6509 1.6509 1.65245 1.65245 1.65394 1.65394 1.65535 1.65535 1.65868 1.65868
          1.66167 1.66167 1.66456 1.66456 1.66768 1.66768 1.67165 1.67165 1.67726 1.67726 1.68504 1.68504
          1.69379 1.69379 1.69625 1.69625 1.69656 1.69656 1.69385 1.69385 1.68808 1.68808 1.6806 1.6806
          1.67411 1.67411 1.57093 1.57107 0.0132254 0.0132254
        </DataArray>
        <DataArray type="Float32" Name="Molarity_Na" NumberOfComponents="1" format="ascii">
          0.00563387 0.00563387 0.00563297 0.00563297 0.00563631 0.00563631 0.00563997 0.00563997 0.00564464 0.00564464 0.0056502 0.0056502
          0.00565659 0.00565659 0.00566376 0.00566376 0.00567169 0.00567169 0.00569942 0.00569942 0.00573415 0.00573415 0.00577668 0.00577668
          0.0058282 0.00582821 0.00589036 0.00589036 0.00596525 0.00596525 0.0060554 0.0060554 0.0061638 0.0061638 0.00654867 0.00654867
          0.00719865 0.00719865 0.00829438 0.00829438 0.0101654 0.0101654 0.0133955 0.0133955 0.018988 0.018988 0.0285496 0.0285496
          0.044286 0.044286 0.0550061 0.0550061 0.0675714 0.0675714 0.0818863 0.0818863 0.0976667 0.0976667 0.114403 0.114403
          0.131307 0.131307 0.147709 0.147709 0.1633 0.1633
        </DataArray>
        <DataArray type="Float32" Name="Molarity_Cl" NumberOfComponents="1" format="ascii">
          880.425 880.425 880.429 880.429 880.414 880.414 880.398 880.398 880.377 880.377 880.353 880.353
          880.324 880.324 880.293 880.293 880.258 880.258 880.135 880.135 879.982 879.982 879.795 879.795
          879.567 879.567 879.293 879.293 878.963 878.963 878.565 878.565 878.087 878.087 876.39 876.39
          873.523 873.523 868.691 868.691 860.44 860.44 846.195 846.195 821.533 821.533 779.368 779.368
          709.974 709.974 662.7 662.7 607.289 607.289 544.161 544.161 474.57 474.57 400.763 400.763
          326.214 326.214 253.882 253.881 185.193 185.193
        </DataArray>
        <DataArray type="Float32" Name="Molarity_Ca" NumberOfComponents="1" format="ascii">
          9.36082 9.36082 9.36082 9.36082 9.36087 9.36087 9.36095 9.36095 9.36105 9.36105 9.36116 9.36116
          9.36127 9.36127 9.36138 9.36138 9.36148 9.36148 9.36168 9.36168 9.36162 9.36162 9.3612 9.3612
          9.36032 9.36032 9.35888 9.35888 9.35676 9.35676 9.35382 9.35382 9.34991 9.34991 9.33436 9.33436
          9.30546 9.30546 9.2546 9.2546 9.16594 9.16594 9.01145 9.01145 8.74272 8.74272 8.28147 8.28147
          7.51829 7.51829 6.99488 6.99488 6.37879 6.37879 5.67386 5.67386 4.89398 4.89398 4.06549 4.06549
          3.22972 3.22972 2.32193 2.32207 0 0
        </DataArray>
        <DataArray type="Float32" Name="Molarity_Urea" NumberOfComponents="1" format="ascii">
          0 0 0 0 0 0 0 0 0 0 0 0
          0 0 0 0 0 0 0 0 0 0 0 0
          0 0 0 0 0 0 0 0 0 0 0 0
          0 0 0 0 0 0 0 0 0 0 0 0
          0 0 0 0 0 0 0 0 0 0 0 0
          0 0 0 0 0 0
        </DataArray>
        <DataArray type="Float32" Name="Molarity_TotalNH" NumberOfComponents="1" format="ascii">
          864.955 864.955 864.958 864.958 864.944 864.944 864.928 864.928 864.908 864.908 864.884 864.884
          864.856 864.856 864.825 864.825 864.791 864.791 864.671 864.671 864.522 864.522 864.338 864.338
          864.116 864.116 863.848 863.848 863.525 863.525 863.136 863.136 862.669 862.669 861.009 861.009
          858.206 858.206 853.481 853.481 845.414 845.414 831.486 831.486 807.373 807.373 766.146 766.146
          698.297 698.297 652.075 652.075 597.896 597.896 536.173 536.173 468.131 468.131 395.966 395.966
          323.075 323.075 252.353 252.353 185.193 185.193
        </DataArray>
        <DataArray type="Float32" Name="Molarity_O2" NumberOfComponents="1" format="ascii">
          -1.02742e-06 -1.0274e-06 -1.05116e-06 -1.05113e-06 -9.59737e-07 -9.59709e-07 -8.64436e-07 -8.64409e-07 -7.55448e-07 -7.55422e-07 -6.43148e-07 -6.43125e-07
          -5.34943e-07 -5.34921e-07 -4.35744e-07 -4.35723e-07 -3.4835e-07 -3.48329e-07 -1.61049e-07 -1.61038e-07 -6.70446e-08 -6.70394e-08 -2.5728e-08 -2.57257e-08
          -9.24001e-09 -9.23899e-09 -3.13771e-09 -3.13713e-09 -1.01223e-09 -1.01212e-09 -3.05792e-10 -3.05772e-10 -6.84971e-11 -6.84966e-11 -4.36448e-12 -4.36468e-12
          -2.66034e-13 -2.66019e-13 -1.54995e-14 -1.5501e-14 -8.62726e-16 -8.6258e-16 -4.56556e-17 -4.5671e-17 -2.29708e-18 -2.29534e-18 -1.09749e-19 -1.09963e-19
          -6.32648e-21 -6.27658e-21 -9.90198e-22 -9.96489e-22 -1.52116e-22 -1.51288e-22 -2.24113e-23 -2.25244e-23 -3.23851e-24 -3.22251e-24 -4.50327e-25 -4.52668e-25
          -6.18172e-26 -6.14638e-26 -8.15711e-27 -8.20908e-27 0 0
        </DataArray>
        <DataArray type="Float32" Name="Molarity_Substrate" NumberOfComponents="1" format="ascii">
          16.9084 16.9084 16.9085 16.9085 16.9082 16.9082 16.9078 16.9078 16.9073 16.9073 16.9067 16.9067
          16.906 16.906 16.9052 16.9052 16.9044 16.9044 16.9014 16.9014 16.8977 16.8977 16.8931 16.8931
          16.8876 16.8876 16.8809 16.8809 16.8729 16.8729 16.8632 16.8632 16.8516 16.8516 16.8103 16.8103
          16.7406 16.7406 16.6231 16.6231 16.4224 16.4224 16.076 16.076 15.4762 15.4762 14.4507 14.4507
          12.7631 12.7631 11.6133 11.6133 10.2657 10.2657 8.73045 8.73045 7.03799 7.03799 5.24301 5.24301
          3.42996 3.42996 1.67084 1.67083 0 0
        </DataArray>
        <DataArray type="Float32" Name="Molarity_Suspended_Biomass" NumberOfComponents="1" format="ascii">
          0.00476362 0.00477286 0.00474945 0.0047591 0.0047944 0.00480422 0.00482777 0.0048388 0.0048571 0.00487002 0.00487912 0.00489498
          0.00489203 0.00491265 0.00489466 0.00492321 0.00488585 0.0049279 0.00482897 0.0048752 0.00471661 0.00477055 0.00457394 0.00463798
          0.00442958 0.00450611 0.00432635 0.00440338 0.00429128 0.00435142 0.00432392 0.00436843 0.00443656 0.00446596 0.00443951 0.0044459
          0.00453438 0.00453794 0.00474196 0.00474335 0.00508479 0.00508538 0.00554302 0.00554326 0.00600823 0.00600834 0.00620853 0.00620858
          0.00562431 0.00562433 0.00563487 0.00563493 0.00551908 0.00551912 0.00521558 0.00521562 0.00467324 0.00467329 0.00386512 0.00386516
          0.00279743 0.00279748 0.00149542 0.00149546 0 0
        </DataArray>
        <DataArray type="Float32" Name="Molarity_NH4" NumberOfComponents="1" format="ascii">
          862.908 862.908 862.912 862.912 862.897 862.897 862.881 862.881 862.86 862.86 862.836 862.836
          862.808 862.808 862.776 862.776 862.742 862.741 862.62 862.62 862.469 862.469 862.283 862.283
          862.059 862.059 861.79 861.79 861.465 861.465 861.074 861.074 860.605 860.605 858.942 858.942
          856.136 856.136 851.408 851.408 843.338 843.338 829.406 829.406 805.288 805.288 764.055 764.055
          696.2 696.2 649.98 649.98 595.807 595.807 534.095 534.095 466.07 466.07 393.928 393.928
          321.062 321.062 250.468 250.468 185.037 185.037
        </DataArray>
        <DataArray type="Float32" Name="Molarity_HCO3" NumberOfComponents="1" format="ascii">
          1.19799 1.19799 1.19795 1.19795 1.19814 1.19814 1.19838 1.19838 1.19869 1.19869 1.19904 1.19904
          1.19944 1.19944 1.19986 1.19986 1.20031 1.20031 1.20176 1.20176 1.20329 1.20329 1.20485 1.20485
          1.20641 1.20641 1.20794 1.20794 1.20943 1.20943 1.21089 1.21089 1.21229 1.21229 1.21577 1.21577
          1.21925 1.21925 1.22318 1.22318 1.22825 1.22825 1.23578 1.23578 1.24782 1.24782 1.26719 1.26719
          1.29665 1.29665 1.31445 1.31445 1.334 1.334 1.35494 1.35494 1.37752 1.37752 1.40298 1.40299
          1.43322 1.43322 1.37247 1.3726 0.00553194 0.00553194
        </DataArray>
        <DataArray type="Float32" Name="Molarity_CO3" NumberOfComponents="1" format="ascii">
          0.000413935 0.000413935 0.000413908 0.000413908 0.00041403 0.00041403 0.000414177 0.000414177 0.000414364 0.000414364 0.000414582 0.000414582
          0.000414825 0.000414825 0.000415087 0.000415087 0.000415365 0.000415365 0.00041626 0.00041626 0.000417212 0.000417213 0.000418193 0.000418193
          0.000419183 0.000419184 0.00042017 0.00042017 0.000421149 0.000421149 0.000422119 0.000422119 0.000423081 0.000423081 0.000425585 0.000425585
          0.000428384 0.000428384 0.00043195 0.00043195 0.000437108 0.000437108 0.000445421 0.000445421 0.000459707 0.000459707 0.000484976 0.000484976
          0.000529981 0.000529981 0.000563269 0.000563269 0.000606633 0.000606633 0.000663839 0.000663839 0.000741341 0.000741341 0.000850469 0.000850469
          0.00101017 0.00101017 0.00110693 0.00110713 4.26535e-07 4.26535e-07
        </DataArray>
        <DataArray type="Float32" Name="Molarity_CO2" NumberOfComponents="1" format="ascii">
          0.441869 0.441869 0.441866 0.441866 0.441882 0.441882 0.441902 0.441902 0.441928 0.441928 0.441957 0.441957
          0.44199 0.44199 0.442025 0.442025 0.442061 0.442061 0.442175 0.442175 0.442288 0.442288 0.442394 0.442394
          0.442487 0.442487 0.442564 0.442564 0.442621 0.442621 0.442652 0.442652 0.442655 0.442655 0.442508 0.442508
          0.442013 0.442013 0.440972 0.440972 0.439011 0.439011 0.435444 0.435444 0.429003 0.429003 0.417384 0.417384
          0.396635 0.396635 0.381259 0.381259 0.361975 0.361975 0.338265 0.338265 0.309836 0.309836 0.276788 0.276788
          0.239901 0.239901 0.197376 0.19738 0.00769319 0.00769319
        </DataArray>
        <DataArray type="Float32" Name="Molarity_H" NumberOfComponents="1" format="ascii">
          0.000196598 0.000196598 0.000196604 0.000196604 0.000196578 0.000196578 0.000196548 0.000196548 0.00019651 0.00019651 0.000196465 0.000196465
          0.000196415 0.000196415 0.000196361 0.000196361 0.000196304 0.000196304 0.000196119 0.000196119 0.000195921 0.000195921 0.000195713 0.000195713
          0.000195501 0.000195501 0.000195285 0.000195285 0.000195065 0.000195065 0.000194841 0.000194841 0.00019461 0.00019461 0.000193965 0.000193965
          0.000193147 0.000193147 0.00019199 0.00019199 0.000190201 0.000190201 0.000187255 0.000187255 0.000182274 0.000182274 0.000173898 0.000173898
          0.00016033 0.00016033 0.000151229 0.000151229 0.000140557 0.000140557 0.000128295 0.000128295 0.000114489 0.000114489 9.93059e-05 9.93058e-05
          8.31932e-05 8.31933e-05 7.03258e-05 7.03203e-05 0.000628379 0.000628379
        </DataArray>
        <DataArray type="Float32" Name="Molarity_OH" NumberOfComponents="1" format="ascii">
          4.93102e-05 4.93102e-05 4.93087e-05 4.93087e-05 4.93151e-05 4.93151e-05 4.93226e-05 4.93226e-05 4.93323e-05 4.93323e-05 4.93436e-05 4.93436e-05
          4.93561e-05 4.93561e-05 4.93697e-05 4.93697e-05 4.93841e-05 4.93841e-05 4.94309e-05 4.94309e-05 4.94813e-05 4.94813e-05 4.95339e-05 4.95339e-05
          4.95881e-05 4.95881e-05 4.96433e-05 4.96433e-05 4.96997e-05 4.96997e-05 4.97576e-05 4.97576e-05 4.98174e-05 4.98174e-05 4.99856e-05 4.99856e-05
          5.02015e-05 5.02015e-05 5.05114e-05 5.05114e-05 5.09994e-05 5.09994e-05 5.18241e-05 5.18241e-05 5.32802e-05 5.32802e-05 5.59184e-05 5.59184e-05
          6.07787e-05 6.07787e-05 6.45287e-05 6.45287e-05 6.95449e-05 6.95449e-05 7.63373e-05 7.63373e-05 8.57227e-05 8.57227e-05 9.90495e-05 9.90495e-05
          0.000118499 0.000118499 0.000140486 0.000140497 1.57575e-05 1.57575e-05
        </DataArray>
        <DataArray type="Float32" Name="Sum_charges" NumberOfComponents="1" format="ascii">
          0.0113519 0.0113519 0.0113519 0.0113519 0.0113517 0.0113517 0.0113515 0.0113515 0.0113513 0.0113513 0.0113509 0.0113509
          0.0113506 0.0113506 0.0113502 0.0113502 0.0113497 0.0113497 0.0113481 0.0113481 0.0113461 0.0113461 0.0113437 0.0113437
          0.0113408 0.0113408 0.0113373 0.0113373 0.011333 0.011333 0.0113279 0.0113279 0.0113218 0.0113218 0.0113002 0.0113002
          0.0112638 0.0112638 0.0112025 0.0112025 0.0110978 0.0110978 0.0109169 0.0109169 0.0106037 0.0106037 0.0100674 0.0100674
          0.00918321 0.00918321 0.00857962 0.00857962 0.00787085 0.00787085 0.00706169 0.00706169 0.00616756 0.00616756 0.00521679 0.00521679
          0.00425378 0.00425378 0.00331948 0.00331948 0.00246913 0.00246913
        </DataArray>
        <DataArray type="Float32" Name="Vx" NumberOfComponents="1" format="ascii">
          -4.96269e-15 -4.9626e-15 -6.41802e-15 -6.41791e-15 -4.18895e-15 -4.1889e-15 -4.83004e-15 -4.83e-15 -6.31149e-15 -6.31148e-15 -8.58597e-15 -8.58595e-15
          -1.14548e-14 -1.14547e-14 -1.47929e-14 -1.47931e-14 -1.83205e-14 -1.8321e-14 -2.21128e-14 -2.21138e-14 -2.86902e-14 -2.86922e-14 -3.77493e-14 -3.77529e-14
          -3.87559e-14 -3.87605e-14 -1.66379e-14 -1.66404e-14 1.15476e-14 1.15496e-14 2.79278e-14 2.79329e-14 2.89738e-14 2.89768e-14 7.69581e-15 7.69648e-15
          2.80851e-15 2.80852e-15 -2.73502e-17 -2.73485e-17 -1.03726e-17 -1.03571e-17 -2.93134e-15 -2.93127e-15 -7.27793e-15 -7.27739e-15 -1.69036e-14 -1.69031e-14
          1.38322e-14 1.38318e-14 2.73371e-15 2.7332e-15 -9.10793e-16 -9.10097e-16 -1.62685e-14 -1.62662e-14 -2.23608e-14 -2.23536e-14 -7.03203e-14 -7.03042e-14
          -2.54973e-14 -2.54916e-14 1.1124e-13 1.11234e-13 7.81991e-14 7.81958e-14
        </DataArray>
        <DataArray type="Float32" Name="Vy" NumberOfComponents="1" format="ascii">
          -2.8536e-11 -2.85323e-11 -1.59642e-11 -1.59617e-11 -5.54381e-11 -5.54322e-11 -8.21488e-11 -8.21409e-11 -1.08874e-10 -1.08864e-10 -1.35688e-10 -1.35674e-10
          -1.62631e-10 -1.62611e-10 -1.89722e-10 -1.89694e-10 -2.44934e-10 -2.44907e-10 -3.04368e-10 -3.04341e-10 -3.88971e-10 -3.88932e-10 -4.74385e-10 -4.74332e-10
          -5.6157e-10 -5.61509e-10 -6.49185e-10 -6.49134e-10 -7.37534e-10 -7.37512e-10 -8.28118e-10 -8.28134e-10 -3.30548e-09 -3.3055e-09 -3.15059e-09 -3.1506e-09
          -5.89014e-09 -5.89015e-09 -1.15408e-08 -1.15408e-08 -2.21364e-08 -2.21364e-08 -4.12231e-08 -4.12231e-08 -7.3428e-08 -7.3428e-08 -1.20714e-07 -1.20714e-07
          2.64561e-07 2.64561e-07 -3.00526e-08 -3.00525e-08 -2.97841e-08 -2.9784e-08 -2.65123e-08 -2.65122e-08 -1.91679e-08 -1.91678e-08 -5.502e-09 -5.50188e-09
          8.90212e-09 8.90231e-09 6.86195e-09 6.86199e-09 8.81729e-07 8.81728e-07
        </DataArray>
      </PointData>
      <CellData Scalars="process rank">
        <DataArray type="Float32" Name="process rank" NumberOfComponents="1" format="ascii">
          0 0 0 0 0 0 0 0 0 0 0 0
          0 0 0 0 0 0 0 0 0 0 0 0
          0 0 0 0 0 0 0 0
        </DataArray>
      </CellData>
      <Points>
        <DataArray type="Float32" Name="Coordinates" NumberOfComponents="3" format="ascii">
          0.0254 0.00625 0 0 0.00625 0 0.0254 0 0 0 0 0
          0.0254 0.0125 0 0 0.0125 0 0.0254 0.01875 0 0 0.01875 0
          0.0254 0.025 0 0 0.025 0 0.0254 0.03125 0 0 0.03125 0
          0.0254 0.0375 0 0 0.0375 0 0.0254 0.04375 0 0 0.04375 0
          0.0254 0.05 0 0 0.05 0 0.0254 0.06875 0 0 0.06875 0
          0.0254 0.0875 0 0 0.0875 0 0.0254 0.10625 0 0 0.10625 0
          0.0254 0.125 0 0 0.125 0 0.0254 0.14375 0 0 0.14375 0
          0.0254 0.1625 0 0 0.1625 0 0.0254 0.18125 0 0 0.18125 0
          0.0254 0.2 0 0 0.2 0 0.0254 0.25125 0 0 0.25125 0
          0.0254 0.3025 0 0 0.3025 0 0.0254 0.35375 0 0 0.35375 0
          0.0254 0.405 0 0 0.405 0 0.0254 0.45625 0 0 0.45625 0
          0.0254 0.5075 0 0 0.5075 0 0.0254 0.55875 0 0 0.55875 0
          0.0254 0.61 0 0 0.61 0 0.0254 0.63375 0 0 0.63375 0
          0.0254 0.6575 0 0 0.6575 0 0.0254 0.68125 0 0 0.68125 0
          0.0254 0.705 0 0 0.705 0 0.0254 0.72875 0 0 0.72875 0
          0.0254 0.7525 0 0 0.7525 0 0.0254 0.77625 0 0 0.77625 0
          0.0254 0.8 0 0 0.8 0
        </DataArray>
      </Points>
      <Cells>
        <DataArray type="Int32" Name="connectivity" NumberOfComponents="1" format="ascii">
          0 1 3 2 4 5 1 0 6 7 5 4
          8 9 7 6 10 11 9 8 12 13 11 10
          14 15 13 12 16 17 15 14 18 19 17 16
          20 21 19 18 22 23 21 20 24 25 23 22
          26 27 25 24 28 29 27 26 30 31 29 28
          32 33 31 30 34 35 33 32 36 37 35 34
          38 39 37 36 40 41 39 38 42 43 41 40
          44 45 43 42 46 47 45 44 48 49 47 46
          50 51 49 48 52 53 51 50 54 55 53 52
          56 57 55 54 58 59 57 56 60 61 59 58
          62 63 61 60 64 65 63 62
        </DataArray>
        <DataArray type="Int32" Name="offsets" NumberOfComponents="1" format="ascii">
          4 8 12 16 20 24 28 32 36 40 44 48
          52 56 60 64 68 72 76 80 84 88 92 96
          100 104 108 112 116 120 124 128
        </DataArray>
        <DataArray type="UInt8" Name="types" NumberOfComponents="1" format="ascii">
          9 9 9 9 9 9 9 9 9 9 9 9
          9 9 9 9 9 9 9 9 9 9 9 9
          9 9 9 9 9 9 9 9
        </DataArray>
      </Cells>
    </Piece>
  </UnstructuredGrid>
</VTKFile>
